Acc.	F-score	Cont.	Kernel	C	Deg.
71.11	54.21	0	0	0.001	
71.56	50.32	0	0	0.01	
69.85	44.44	0	0	0.1	
69.67	44.48	0	0	1.0	
69.67	44.48	0	0	10.0	
69.67	44.48	0	0	100.0	
69.67	44.48	0	0	1000.0	
69.67	44.48	0	0	10000.0	
71.11	54.21	0	1	0.001	1
74.71	48.06	0	1	0.001	2
75.61	47.59	0	1	0.001	3
71.47	50.08	0	1	0.01	1
74.62	47.77	0	1	0.01	2
75.61	47.59	0	1	0.01	3
69.94	44.52	0	1	0.1	1
74.62	47.77	0	1	0.1	2
75.61	47.59	0	1	0.1	3
69.67	44.48	0	1	10000.0	1
74.62	47.77	0	1	10000.0	2
75.61	47.59	0	1	10000.0	3
69.67	44.48	0	1	1000.0	1
74.62	47.77	0	1	1000.0	2
75.61	47.59	0	1	1000.0	3
69.67	44.48	0	1	100.0	1
74.62	47.77	0	1	100.0	2
75.61	47.59	0	1	100.0	3
69.67	44.48	0	1	10.0	1
74.62	47.77	0	1	10.0	2
75.61	47.59	0	1	10.0	3
69.67	44.48	0	1	1.0	1
74.62	47.77	0	1	1.0	2
75.61	47.59	0	1	1.0	3
