    
    
 
                      
          Y1          Quant1|SingCh 
    
   
       Quant1     
    Quant0     SingCh    Quant1|SingCh     SingCh    
     
         SingCh   
   
           
   Caron0  Caron0      Quant0  Cap1   Quant1  
            
      Y1  
    Quant0 
       Cap1  Quant0  
     
    Quant0     Cap1 
                    SingCh 
           SingCh 
                     
           
       SingCh             
  Quant0          Caron1    RedunChar         Quant1|SingCh                   
