   Cap1                 
      Quant0     Quant0  SingCh  RedunChar  Quant0 Quant0   Quant0 Quant0    
              Quant0     
                   Quant0 
     Quant1          Quant0       
          Quant0   Quant0   
         SingCh          Caron0           
   Quant1                                 
          Caron1|Quant0       SingCh       
             Y1 Quant0       
    SingCh        Quant0 
    RedunChar            Quant0            
                 Quant0              
        Quant0                                       Quant0   Quant0   
                 Quant0   RedunChar 
Quant0             SingCh       Quant1   RedunChar  
      Quant0                               Quant1  Quant0  
      SingCh     Quant1|SingCh  Quant0 Quant0                      
