   
       
      
                     
              
              
       
            
                       
   Quant0   
          
           
             
     
    Cap1        
        
                        Quant0 
     
                
                      
        
          
      
   Cap1          SingCh          
                      
Quant0    SingCh       Cap1     Cap1       
          
       
      
           
         
      
