Caron1   Quant1
   Quant0   Quant1     Quant0        
                 
           Cap1 
           Cap1|SingCh          
          
    Quant0 Cap1             
   Quant0               
      Quant1  SingCh            SingCh     
SingCh     Quant0         
Quant1          
          
         
 Quant0        Quant0     
Quant0         
              
       Caron1          
     Caron0   Voiced0 Quant0    
              
Quant1 Quant1         Quant0  
     Quant0    Quant1       
             Quant0  Quant0           SingCh  
          SingCh                
      Quant0    
