  
               
             Dtn       
   
                         
          
                      
      SingCh 
    VoicedFin1             
    Caron1 
              
                      
     
         
                   
     
          Quant0     Quant0 Caron0    SingCh        
        Y1   
  Cap0 
Quant1 MissChar           Quant1       RedunChar         
        
           Cap0              Quant1 
             SingCh                  
        
         
        DiaE    
     Quant0     
       SingCh     
 Dtn         
           
  SingCh          SingCh      
            
    Quant0                
