 
   Quant0 
 Quant0   Cap1 
Quant0   Quant0      
          Quant0    Quant0 Quant0|Quant0 Quant0   SingCh  Cap0|Caron0 Quant0   Quant0 Quant0     Quant0 
 Voiced|Caron0 Quant0  Quant0        Head|SingCh    Quant0   
 Quant0  Quant0  Caron0|Quant0  
Quant0 Caron0 Quant0|SingCh Quant0  SingCh Quant0|Caron0      
Quant0 Caron0  Len1          Quant0 Quant0     Quant0 Caron0|Quant0           MissChar   Unspec 
   Quant1         Quant0   Voiced  
     Quant0 
     Quant0 
