  
     
        
              
  SingCh      
  Len1 Quant0|Y0             SingCh     
      Y1     
       
    Caron0        SingCh  Quant1       
       Cap1     
       Y0        Y0 
   Y1  SingCh       
    
 Quant0         
      Quant0    Quant0    
