Quant0    
 RedunChar    Quant0|Quant0    
Quant0       Unspec   Quant0          
Quant0    SingCh   SingCh      Quant0   RedunChar   
   SingCh       Quant0       Y0|Quant1 
 Quant0|Quant0       Quant0       
Quant0|Quant0     SingCh   RedunChar  
   Cap1    Quant0      Y0          
     Quant0 Quant0         SingCh   Quant1   
       
    Quant0        
 Quant0 Quant0    
       
 Quant0            Quant0   
