    
            
         
                   
             Caron0 
       
                   
        
                   
       Quant1   
                Quant0 
    
Quant0|Quant1     Quant0       
   
          
         Quant0     
              
        
            
                   
          
         
