     
                        
    
            
                  
  Quant0           
       MissChar             
       SingCh        SingCh 
     Quant1   
              
      SingCh 
                   
                  
 Voiced0    
    Quant1      
              
    
          
    Voiced0         
                  
                  
            
