    SingCh 
       Cap0|Quant0   Y0           
                      Quant0        
Quant0        SingCh     SingCh       Quant1            
  SingCh     Quant0           
  Cap0      Cap0|Quant0         RedunChar       SingCh              RedunChar     
                       
   Cap0           Unspec                        Quant1 
                     Unspec  SingCh           Unspec    Cap0|Quant0 
Unspec    Cap1    SingCh                      Quant0     
