  
     Meta
    
    Quant0     
      
    SingCh   
      Unspec    Cap1 RedunChar
                
   Quant1   Y1 SingCh 
     Quant0    
Quant0 
   Quant0      Quant0   Quant0|SingCh 
MissChar   
 SingCh 
          Quant0       
    
 
  Quant0     
    
                 
  
Quant0             
        Cap1   
