       Quant0 
       SingCh 
 Quant1   
  Caron0       Quant0 Caron0  Tail1 Caron0 
 Caron0    Quant0         Quant0   Quant0  RedunChar    Quant0 Voiced     
     Quant0 
Quant0    Quant0  Quant0  
  
      Quant0 
    
Quant0  Quant1    
  Quant0  
  Quant1|Quant0  Quant0 Caron0|SingCh   Caron0|SingCh Quant1 
