     Cap1    
  Quant0  
Quant0       Quant0 
Quant0     Quant0|Quant0  Quant1  
Quant0   Quant0    Caron0|Quant0     Quant0  
  Caron0 SingCh Quant0   Quant1  SingCh Caron0     Quant0 Quant0   
 Unspec  Quant0  Quant0  Quant0 SingCh Quant0 Quant0   Quant0      Quant1      Quant0    Quant0 Quant0  Quant0 Caron0    Quant0 Quant0|SingCh      Quant0  SingCh Quant0 Quant0       Caron0|Quant0  Caron0 
            Unspec     Unspec   Quant0 Quant0   Unspec  Caron0    Quant0  Quant0 
       
