 Quant0|Quant0     Quant0  Quant0  Unspec 
 Quant0 Quant0      Quant0  SingCh 
 Quant1 Quant1 Quant0|Y1 
 Quant0   
      
      
  Quant1   SingCh 
SingCh Quant0            SingCh 
Caron0  Caron0 Quant0 Quant0 
   Quant0    Caron0  Quant0 
  Quant0 Quant0|VoicedFin0 
  Quant0 
