 Quant0  
   
         Quant0       Cap1     Quant0|Caron0 
Caron0 SingCh  Quant0 Quant0  Quant0   MissChar 
 Quant0   Quant0 
   
 Caron0|MissChar  Caron0|Quant0     
   Quant0  Quant0    
Quant0|Y1|Quant0    SingCh 
Quant0   Cap1|SingCh   
     
