           
 Quant1              
               
         Cap1        Quant0    
              Quant0  
   Quant1                   Quant0 
     Caron0           
                   
                       
     SingCh          
Quant0         Cap1|SingCh         
    Quant1        SingCh 
     RedunChar   Caron0|MissChar     
          
               
