SingCh 
Quant0   Quant1  
Quant0 SingCh   Caron0      
Y0    
Quant0     Quant0  
Quant0   SingCh Quant0  Y0|SingCh 
 Quant1   Y0 Quant0 Y0  
   Quant0       Quant0 
 Y0     Quant0 Unspec 
  Y0   
Quant0  Caron0 Quant0|Quant0      
