  
     
  SingCh        Caron0|SingCh 
  SingCh       SingCh   
 Quant0   Quant0 
      Y1|Quant1   Quant0    
 Quant0  Quant0              
 Quant0  Quant0   
    Quant0       
Quant0  Unspec     
            
   Quant0    
       
Quant1   
 

