    
      
                 
              Caron1   Caron0  Quant1 
  Caron0  Quant0           Quant0 Caron0 Caron0 
    SingCh  Quant0     Unspec Caron0      
Quant0   Quant0       
   Quant0      Caron0 Quant0            Quant0             
    Caron0                      
     
