 Quant0  RedunChar   
Quant0 Quant0   Caron0  Quant1|Caron0    Quant1 Quant0  MissChar   
           
 Quant0 SingCh Quant0         Quant0          Quant0          Quant0    Quant0|Quant1 SingCh     Quant0   
 Gemin1 Head|SingCh      
 Cap1|Meta Quant0   
 Cap1 Cap1 Cap1|Quant0  Quant0 Quant0  
  Cap1   Quant0|Y1  SingCh    
  Quant0  Cap1  Quant0       
 Quant0 Cap1   Y0|Quant1   SingCh   SingCh 
 Quant0 Quant0     
   Caron1        Quant0    Quant0    
   Quant1       Quant1 Caron0|Caron0     Quant0 Quant0 
