Quant0    Quant0    Quant0      Quant0  Cap0      Cap1    Caron0   Quant0 
 Quant0       Cap0  
            Y1        Quant0          
  Quant0        Quant0    
 Quant0   Quant0|Quant1      Quant0 
         Quant0   
  Quant1|Quant0 Quant0|Quant1 
    Quant0     Caron0   Quant0|Quant1 SingCh Quant0    
     Y1     Y1|Quant1  
 Quant0  Quant0      Quant0   
