          Quant1       
                              
  Y1                 Quant1  
 Cap1    Voiced   Quant0      Cap1                 
      Quant0         Quant0  Quant0      Quant0                      
        Voiced0  SingCh  Quant0|Caron0 Quant0  
       
      Quant0        CK1|SingCh  
        Quant1    Caron0     Quant0         
                Quant0       
   
       
            
             Cap1  Voiced      
