         
    Y1         
                     
                 
   Cap1    Cap1 Head1 Y0   
            
                Caron0    Quant0  
      
      Cap1           SingCh       Quant0 
   SingCh    Quant0  Head  Tail1   
Quant1      Caron0 
    
          
  Quant0                    
   Quant1          Caron1 SingCh  
