       Y0     
    Quant0 
             Y0|Quant1|SingCh    
  Quant0   SingCh     Caron0|Quant0 
             Quant0     
     Quant0                     
              Quant1 Quant0      
         Quant1   
