   
         
   Quant0 Quant0  
Quant0 Quant0        Quant0    
       
     
         
             Quant0 
   Cap1  
   SingCh       Y1|Quant0 Unspec    
  SingCh 
        Cap1       Quant0 
    SingCh      SingCh      
      Quant0  
        
