      
        Quant1 Quant0|Quant1  
    Quant0    Quant0 
Caron0        Quant0 Caron0     
     Caron0     Quant0       Quant1 
     Quant0          MissChar  
  Quant0    
Quant0 Quant0                    Caron0 Quant0     
Quant0    Caron0          Quant0 
                Caron0      
                  Quant1 
 Len1  
                    
