  Cap1     Quant0      
     SingCh       
Quant0   SingCh   Unspec   Quant0|Caron0  RedunChar SingCh  SingCh    Unspec      Cap0|SingCh  SingCh  SingCh 
         Quant1 Quant0     Quant0        Quant1   
    SingCh     Caron0         
   Quant0   Caron0     Quant0  Quant1  Quant0    Cap0|SingCh  SingCh 
