        Unspec         RedunChar 
 SingCh Quant0   Quant0    
                
   RedunChar  
RedunChar  RedunChar 
Cap0               Quant1  
     Quant0 Quant1  Quant0 SingCh  RedunChar 
Quant0 Quant0|Caron0 Quant0 Caron1 SingCh 
  EpentE1 Quant1    MissChar 
  RedunChar 
              Quant1 
          Head|SingCh       
       Unspec   Y1 
 Quant1
  RedunChar  Quant1  
 Cap1 CK0 Quant0    
      
