SingCh     Head|SingCh   Y1 
       SingCh  SingCh  
      SingCh  
           Quant1|Quant0          SingCh   SingCh        
     Quant0      
Quant0  Quant0     
           Quant0 
 Cap1  SingCh     Quant0 Quant0 
 Cap1 SingCh   
