         
     
   Quant1|Quant1  RedunChar     
     
    Quant0      
         Quant0 
   
   
       
Quant0               
        Quant0  
 Quant1     
Quant1     Quant0      
    Cap1       Cap1 
                  Quant0    Tail1
       SingCh 
   Quant0  
  Quant1  Quant0   
