  
   
       
 ProtJ1      SingCh 
     
    
   Quant1     
            
      
     
    Cap0       
            
  Quant0          SingCh 
         
  Quant1       RedunChar 
     
  SingCh 
    Quant1       SingCh 
        
          SingCh  
           Cap0   Cap0     
      
    SingCh  Quant0 
  ProtJ1    SingCh 
    RedunChar         
  Caron1  
     RedunChar         SingCh 
                 
         Caron1|SingCh       Head|SingCh  
Quant1        Caron0      
        
     
    
   
         Y0  Cap1|Y0    
   
