  
     Quant0             
Caron0               
                      Quant0         Quant0 
   Caron0              Quant0|SingCh           
    Quant1         
            SingCh   
    Quant0       Quant0                 
  Quant1  Quant0 
         Quant1   
        SingCh 
             
                  Cap1            
             
      Quant0      
