 Cap1 Quant1
     Caron0|SingCh  Quant1 
RedunChar Quant0   Quant0|Quant1   Quant0    
SingCh    SingCh  
  Quant1     Quant0 
  Head    Caron0     Quant0 
 SingCh      Quant1    Quant0 
  Caron0     Y0  
Tail1   
 Quant1        SingCh   Unspec Quant1 Quant1 
     Quant0   Quant1 Quant1   Voiced0|Quant0     Quant1 Y0    Quant1 
           
 Quant1 Caron0|Quant1  Quant1    Unspec      
    Caron0  Quant1 
