  
      
   Caron1           
Quant1            
  Y1         
       
              
       
           
   Cap1           
     Unspec  Voiced          
               Cap1 
  SingCh        Caron0  
         SingCh   
