Caron0   
           Quant0 
      SingCh        Caron1  Head|SingCh  Quant0  
        
     
  
       
   Caron0     Quant0 Cap1      Len1        Quant1 
           
  Voiced0|Quant0      
            
   SingCh        Quant0 
SingCh   Quant0 
 
  SingCh   Quant0        
    Quant0     Head1
    
Quant0              Quant0     Quant0   

