 
                             
              Quant1    
                                    Tail1
  Quant0|SingCh   
               Quant1          
          
  Quant1             Cap1            
                   
                  
 SingCh     
   
           
       
       
    Quant1       
 Quant0                         
   
   
