   
Quant0|Quant0 Cap1
  Cap1   Quant0  
     
  Caron1  SingCh  Quant0 Cap1   SingCh SingCh 
  Cap1   Quant0          
        
Quant0  Quant0    Quant0  Quant1|SingCh 
     
 Quant0      
    
      
  Cap1            Quant0  Head1 Cap1   Quant0    
  Cap1           
  Quant0     Quant0  Quant0 
                Quant0 
