ProtJ1 
         
      Quant0   
Caron0      SingCh    EpentE0      
                            EpentE1   
           
          
       SingCh                
        
                           
      
                
      Cap1   Cap1                   
      
                   
    SingCh      
EpentE0                  Quant0  
        
         SingCh        
EpentE0                 SingCh 
       EpentE1 
      
         
       
      
  Quant1 
            
    
           Caron0                     
SingCh                      Cap1  
       
      
