 
 Quant0  Cap0   SingCh
Quant0    SingCh   Meta  
   Cap0|SingCh     MissChar  
    Cap0|Quant0 
Quant0 Quant0          
 Quant0    Quant0 
 Quant1  Quant0  Quant0     
    
      Y0   
          Y0  
Quant0 Quant0  Y0|Quant0 Quant0      
   Quant0   SingCh 
    
