                       
            
           
                
        
               MissChar   Y1     Cap1                        Quant0   
                    
      
             
          Cap1    SingCh 
       
              Head|SingCh     
    Quant0|RedunChar                 
              Quant1|SingCh    
                
                
       Quant0|RedunChar 
       
           Quant1               
                 
                   
                
        
    SingCh                
   
