       
     Quant0                         
Quant0     Quant0  Quant0  Quant0      Unspec      Quant0          Quant0   
     Quant0   
   Quant0   Quant0    Y0    Voiced0 
        
                   
        SingCh Y1     Quant0      
        Quant0        Quant1         
       Quant0    Quant0   Quant0  
        Quant0 
