   

          
           
              SingCh            
             
              
              
                   
         
        
        Cap1            
                  Cap1               
         
                  
                 
           Quant0  Quant1          
                   
                   
             
