Cap1|Cap1|Cap1  Cap1 Unspec 
   Quant0   Quant0    Quant0    Quant0 
  Quant0          Caron0 
 Quant0  SingCh    Quant0          Quant0 
    Caron0   
         
          
 SingCh SingCh       SingCh  
             Quant0  Quant1   Quant1     SingCh           
               
     Cap1|Y0      Voiced      Quant0   Quant1 
        Quant1    Quant0  Quant0   
    Quant0 Quant0 
  Quant0   
        Quant0    Quant1         Quant1     Quant0|SingCh 
       Quant0   
  Quant0 Quant0                   SingCh    
         Quant0     Quant0 
   Quant1            
   Quant0 Quant1 YJ0       Quant0 Quant0 
  Quant0   Quant0      Quant1 
         
 Quant0      Quant1       
    Caron1   Quant0  SingCh       Quant1         Quant0    MissChar     
  Quant0  Quant0   
  Quant0 Quant1    Quant0 
 Quant1         
      MissChar 
     
