     Quant0|Quant0   RedunChar               RedunChar     EpentE0      Tail1    Quant0  SingCh           Caron1 Quant0      SingCh      Quant0     MissChar   Quant0    DiaE   DiaE      Quant0 
       Mne0             EpentE1|Quant1         Quant0   
Quant0                  Caron0                             Quant0       Head|SingCh                 
    Quant1 
