
                                                     
                     Gemin0|SingCh               
       
                        
                  
      
             
               
                    
      
            
                                 
                                     
       
  Quant0            
  
                                                       
 Cap1                               SingCh                
           
         
              
 Cap1  
            Quant1  
