 
            Quant0        RedunChar 
           Quant0        SingCh  SingCh 
   Head|SingCh Quant1       
                     
            
 SingCh         SingCh  
          Quant0  
      Quant0     Cap1       
  Quant0     SingCh   
       Quant0 
Quant0               MissChar   Quant0     Cap1 SingCh 
   Quant0     
                   Quant0   Quant0 
 Quant1 Quant0 VoicedFin0          
SingCh          Quant0        
  Caron0     Cap1 
       Quant0             
       Quant0 
        
        
      Quant1|SingCh  Quant0 
         CK1    
   Cap1    Cap0 
 Quant0          
     Quant0        Unspec   
 Quant0       Cap1            Cap1  
 Quant0              
         
 SingCh        
           Quant0   
Quant0       Quant0      Quant1                Cap1          
       Quant0         Quant0       Quant0       
  Quant0    Gemin1  
                 Quant0 Quant0 
Quant0         
SingCh               
          SingCh           SingCh  
              
            
