  
 Cap1   Cap1               SingCh 
    
          
     
    SingCh SingCh   SingCh  
       
SingCh Quant1|Quant0      Quant0|RedunChar  MissChar  
   SingCh              
       
     SingCh 
      
SingCh  SingCh  
     Quant0                   SingCh  
         
 SingCh  Quant0               Len1  Quant1  
