MissChar  
 Cap1    Quant0|MissChar  
 Cap1          
 Cap1           SingCh Quant0         
 Cap1          Quant0 Quant0 
 Cap1                  Head                   
 Cap1             Unspec       
             
