Unspec
 Cap1   SingCh 
 SingCh     SingCh   Cap1|SingCh          SingCh         Caron0        SingCh   
          
   Cap1     
     
    Quant1     
          
          DiaE          SingCh    
             
          SingCh                  
   SingCh     Quant0 Caron0 
      Quant0  SingCh   Quant0   
