 
    SingCh SingCh  SingCh 
       
    Quant0     
   SingCh  SingCh  SingCh Quant0 
 SingCh   SingCh     SingCh    
      Quant1     
    Quant0|Quant1            
Quant0|Quant1       Quant0   
           
SingCh  SingCh Quant0     Quant0 
             
SingCh RedunChar SingCh       Quant1    Cap1    Quant0 
           Caron0                   Quant0  Quant0  
Quant0  SingCh            Caron0 
              
