      
     SingCh       Quant0|Quant1      Cap0 
              Len1                 Quant0    
 Cap1        RedunChar        MissChar  
       Quant1         
      SingCh     Quant0    Quant0|Quant1  Quant0|Quant1 Quant1|SingCh   
   Quant0|Quant0      
