   Cap1  
  Quant0 Quant0        
  Quant0       
     Quant0                  
       
    
 Quant1         Quant1|Quant0      SingCh  Caron0      SingCh 
         Y1         
     SingCh   SingCh Cap1  
   SingCh  
   Quant0         SingCh      SingCh                   Quant0  Quant0  
     Quant0    
         Quant0      Quant0      
    
 Quant0 
        Cap1 Quant0      
