 
         
                        
                  
                   
                  CK0      
     
                   
           
         
                       SingCh 
        
        SingCh  SingCh        
             
               
                      
                  
                           
    
     
               
 
          
         Y1   
        
         
