SingCh    
  Cap1|Y0 
Quant0|SingCh   
   
 Y0|Quant0  Cap0  Cap1|Quant0 Quant0 Quant0  Head|SingCh     Quant0 
Quant0  RedunChar    Voiced 
    
Quant0 Quant0    
    Cap1  Cap1|SingCh Cap1|SingCh 
Y0|VoicedFin0 SingCh  Quant0|VoicedFin0 Quant0       Y0|RedunChar     Voiced 
