 
     
Caron0               
Quant1  
     Unspec     Cap1         Y1   
    
    
 Quant0         
    
     Quant0     
      SingCh     
SingCh  Quant0     
        
 Quant0        
   Y1  
       SingCh     Y0  RedunChar SingCh 
  Quant1 Quant0       SingCh RedunChar             
   Quant0   MissChar     SingCh       Caron0      Quant0    
 SingCh    Y1|Quant0   Unspec  SingCh      
        
     Caron0    
         Quant1     
             Quant0    
 Quant0  Quant0    Quant0    
   
   Caron0  
        SingCh  SingCh       Quant0   Quant0          
    
        
   Quant0                  
    Quant1     
  Quant1  
   Quant0  RedunChar SingCh  
       SingCh      
        
 SingCh    Caron0 
                    SingCh  Quant0         
        Quant0      Cap1|Quant0   
     
