   
      
  Quant0             
   Cap1   Quant0 
MissChar Tail1
          Y1 
    Quant0 Y1|Quant1  Quant1|Quant0  Quant0 Head1 
  Quant0   Quant0|Y1                 Cap1         
  DiaE   Quant1    Quant0            Quant0     
         Cap0       Quant0   
   Quant0  Quant1  Quant0        
   Y0|SingCh       Y0 
    Quant0   Cap0  Quant0 Quant0  Gemin1  
         
                    
 Quant0          Quant0    Quant0   Quant0        
Quant0  Quant0     Quant0   
 Quant0     Cap0|Caron1      SingCh       
Quant0    
   Quant0|SingCh RedunChar  SingCh Quant0   Y1   Quant1       Quant0   Quant0  
 Cap1    SingCh      Quant1    
   Y1   Y1      
    Cap1 
 Cap1   Y1|Quant0  Quant0      RedunChar              
 SingCh  Quant0 Quant0  Quant0 Quant0       
     Caron0 MissChar      RedunChar               Quant0|Quant0                     
    Caron0    Quant0 Quant0    
