 Quant1           
               
    SingCh     
   SingCh                
       
         Unspec             Head1    
Quant0     Quant0   Quant0    Quant0  Quant0 Quant1  
SingCh     
   Quant0          Tail1
