    
       
   
 Cap1     
                            
  
     Quant0|Y1                       Unspec   
              RedunChar  
               SingCh        
                                              
          
             
                
                
                               
        
                  
      
                                 
   SingCh SingCh   SingCh     
    
                                                                            
     
     
        
                          SingCh                               
                         
  SingCh  
              
   

