Quant0 
Quant1       
SingCh          
    Cap1    Cap1   Quant0     Cap1       Cap1             
           Cap1   Cap1  Quant0          Quant0  Cap1   Quant0 
                              Cap1               
Quant0   Quant0  Quant1  Cap1  Quant0   
Quant0     Quant0  
