   Quant0     
      SingCh Quant1        
  Len1      Quant0 
          
    
     Cap1      Cap1  
     Quant0  SingCh  Cap1  
  Cap1 Quant0 
 Quant0     Quant0 
    Quant0  Quant0|Caron0  Quant0   Cap1 Cap1|SingCh  
 Quant0     
     
 Caron0  Quant0 
           Quant0 
 Quant0|SingCh SingCh   
   SingCh    Caron0   SingCh 
