      
   MissChar    
      Caron0   
     
        SingCh   
     
      Caron0|Caron1      Caron1|Quant0         Quant0  Quant0          Quant1 
      
    Unspec   
    RedunChar 
      
 
  
     
 Quant0   Cap1|SingCh   Quant0 
   Quant0 
  Quant0     Caron0|Caron1 
  Caron0    Y0    
   Quant0   
Caron0     
   
