      
        
           
    
                Quant0   
 Quant0     Quant0  
       
   Quant0     Quant0    
              
     Quant0   Quant0    
                    SingCh              
      Cap1 Quant0            Quant0       Unspec    
     Quant0             
             Quant0 
              Quant0 Quant0     
