Cap1|Cap1|Cap1 Cap1|Cap1 Quant0 Cap1|Cap1|SingCh Voiced0 Cap1|Cap1|Cap1 
Quant0     Quant1   Quant0 Caron1   Quant0   Quant1 
   Quant0 Quant1   Quant0    Quant0|Quant1      
 Quant0|Quant1    Y1 Quant1     
Caron0  Caron0|Quant0  Caron0       SingCh Quant0   
           Quant0         
Quant0  Quant1             
Caron0        Quant1 
        SingCh  Quant0  Quant0      Caron0       Caron0 
      Quant1 Quant0      SingCh       Quant1   Tail1  Head1   Quant1     Quant1|SingCh 
Quant1         Quant1             Quant1  Quant0  Quant1|Quant0 
