          Quant0|Caron0      
           Quant0     
          Caron0    
  Quant0 Quant0  Quant0  Quant0     Cap1 
 Caron0   Quant0     Cap1 
   Quant0      
 Caron0   Quant0 Quant0  Quant0|Quant0     RedunChar   Quant0   
Unspec    Quant0    Quant1|Caron0       
 Quant0    SingCh MissChar  Quant0|Quant0      SingCh  
