Caron0 Cap1  Unspec   
        
   
 Quant0  SingCh Cap1           Caron0   
 RedunChar  SingCh           
   Caron0    DiaE                     
        Quant0          SingCh    
      
         Quant0  
Quant0    
             
      
     
          SingCh   SingCh    
     Y1            
                 
                   
             
                   Quant0|SingCh 
  Quant0    SingCh     SingCh              
 Quant0     Quant0 
               Quant0    
     Quant0          
               
                        
