  Cap1   SingCh  Quant0  
               
       
Quant0 Caron0  Quant0  Quant0 SingCh 
SingCh  Quant0  Quant0  Quant0     
     Quant0      
        
        
 Quant0 Quant0      
 Cap1   Quant0  
    
   Quant1  Quant0    Quant1  Quant0   Quant0|Quant0  
 MissChar    Quant0  Cap0  Cap0|SingCh     
   Quant0|Quant0  Quant0          Quant0   
    Quant1 Quant0      SingCh 
MissChar  Cap1  Quant0           
   
Caron0  Quant0  Quant0   Cap1      VoicedFin1 SingCh 
    Quant0  
       Quant0    
  Cap1 VoicedFin1 Quant0 
 Quant0    SingCh   
   Quant0       
