     
    Quant0 
   Quant0  Quant0  
    
     Quant0    
    Quant0       
    SingCh     
    
 Quant0     
  Unspec     Quant0 
  Quant0  
  Quant0|VoicedFin1  
   Quant0  
  Quant0    
   Y0|Quant0|VoicedFin1 Quant0   SingCh  
  Quant0 RedunChar  Quant0   RedunChar  
   Quant0|SingCh  
 Quant0  
 Quant0    SingCh       
