  
        
   SingCh   Quant0 
   Head|SingCh   
  Quant1 
    Quant0      
  Quant0      
      Quant1  
   Quant0     Quant1 Quant1 Quant0   
     Quant1      
        Quant1 
     
Quant1   RedunChar   SingCh    SingCh  
      
    
Voiced     
     
     
        
