  
     
     Tail1 
      
    
    
 Quant1  
 Quant0   Quant0  
    SingCh 
 Cap1     
      Quant0     
     
      
   SingCh Unspec Quant1     
       
     
 Quant1        
Quant1 Caron0   
   
     
    SingCh   
     
          
