  
  Quant0 
Quant0    
      
   Cap1|Cap1|Cap1|Cap1|Cap1|Cap1|SingCh 
   Quant0  SingCh  MissChar        
    Quant0 Unspec  MissChar 
 Quant0 SingCh  DiaE|Quant0 
   SingCh    Quant0  Quant0|Caron0 
     SingCh Quant0    
   Caron0|Voiced0     
   Quant0 
       
        
     
      
 
