 SingCh  ProtJ1   
       Caron0|Quant0  Y0     
   Quant0|Quant0       
     
  Y0        
Quant1      Quant1     MissChar 
      Quant1 Quant0  
Quant1 Y1|Quant0      Y0|Quant1 Quant0  Quant0          SingCh  
