     
   Y1|Quant0 Unspec 
Caron0        
    SingCh         MissChar   Quant1|SingCh 
   Quant0   Quant0 
  Quant0    Quant0    RedunChar  
   Quant0 
    
   Y1|Quant0|Y1|Quant0 
  Quant0 
Caron0|SingCh    Quant0 MissChar  Quant1|Quant0  Caron1     
  Quant0  
