 Head|SingCh 
           Cap0      Len1     Y0|SingCh    Cap0   Voiced0|Quant0  Quant0   
      Voiced0    RedunChar       Quant0 
Len1          RedunChar   
Quant0  SingCh  Quant0    
Unspec SingCh     SingCh          Caron1   SingCh    Quant0                     RedunChar SingCh Quant0        SingCh Unspec  SingCh SingCh  
   Quant0 
   SingCh        SingCh MissChar 
  Quant0 
      Voiced0           
    

