 
        Quant0|MissChar  Cap1   

Quant0   Quant0  Cap1         Quant0  Unspec Quant0   
 Quant0 Quant0      
       Quant0    
   Quant0   
               
    Cap1     
  Quant0   
        
      Quant0      Quant0   
       Quant0        
     Quant0    
     Cap0 Quant1     Quant0  
         Quant0   
 Quant0       Caron1  SingCh          
