  
   
Quant0    
      
         Quant0 EpentE0    
Head|SingCh          
 Quant0    Quant1 
       SingCh 
     
  Caron0 
    
    
  
 Quant0    
    Quant1   
   MissChar     
   
  SingCh   
   
    SingCh  
   Caron1      
    
    SingCh  Cap0  SingCh 
   
RedunChar      
      
  
           
       
       
      
   
    

Head1  
     Quant0 
