  Cap1   
    
   Quant0               Quant0  SingCh    
  Quant0       
       Gemin1|Quant0        Quant0  
   Quant1      Quant0        
                 
      
                Gemin1    Caron1 Quant0 
      Head SingCh    SingCh       Cap1  Quant0   Quant0  
  Quant0 SingCh Gemin1           
  Quant0  Caron0   
    Quant0    Quant1      Quant0    
             Quant0 CK1|MissChar    CK1|MissChar SingCh    
  SingCh            Cap1                   Quant1         
       Cap1         Quant0    
           Quant0    Quant0  Quant0                  Quant0 Y0|Quant0                  Quant0                        Quant0       Quant0   SingCh        
        
 EpentE1   SingCh     Quant0    
Quant0|Quant0     Quant0      Quant0 
  MissChar     Quant0     Quant0 
  Quant0      Quant0     Quant1|SingCh   Quant0 
  Quant0     Quant0   
          Quant0|DiaE          
   RedunChar        
 SingCh Unspec Head   Quant1     Quant0              Quant0          RedunChar 
     Quant0 Quant0 
      Quant0    
