     
         SingCh    SingCh 
     MissChar 
      
 Quant0   Quant1  Quant0  
           Caron1|Caron1      MissChar       Quant0  
    SingCh 
  Quant0      
 SingCh SingCh      
   Quant1|Quant0   SingCh Quant0    Cap0 Quant0    
