    
    
Quant0      
      
         
           
          
SingCh       MissChar               
    Unspec       
 Caron0       
        SingCh Quant1  
RedunChar           
     Quant0                        
     Quant0           
          Quant1  
          
               
      
  Quant0     
         Quant0            
    Quant0      
      Caron0    Caron0          
       
       
            Quant1  Quant1 Caron1   
       SingCh  Caron0        
SingCh      
           
