SingCh SingCh
SingCh
SingCh      SingCh 
SingCh     
 Quant0             
 SingCh   Quant0    Cap1|SingCh 
SingCh   Caron0   
   
      SingCh    
     Cap1|SingCh      
    
SingCh    Caron0 
SingCh  SingCh      
