   SingCh   SingCh Quant0       RedunChar    Quant0  Quant1    
       Caron0 Quant1   SingCh Quant1    Cap1      Quant0  
    Quant0|Quant1          Caron0    SingCh Quant0 
 Quant0  Quant0  Quant0        Quant0    
