        Quant0   
Quant0       SingCh Tail1
    Quant1   
    Quant0 Caron0    Quant1 Caron0   SingCh    
  Quant0 SingCh RedunChar   Caron1    SingCh Quant0 
Quant0    Caron0|SingCh        Caron0 
  Quant0 Quant0|Quant0  Quant0   Quant0|Quant0 Quant0 
Quant0 SingCh Quant0  
Quant0  Quant0  Quant1|Quant0 Cap1|CK1|SingCh 
