Quant0       
Y0|Quant0       Cap1    Quant1      Quant0 
Quant0           Y0|Quant1   Quant0       
     Cap1 Quant1  Quant0 Quant0     Quant0 SingCh 
     Quant0 SingCh  SingCh 
Quant0      Y0|Quant1   
Quant0        Quant1     Cap1|Quant1 
