      Quant0 
  Quant1 Quant0     
     
Y0|Quant1|Quant0             Quant0 
  Cap1   Quant0  Quant0 
SingCh  Quant0|SingCh   Quant1    Quant0|Quant1     
 Quant0 Quant1|Quant1   Quant0|Y0|Quant1 Quant0 Cap1|SingCh 
 Cap1|SingCh Y0|Quant1      Quant0 
   Quant1 Quant0 Quant0 Quant1  Quant1  Quant0  Y0|Quant1   Quant0   Y0|Quant1|SingCh 
       Tail1  Caron0 Quant1          Quant0  Quant0  
  Quant0  Cap1      Quant1  Quant0  

