   Quant1   
   Quant0       Quant0 Quant0 Quant0|Caron0 
  Quant0 Quant0    Quant0    Quant0  Quant0 Dtn Quant0 
  Quant0 Caron0    Quant0|Quant1 SingCh    Quant0    
Quant0  Quant0       
MissChar    Quant1    Quant0    Mne1 Caron0|Quant0      
  RedunChar 
Quant0     Caron1 Quant0 
   Quant0  
    
 
 Caron1|Caron0    Quant0 Quant0       Quant0|Quant0       
 Quant0       Quant0    Caron0     Quant0        Quant0 
  Quant0 Quant0  Y0|Quant1 Caron0 
 Dtn  Quant0 
