          Quant1   Quant0 Caron1   Quant1|Quant1   Quant1                       
             Quant0       
          
  Y0       
 Quant1  Quant0            
  Quant0   Quant1     Quant1   
 SingCh            Quant0 
  Quant0  Unspec Quant0|Quant1   Quant0|Quant0  
