 
         Quant1   SingCh Caron0   Caron0 SingCh    
 Quant1  EpentE1      EpentE1  
       EpentE1       EpentE1  
   Quant1  
   EpentE1     EpentE1       EpentE1  
   EpentE1        Quant1  SingCh   EpentE1  
  Cap0    
   EpentE1      
              
         
     
       
     
      Quant0    
          Quant0|SingCh  SingCh 
