      Cap1  Quant0     
   Quant0              Quant1     Cap1   
   Quant0  Cap1      
                                          
      
   SingCh      Len1      Caron0      Cap1           
 Quant0           Len1 
     Caron0            
       SingCh      SingCh        Quant0     
   Quant0                       
           Quant0   Caron0 Quant0|Caron1 
                     
                      
           
