                   
        Quant0    Quant0 
     
      Quant1    SingCh  
      
                         Cap1 Quant0 
                   
  EpentE1       
 SingCh                            
                Cap1                 
     Y1      
      
          
         
       
        Cap1       Quant1   
 Quant0               
