   
       
    
          Caron1         Quant0 Quant0 
   RedunChar   
 Quant0     Caron0  Y1 
     Quant1    
Head  Quant0          
     
Y0 Quant0  Voiced   
     Quant0|Quant0 
      Quant1 
  SingCh Quant1 
             
Y0     
   
       
