 Caron0  Head|SingCh  Caron0    Caron0  
        Y1            
Y1               
            
    Quant0        
            
 Cap1  
Quant0 Quant0  Quant0           
                  Y1    
         Caron0            
      Quant0       
                  
         
   Quant0            
        SingCh               
            Quant0     
       
 Quant0   Quant0        Quant0  Quant0           Quant1   
    Quant0           
        Cap1       
  
           
    
                
   Quant0  SingCh  Cap0    Quant0 
          
     Cap0   SingCh    
            
                    
       
         
            
                           Quant1|RedunChar Quant0 
