         
   Voiced0        SingCh   
        
Caron0|SingCh         Cap1|Caron0 DiaE 
     
       Quant0     
 Unspec       
Voiced  Quant1     Quant0 
  Unspec  Quant1     
              
  DiaE  Quant1   Caron0   Caron0 
   Quant1      
     SingCh 
           Quant0   DiaE Quant0           
     VoicedFin0    Quant0  
