     Len1     Cap1  Quant0    
   SingCh Head|SingCh SingCh 
    SingCh  Unspec SingCh Cap1|SingCh   
SingCh     Tail0   
               Quant0   
                
             Cap1  SingCh Cap1 Cap1           Y0   
                Quant0  
              MissChar      Quant0  
Quant0|SingCh            Voiced   
       Quant1      
            
       Quant0 Quant0 
        Cap0  Quant0|SingCh     
            
  Quant0       Quant1 
            
           SingCh      Quant1|Quant0        SingCh 
              
          
                   Quant1 
      
          Quant1        Quant1 
       
           
 Cap1       Quant0          
      MissChar  
                
    Quant0        
           
 Quant0  Cap1|Quant0               Cap1     SingCh  Quant0  Quant0      
  SingCh SingCh        
                             
