
          
         Quant0   
      Caron0  Cap1  
                
   Caron0   Quant0               
       
Quant0    Cap1     SingCh  
      
  Quant0   
 Caron0            
Caron0     
   SingCh   
    Quant1      
           
Quant0                
   Quant1  
  SingCh    Quant0 
          
