    Caron0|Caron1       Head|SingCh  Quant0 
Quant0 Quant0 Quant0|Quant0       Quant1 EpentE1 
Quant0 Quant0|Caron1       Caron1|Quant0   Quant0 
         
  Caron0      SingCh    MissChar         Quant0      
 Quant0      Quant0    
   Quant0     
 Quant0 Quant0   
 Caron0|Caron1         Quant1 
        
    Quant0
