                 
        Quant0 
              
            Quant1 
         
SingCh  Quant0          
     
   Quant1       
      Caron0  
     Quant0 Quant1     
           
       
     
    
     
