  
           
     
     SingCh   
    Quant0       Cap1 Quant0   SingCh       VoicedFin1 
       
      SingCh         
        
             
 Quant0    Caron1        
        
 Unspec  
      
    

