    
  
   Head1  
  Quant0 
       
     
     
                 
              
          
       
 Quant0   
  Cap1               Unspec SingCh  
     
     
     
     
   
         
   Head|SingCh  


