         
  Caron1 Quant0   
      
SingCh Quant1  Quant0  MissChar 
            Quant0 
    RedunChar    Quant0|Y1 Voiced0 
     SingCh 
Quant0     
SingCh    SingCh Quant0 Quant0  
  SingCh Quant0 
    
Quant0|Quant0  Quant0 
 SingCh Quant0|Quant1 SingCh    
