 Cap1       
 Caron0 Quant0|Quant0  Quant0    Quant0   
     Quant0     Quant0  
   Quant0  Quant0 Quant0  Quant0 
Quant0|Quant0       Quant0    SingCh   
Quant0   Cap1|Quant0|SingCh          
 Quant1      
     Quant0  SingCh   RedunChar 
Y1|Quant0      
  Quant0  Quant0|Quant0  Quant0  Quant0  
    Quant0     Quant0  
Quant0     Quant0    SingCh  
SingCh   
Quant0|Quant0     
Quant0  Quant0  
       
      
      
    Quant0|Quant0      Quant0 
     Quant0         
 Quant0   
   SingCh   
  Quant0   
    Quant0 

