     
         
   Cap1 Cap1   
      
       SingCh    Quant1|Quant0 
           Quant0      
    Quant0        
         
       
        
        Quant1   
          
           
     Cap0    
     SingCh 
        
   SingCh    
      
            
           
         Quant1  Y1 
        
      Quant0|Quant1   
   Quant0|Quant1    Cap0|Quant1          
       
Quant1   Quant0 
         
 Quant0   
 Caron0    Quant0         
    
           
   SingCh   Head|SingCh   
  Quant0    Quant0   
    
          Caron0 
           
    Quant0  
          Quant0           
      Quant0                
   RedunChar           
