  Quant0   
   Cap1|SingCh Cap1        Quant0 
   Quant0           Quant0     
            Quant0      Caron0       Quant0    
   Unspec  Quant0   
    Caron0          SingCh          
   Quant0        Quant0    
          Quant0     
Quant0  Quant0 SingCh    Caron0               Quant0      
               Caron0               
  Quant0        Quant0    Quant0 
      Head|SingCh    RedunChar                       SingCh       Cap0   Cap0 
   
               Mne0   
 Quant0          Quant0                    Quant0 Quant1  
                SingCh                     
                
          
      Cap1         Quant1       SingCh         
Voiced                   Cap1        Cap1 
