Quant1   Quant1  
   Quant0    
    Quant0    Quant0 
Voiced0|Quant0  Quant1 
      
   Caron0  
  Quant0   Quant0|Caron0      SingCh 
Quant0     Caron0|Quant0       
   Quant0 Quant0      Quant0   VoicedFin0  Caron0  
     
  Quant0   SingCh Quant1|Quant0 
Quant0 Quant0      Quant0  
Quant0       
 Quant0  Quant0 SingCh    Quant0 
       
 Quant0      
Quant0  SingCh Quant0   Quant0   Quant1 
   Caron0   Caron0|SingCh 
   
             SingCh Quant1 
   Quant0 
