  
                     
                  Quant1                  
         Quant1        
    Quant0    Quant0|RedunChar              
            
                                      Quant0              SingCh         Quant0  
  
            Voiced       
Quant0                
                        
                
                
  Quant0|SingCh     Quant0 
