          
      
      
   Quant0   
      
      
    SingCh Quant1  
   Quant0  
Quant0    Caron0      SingCh  
     Cap1 SingCh  Quant1 SingCh     
Quant0|Quant1   
      
SingCh ProtJ1 Caron1|SingCh Quant0 
   Quant0   
 
