            
          
         
      Caron0 
           Quant0 Quant0  
  SingCh  Caron0  RedunChar 
   Quant0       
     
           Quant0 SingCh 
     
    
 SingCh   
              
    Voiced0|Quant0           
