 
  Quant0 
        Quant0 EpentE0     
   Quant0     Y0 Quant0 Quant0  Quant0      Y1|SingCh 
  SingCh    Quant0     
 Head|SingCh  SingCh Quant0      Quant0 
Caron1   Quant0|SingCh Quant0  Quant1|Quant1 Quant1    SingCh Quant0          Quant0 
