         SingCh      Quant0           SingCh   
         Quant1            
  Quant1     
           
      Caron0|Quant0    SingCh 
    SingCh       Caron0 
Quant1       
        
    Quant0     
    Quant0    Quant0       Head|SingCh     RedunChar   
         Quant1       Quant0    
