      
   Quant0  
        Quant0   
Quant0    
    Caron0    
Quant0           Quant1 
      Quant0 Quant1 
    SingCh 
     Quant1          Quant0 
     
    Quant1  VoicedFin1 SingCh      
    Quant0                   Quant1  
