       Caron0|Quant0  SingCh 
Quant0|Quant0    Quant0  Voiced|Quant0         
   Quant0     Caron0|Quant0  Voiced Quant0     Quant0                                  
    Quant0    
                Quant0 
Quant0 Quant0  
