  Head|SingCh      Voiced 
    SingCh  Quant0  
    Y1 SingCh      Y0 SingCh   Caron0 
   Caron0    SingCh Caron1   MissChar 
Quant0   Quant0   
  Quant0 Caron0  
    Y1 Voiced0 
          
    Y1 
           
