 SingCh  Quant0      Quant0   
                
    Quant0             SingCh  SingCh 
  Caron0 Quant1   Caron0        Quant1  Quant1  
   Quant0  Voiced       
  SingCh                  Quant1     Quant1  
Quant0  Quant0    Y0        
     Quant0            
   Quant0     
 Quant1   
  Quant1|SingCh  Quant1      Quant0          
