         
        Cap0                 
     SingCh              Quant0    
      Quant0                 
  Voiced0           
          SingCh  
   Quant0                   
                   Quant0  Quant0    Quant1   
       Quant1                
   SingCh    
     
 SingCh                       
                Quant0  SingCh 
                  Quant0     
