  Quant0 
        Quant0 
 Quant0   
          
      
    Quant0   
  Caron0|Quant0 
   Quant0   
Quant0 Cap1 Cap1|Caron0|Quant0            
 Cap1 
    
Tail1 Quant0 
  Quant0     
 Cap1    Quant0   
Quant0|Quant0   SingCh     
Tail1  Quant0 
 Cap1|Quant0     Quant0|Quant1 
    
   
   
      Y0 
 Cap1 Quant0  
        
 SingCh 
     
 SingCh  
  
 Quant0   
Tail1 Quant0   Quant0 
Quant0 SingCh Meta  

