 Quant0|SingCh   Cap1  
Quant0     RedunChar    
 Cap1      Quant1|SingCh 
    Quant1   Caron0   Quant1     Quant1 
    SingCh   Quant0 Voiced     
  Quant1 MissChar Quant1  Quant0 Quant1 Quant0    SingCh Quant0  Quant0  Head1       
    Quant1|Quant0 Quant0  Quant0  Unspec  
 SingCh Quant0    Voiced   Quant1|Quant0  Quant0       
