     
            
         
        
 Y1|Quant0   Cap0   Quant0 
 Quant0   
 EpentE1           Quant1 
     Quant1   
       Quant1     
   
  Quant1 Quant1        Quant1 SingCh  Quant0 
     Quant0    
           Mne0 
    Quant0 
