     
     MissChar      
   Cap1      
   Meta      MissChar     
       
       
 Cap1                          
 SingCh      RedunChar                
Caron1         Caron1      
   SingCh      SingCh Head1
            Quant0    
