  
  Caron0|Quant0              
     
  RedunChar           RedunChar 
  RedunChar  Cap1      
   SingCh  
   Quant0 SingCh Quant1 
    Quant1 
           
            Y0|Quant1 
       SingCh  Quant1 
  SingCh  Caron0     Cap0 
    
    
   Quant0    
        Quant0 
   Quant1   Quant0|Quant0    SingCh 
       Quant0  Quant1  
       
              
 RedunChar  Quant0  
