Gemin1  
  Quant0 
  Caron0 
    
        
         
    Quant1 
SingCh     RedunChar        
  SingCh 
        SingCh     EpentE1|SingCh      
Quant0 SingCh Quant0  Caron0  Caron0 Quant0 Cap0     Quant0      SingCh SingCh  EpentE1     SingCh Quant0 
Gemin1
