 Cap1 
   Quant0 Cap1     
           
   Caron0|SingCh  Quant0 Quant1  
    Caron0 Quant1    
        
 
  Quant0  Head1    Caron0|Quant0 
   Cap1|Voiced     
  Quant1  
       
  SingCh    
 Quant1   
VoicedFin0          
   
Quant0|Quant0 Quant0     
 Y0|Quant1 
    SingCh 
   
 


