Quant1  Quant0 
   Quant1|Quant0 
  Quant1       Caron0|Caron0 Quant0|Quant1    
Quant0    
 Y1|Quant0     SingCh       
Quant0    
        
      Quant1|Quant0   
       DiaE   
 Caron1 SingCh  Quant0   
           
Quant0    Caron0 
 
