 Cap1 
  Quant0 
 Quant0     
    
    
 Quant0  
    
   
Quant0         
     
 
Quant0   Quant0|Quant1   
     
 Quant0   Quant0 Quant0  
Quant0   
    Quant0  Quant0  
Quant0 Quant1    
  Quant0 
Quant0      
 
 SingCh   
 Cap1  Cap1 Quant0   
 
Len1  Quant0      
 Quant0|Quant1  
 Quant0 
 
  Quant0 
