  
  Quant1  Quant0      
  Quant0       Cap0   SingCh SingCh   Quant1 Quant0     Cap1    Cap0   Cap1|Quant0   Quant0     Quant0  Quant0  Cap1          
 Caron0         Quant0      Cap1|Quant0  Cap1 
   Quant0|Quant0   
   
 Quant0 Cap0   Quant0     Quant0 Quant0 
  Cap1 

