  
   
   
    
   
    
       
   
   Caron1 
     
   Quant0      
      
    
   
     
    
     
Quant1   
       SingCh 
     
        Cap1     
Quant1   Quant0      
    
   
          
     
       
    
   
  
