    
   
  Caron0   
 Quant0      Caron0 
   RedunChar 
 Quant0|SingCh   
 Quant0  
    
Tail1   SingCh 
   SingCh Quant0       
    
 Caron0 SingCh Caron0    
  Y1|Quant1 Quant0|Quant0   
 SingCh  Quant0 
