   
  
      Caron0 
 EpentE1|Caron0  SingCh  SingCh  Caron0    Caron0 
SingCh  Quant0|Quant0 Quant0  Caron0   Quant0    Quant0  
 Cap1   Caron0  Quant0|Quant0 SingCh      Quant0 
 Quant1    Quant0   Quant1   Quant0    Caron0 Quant1       Quant0           Quant0       
 Caron0|Quant0  Caron0 Caron0  Quant0  RedunChar    Quant0|SingCh    SingCh Quant0|Quant0  
  Caron0|Quant0   

