Quant0  
Gemin1    
    
  SingCh    
  Y0   Y0       
  Quant0    
 Quant0|SingCh Tail1      Quant0     Quant0  
     
  SingCh  Caron0  Y1 
 Caron0   
SingCh    
  Quant0   
Quant0  Caron0|Quant0  
     
   Caron1|Quant0  
 Quant0  
 

