        
    Head|SingCh   
Head|SingCh Quant1    Cap1  
     
      Quant0   
Quant0       SingCh 
        
           
         Quant1 
       SingCh 
   DiaU       Quant1   
          Quant0 
SingCh        
   
      
           
