   SingCh  Quant0|Caron0 
 Cap1|Caron0|Quant0  Head|SingCh          
  Cap1   Cap1   
 Cap1|Caron0|Quant0 Caron0   
 Cap1|Y0  Quant0   
 Cap1       Caron0 
 Cap1|Caron1         
 Cap1         Caron0 
  Cap1|Quant1       
 
