     
    SingCh     
         
    
  Caron1    
            Quant1  
        
     
  Head      
   
     
      
      
     Caron0  
      Quant1 
   SingCh    
  Caron0|Quant1 
   
    
Caron1    
           
    
  

