YJ0 RedunChar 
         Caron1  
   SingCh                  
         Quant0|Caron0 Quant0   Caron1 
 Caron1   Caron1|Caron0 Caron0   Cap1|Quant0 Cap1|Quant0    Quant0   Quant0  Quant0  
   Cap1|Y1 Cap1  Cap1|Quant1|Quant0    Quant0|Quant1 
Quant0  Cap1|Quant0    
  
   
