 Cap1
Quant0   
 Quant0  Quant0|Quant1 
SingCh   
    
Head Caron0|SingCh  
   
    
 Y0|Voiced 
Quant0 SingCh    SingCh 
  Quant0  Caron0|SingCh 
Quant0 Quant0   Quant0 
Quant0  Quant0    
  Quant0 Quant0   Quant0    SingCh SingCh 
 
