      
             
          Quant1|Quant1        
   
                
   Quant1  Quant1   Quant1 
  Quant1|SingCh Quant1           
       Quant1       
     Quant0 Quant0         Quant1      
      
Quant1       
          
  Quant0          Quant0     
      SingCh           
 Quant0     Quant0 Quant0         
    SingCh SingCh              Quant1 
Quant0 RedunChar       
   
