  Head|SingCh   
Quant0   Quant0    
      Mne1 Quant0  Quant0 
   Caron1  
Quant0 Quant0  SingCh   SingCh  
Quant0 Caron1|Quant0     Caron0    SingCh  
 Quant0      Y0 Quant0|Quant0  
Y0   Quant0   Quant0   Y0|Quant0|Y1|Quant1 Quant0|SingCh 
              Quant1  Y0  
         Quant0   
      
Quant0         Y1 Quant0 
