         Voiced0     
    Cap1     MissChar  
      
      Quant0         
Quant0       Cap1        
      Quant0            Caron0|Caron1 
SingCh   SingCh  
           
   Quant0 Quant1      Quant0 
