       
     
    
     
   GH0|SingCh EpentE1 
       Quant0      
 Quant0  Quant1 Voiced Head|SingCh 
 SingCh     Quant0 Quant0|SingCh   Quant0  
 Quant0       Quant0   SingCh  Quant0  
       Caron1 
Quant0   Caron0  
  Y1          Quant0  Quant0   
     Quant0 SingCh    
Quant0      Quant0    Quant0  Quant1     
Quant0 Quant1|SingCh        
