      Quant0|Caron0   Quant0   
   Quant0       Caron0   EpentE1 SingCh   Quant0  Caron0 Quant1 
         Caron1    
  SingCh        SingCh  
    SingCh Quant0                    Quant0 
Quant0            
     Quant0      Y1 Quant1   SingCh     Quant0|Quant0  Caron0 
