  Quant1      Quant1       Quant1 
    Cap1|Cap1    Caron1     
         
   Caron0                        
               
      
             Quant1        
           
          Head1    Quant1 
          Quant1|Quant0         
