  Quant1  Quant0 Quant0 
Quant0     Quant1|Quant1   Quant1|Caron0 
      Cap1|Quant0 SingCh    
   Quant0       
      
 SingCh   
Quant1|Quant1   
Quant1|Quant0 Quant1 Quant0 Quant0|Quant1  Quant0     Caron0|Quant1    Quant0|Quant1 
     Voiced0|Quant0       
      
