 
      
     
    
     
       Quant0   
        
   SingCh    Quant0    Quant0   
EpentE1             Quant0       Quant0   MissChar  
   Quant0 SingCh  Quant0  
 RedunChar       
           
 Quant1 Quant0         
 Y0   
      Quant1                
    Caron1          SingCh  
         
 SingCh          Quant0   
         
