   Cap1  Caron0  RedunChar 
   Quant0    Quant0 Caron0|Quant0 Quant0 
    Caron0|Quant0 Quant0        
Quant0        
     Quant0             
   
   Quant0      Cap1    Cap1 Cap1 Cap1  Cap1  
 Quant0   SingCh  
Quant1   
  
 
 
