  
   Quant0 
 Quant0  Caron0 SingCh     
  Y1  Cap1|Quant0  
 Quant0   SingCh    Caron1  Cap1 Quant0   DiaE     MissChar   EpentE1 
 Quant0          
 Quant0 Quant0     
  Quant1    
    Quant0|RedunChar Quant0 
Caron0    EpentE1 
    
