     
        
            
       Quant1        
   Quant0  Quant1 Tail1
    Cap0 
                 
      
      
    
 Cap1        
   
          
       Quant1|SingCh  
                
        
     
        
 Cap0  Unspec Tail1
   SingCh      Tail1
     
    
