  
 Quant1       Quant0  
    Quant0    
      Quant0|SingCh    
     Quant1     
     Quant0      Quant0    Quant0     
    Quant0        Quant1   Caron0        Quant0  Caron0 Quant0 Quant0   Caron0|Quant0    
Caron0|Quant0  

