       Quant1|Quant0  
Quant0|Quant1               
      
    
              
        
            
         
      
                     
     Voiced0                    
       
              Quant1|Quant0    Quant1  Quant0   
  Len1          
Quant1  Quant1          Quant1      Quant1    
