  
    Cap1        Cap1 Cap1 
      
   MissChar   Cap0 
     Quant0      Cap1 Cap1    
      Quant0 
  Cap1      RedunChar  
   Quant0 
   
  
 Caron0               Quant0  
      Quant0    
      Quant0 SingCh Quant0 
   
   Voiced Cap0  Quant0 Cap1   
    
 Quant1 Y1|Quant0 
               
  MissChar   
