SingCh  
  Quant0 
Quant0    
    Caron0 
    Quant0|SingCh     Quant0 
   Quant0 
Quant0  Caron0   RedunChar  Caron0  
Quant0  Quant1 Head|SingCh 
    Caron0  
    
  Quant0 
   Quant0   Caron0 Voiced Quant1  
Quant1 Quant1       
 Quant0  Quant0 Y1   
  Voiced|Caron1 
    
