 Head1  Cap1       
             
          Head1  
Quant0                
                  
               Caron1   
           
                 
             
          
        
                  
