SingCh  
Quant1   
  Quant1  SingCh Quant1 
  DiaE Quant0  Quant0 
       
Quant0    Quant0|SingCh SingCh Quant0|Quant1 
Quant0|SingCh     Quant1    
       
    Quant0 
  Quant0  Quant0  
  MissChar  
   
SingCh 
 
