   
   
  Quant0 RedunChar  
   
   
      
                
     
       SingCh    
       
        MissChar Quant0                    
          
      
Quant0               
 
           Caron1 
   
