Quant1 Quant0    
    Caron0 Cap1  Caron0       SingCh 
Quant0 Quant1 Quant0  Quant0 Quant0    
      Quant0   Caron0    
     Quant0   SingCh   Caron0   Caron0|SingCh Quant1   Quant0    Caron0       Caron0 Quant0     Caron1   SingCh Caron0   Cap0|Quant0 
 Quant0    SingCh  Caron0   
