  
       DiaE 
        SingCh 
 Quant0          Quant0      
            Quant0 SingCh             
 Quant0       Quant0    
         MissChar        Cap0 
         
                 
 Caron0            
       
 Quant0 

