 
       ProtJ1   Caron0      Cap1|MissChar      
          RedunChar   EpentE0  Quant0  Quant1       SingCh Voiced0 Quant0   Caron0|SingCh SingCh     Quant0         Quant0  Quant0  Quant0   Quant0  Quant0  
 Quant0  Quant0   Quant0   
  Voiced0 SingCh   
  Quant0     Quant0|Quant0  Quant0  Quant0    Quant0 
   
SingCh Quant0 
SingCh      

