  
 SingCh Quant0       
 Cap1      RedunChar      Caron1|Caron0   Len1 Quant1   Y0   Quant1 SingCh  RedunChar     Quant0|Quant0      EpentE0   
       Cap0 
 SingCh    RedunChar     Quant1 
 Voiced Voiced Quant0    Quant0         Quant1 Voiced Quant0     

