  Cap1   
   
  
  Cap1    
  Cap1       Quant0 
  Cap1     
   RedunChar  
   
  Cap1  
  RedunChar 
   
  Cap1  Cap1     
        Quant1 
  Cap1       
           
  Cap1      
       
  Cap1 
  
  
  Len1 Cap1      
    
  Cap1    
    
    SingCh
             
     
     
 Cap1     
        
           
    
