       SingCh  
     
                
       Quant0            
        Quant0         
           SingCh     
   
        Quant0           
     
      Quant0    Quant0  Quant1 
      Caron1     
   
   
    

