  
   
  DiaE 
     
     
   MissChar   MissChar 
       
       
    
   Quant0     
   Meta      
  MissChar  
Quant0  Quant0  RedunChar  
    Len1  
      MissChar  
  Quant0       
         
  Quant0   Quant0 
  Quant0     
Caron0  
  

