      
   Quant0|Voiced0      Quant0     Quant0        Quant0           Quant0 
             Quant0     Quant0   
    Quant1       Quant0 
     Quant0    SingCh       Quant0  Quant0    
    
 DiaE     MissChar  EpentE0|Voiced        Quant0     
