Caron0  SingCh   Caron0  SingCh 
      Quant0 
 SingCh  Y1|Quant0  
SingCh|SingCh  Quant0 Quant0       SingCh 
  RedunChar Len1   RedunChar   
    Y1  
Caron1|MissChar    Quant0   Quant0   Quant1 
 Quant0    Quant0      
