 Quant0   Cap1 
    Quant0   
SingCh Quant1|Caron0   Caron0|Quant0 Quant1   Quant0   
 Cap1  Quant0  Quant0   Quant0 
Quant0  Quant0  Quant0    Caron0|Quant0  
      
 Cap1  Quant0  SingCh  Quant0  Caron0   Quant0   
