Quant0  Quant0  Cap1|SingCh  
        MissChar  Quant0 Quant0  
  Quant0 Quant0  Caron0 Y0|Quant0  
 Y0|Quant0 Quant0    Caron0 
        Quant0 
Quant0    
Caron0      SingCh Y0|Quant0 SingCh Mne1   Quant0  
