Caron1         
SingCh  Quant1    
   
    Quant1           
            
   Quant1      
         
Caron0        Caron1    
          Quant1  
      SingCh    
   Quant0     
   
   Quant1      
  
 ProtJ1 Caron0   RedunChar 
RedunChar 
 
