  
   
    
 ProtJ1    
              MissChar Quant0    
    
  RedunChar SingCh  Quant1|Quant0   
  SingCh 
Quant0   MissChar 
    SingCh       
 Quant0   
  Y0  
  Quant0   
   Quant1     Quant0     
Caron0     
 
