 SingCh 
   
    
  
 Quant1|Quant0  Caron0|Quant0  Quant0|SingCh 
Quant1|Quant0 Quant0        
 Caron0|Quant0      
 Quant0  Quant0|Quant0  Quant1 
Quant0|Quant0      
  Caron0|Quant0   
Quant0|Quant0       
    Cap1    Cap1 Cap1       
    
      
    
   Quant0 
 
Quant0   Quant0  
