 Quant0   
    Quant0         SingCh  
      SingCh              RedunChar   
  Quant0  SingCh   SingCh   
  SingCh 
   RedunChar  SingCh      Cap0|SingCh 
Len1      Quant1|SingCh     
SingCh             Quant1|SingCh  
         Caron1|Caron0  Quant1  Caron0                Quant1   
