     RedunChar  Cap1 Quant1  Quant1|Quant1  Caron0|RedunChar    Quant0  SingCh       Quant1       Y1|Quant1     Cap1   Quant1 Quant0  
Quant0     Caron1 SingCh Quant0  Quant1|Caron0  Quant0     Quant0  Y0|Quant1  
   
 RedunChar   Quant0    Caron0   
