  Cap0 
     Cap0          Quant0|Quant1           
       Cap1   
      
   Cap1   SingCh  Cap1    
 Cap1            Quant0   Quant0  
   Len1        Caron0|SingCh      Quant0   
         
 Cap1   
  
