Quant0           
                 
Quant0    
  Quant0               
               
Caron1        
       
      
   Caron0 
     SingCh             
    
       
   SingCh 
Caron1  
   
 Cap1 Cap1 
