SingCh  Quant1   
    Quant1 Y1      Quant1 
RedunChar  Quant1  SingCh Quant0|Quant1 
  Quant1   Quant1|SingCh  Quant1  Quant0 Quant1 Quant0 Quant1       
  Quant1    Quant1      RedunChar   Quant1  
  Quant1 
Quant1|Caron0     Quant1  SingCh  Y0    Y0  SingCh      SingCh Quant1 SingCh       Quant1  Y0|Quant1   SingCh    Quant1 SingCh Quant1 
  SingCh   Unspec SingCh         Quant0|Quant1  VoicedFin1 Y0|Quant1 Quant1 
