     Quant0 Quant0          
Unspec          
Quant0         Quant0    Quant0 
          Quant0 Quant0  
  Quant0|Quant0    
  Quant0   Quant0  
 Quant0   Quant0  Quant0    Quant0    Quant0 Quant0 Quant0 SingCh   
Quant0    
