     
  Quant0  Quant0  Quant0|Y1 Quant0 
           Quant0 
    Quant0        
 Quant0       Quant0   
  Quant0   Quant1 Quant1         
SingCh      
   Quant0 Quant0   
                 
  Quant1   
