  
       
         Head     
       
      
   Quant0     
     Quant1     SingCh 
      
     
   SingCh  
   Quant0       
         
        
     
        Quant0       
    Quant0        Quant0 
      SingCh           
     
     
