Quant0  
  Quant0 
 Caron0   
  Cap1|Caron0     Tail1 
 Quant0  
 Cap1|Caron0   Quant0   
 Quant0|Quant0  Quant0|Quant0  Quant1   
   Quant0 Quant0 Quant0 
 Caron0       
   
    Caron0|Quant1   
         
Caron0|Quant1        
 
