     
          
    
     
  Quant0    SingCh Caron1   SingCh  
        Y0   
     SingCh   
       Quant0   
  SingCh  Y0 
      Quant1 Quant1   VoicedFin0  Quant1 
    RedunChar    
           
 Quant0          
   
  Quant0    
