               
         
       
 Quant0    Quant1   Head|SingCh     
 SingCh                     Quant0       
         
             Quant0   Quant0         
            
      SingCh     SingCh 
                                     
