
   
 Cap1|Quant1 Quant0      
  SingCh   
MissChar          
          
 Quant1  Quant0 Cap1 SingCh     Quant0  
       
 Cap1     Cap1 SingCh  Y1    Quant0 Caron0  Quant0|Quant1  Quant0|Quant0 
 Quant0   Caron0    Quant0  SingCh    Cap1|Quant0 Cap1 SingCh       SingCh  Quant0  Quant0      Quant0|SingCh       Quant0   RedunChar 
   Y1|Quant0    Quant0|RedunChar    Quant0  Cap1 
   Quant0 Quant0  Quant0      
   SingCh      Quant0  Quant0    Quant0 Quant0 Quant0       Voiced0 
 RedunChar Quant0      Cap1   SingCh   SingCh  Quant0 Cap1|Quant0    SingCh  Cap1 Quant0    Y0|Voiced Quant0  
