  Quant1   
     Quant1   
    
   
   Quant0 
  SingCh  Quant1   SingCh 
   
 Caron1   
 Quant0|Dtn   
  Quant0  
    
  Quant0 
 Quant0        
 SingCh  Quant1   
   Head   Quant1   
SingCh     Quant1    
     
Caron0     Caron0  Quant0|SingCh 
