Head|SingCh
     Quant0   SingCh      
Quant0  Quant0|Quant0 DiaE    
   SingCh   Cap1|SingCh   Quant0      
   Quant0        
  Quant0       
        Quant0   
     SingCh SingCh      Quant0  
    Quant1     
               
