   Quant0 Quant1  
  Quant0    Quant0|SingCh  
Quant0      Quant0           
  Quant0              Cap1  
         
  Quant0  RedunChar  Quant0      Cap1      Cap1 Quant0   Cap1 
              
        
        
      Quant0         Quant0    
   Quant0  Quant1 
        
     Quant0 Quant0         SingCh 
    Quant0 
    Quant0  SingCh  Quant1    Quant1|Quant0  
       
  Quant0        Quant1    
   Quant0   Quant1   Quant0  Quant1  Quant1   
    Quant1|Quant0     Quant0       Quant0  Quant1  
       
    Quant1 Quant0                 
  Quant0   Quant1 Quant0            
  Quant1 Quant1   Y1 
      
         
                        Quant0   Quant0  Quant1 
