     
                Quant1   
SingCh                              
           
         Cap1   SingCh 
      
    Caron0          
                         
       
       Quant1|Quant0 
        
       
     
      
              
           Quant0        
      SingCh    
       Quant0      
         
