PQ VB RR PH AA Z:
Db Z: J, P7 PH PZ VB Z: PQ VB RR PH AA RR NN Z: VB P7 RR NN RV AA AA NN NN NN Z: P4 VB Vp TT RR Cl NN Z:
NN RR P5 Vp RR NN Z: NN J^ Ca AA NN J^ Db Dg Vp Z: J, AA RR P5 VB Z: J^ Db Vp Z: PS NN Z:
Dg VB RR PD NN Z:
RR PH VB Db AA RR NN NN Z:
VB PD Dg RR NN Z: J, PL PS NN Vp RR NN J^ J^ P7 PH RR P5 Db VB Z:
VB P7 Dg NN Z: J^ VB Z: J, PD VB AA J, Vf P7 RR PZ NN RR NN Z: Vf RR NN J^ Vf P7 Cl NN J^ Dg Z:
J, VB RR AA NN Z: Db AA VB RR PH NN Z:
Vp Vc P7 PZ Vf Z: Db VB NN AA Z:
VB Z: J, RR PD NN Z: J, AA NN VB NN J^ NN Z: J, NN VB AA Z:
NN Z: P4 VB PP Db PS NN Z:
VB J^ Z: J, NN VB Db Vf J^ Db VB TT NN Z:
Dg AA VB Db RR PH NN Z:
Db Z: VB P7 Db NN NN Z: J^ VB Z: J, Vp PD AA NN RR PL NN Z:
VB AC Z: J, VB Db Vf PS NN Z: Vf NN AA NN J^ Vf RR AA NN Z:
RR AA NN VB P7 Db Dg Vf NN Z:
VB Z: J, RR NN AA NN J^ NN Ca AA NN VB AA NN J^ J^ VB Vf RV NN Z: J, Db Vp Ca NN Z: J, PS NN PW Vp Z:
VB J^ Vf Z: J, NN Db VB AA NN RR NN NN Z: J, VB AA NN Z:
Dg Vc Vp Db AA AA NN Z: J^ Vp Vc RR PD Db Dg Vf Z:
VB Z: J, PD AA VB Db Vp Z:
