PQ PH Vp NN RR NN Z: RR PZ AA AA NN Z:
RR P8 AA NN VB Vp Db Ca NN AA NN RR AA NN J^ RR AA NN Z:
NN RR NN RR NN P7 PH Db VB Z: J^ Db Vc Vp Vf RR NN NN Z: P4 VB Vp AA NN RR NN Z: J, VB Z: J, VB PD AA Z:
RR NN VB Vp RR Cl NN RV NN Z:
Vp VB NN RR AA NN NN Z: AA Z: NN Z: Db VB P7 Vp NN NN Z:
Vp PD PS Cr NN RR NN NN RR AA NN Z: J, RR NN Dg VB Vp RR AA NN RR NN Z:
RR PD NN VB Vp Z: J, VB RR NN Dg Vf RR NN J^ VB Ca NN Z: P4 Vc PH RR PD NN Vp Z:
TT Z: J, VB Vp RR NN Z: Vp VB P7 Z: J, J, VB NN RR NN Vf Z: VB NN RR NN Z: PE RR AA NN VB NN Z: J^ PP VB RR NN NN RR NN Vp Vf NN NN RR PS NN Z: P4 PP PW Vp Vf Z: J, RR NN Vp NN NN Z: J^ NN NN P7 Vp NN PZ RV NN RR AA NN Z: PE Vc Vp Vf NN AA NN Z:
PD NN VB Vp Vf AA NN RR AA Z: NN Z: J^ RR NN VB Vp TT RR AA NN RR AA NN Z:
Db PD P7 PH AA Z: J^ NN Vp Z: J, VB AA AA NN RR AA NN Z: P4 Db RR NN VB Z:
RR PD VB AA Z: J^ AA NN Z: J, VB RV NN C= Z: Z: Z: Z: J^ J^ VB Db Db NN Z: PE VB AA RR NN NN Z: P4 VB Vf AA NN J^ AA NN Z:
NN VB Db Db AA Z: J^ Dg P7 PH Vp Z: J, Vp Db RR NN J^ Vp VB Dg Vf NN RR PD Z: J, PP PL Vp PZ Vf Z: PE VB Dg AA RR AA AA NN Z:
Db NN Z: Db VB Vp NN Z: Vp Db AA NN NN AA NN Z:
Vp VB NN RR C= RR C= AA NN RR NN J^ NN Z: PQ P7 PP RR NN Vp Z: J^ Dg Vp Z: J, NN Vp RR C= J^ PP VB Vp NN Vf Db Dg RR NN Z:
Db VB Vp NN RR AA NN RR C= NN Z: J^ J^ PL Vp Dg Vf Z: PE Vp RR PH AA Z: J, RR NN RR NN VB Db Dg Vp Z: J^ TT VB Vp J^ Vp NN Z:
NN RR NN PH Vp Dg AA NN AA RR PS NN Z:
VB P7 PH Z: J, VB Vp NN Vf P7 RR AA NN Z: P4 VB Cl RR AA Z: J, VB PD AA RR PH J, NN Z:
Db VB P7 Vp Dg NN Z: P4 VB Vp NN Vf RR NN Z:
RR PD VB P7 Vp P7 NN NN Z: P4 VB PZ AA J, PP Z: J^ TT VB RR NN NN Z: P4 VB Vf TT NN RR P6 Z: J, Db VB Z:
VB Db AA Z: J, VB P7 Vp Vf PD NN Z: RR P4 Vp VB RR NN Z: Db VB Db Db Vf Z:
VB Z: J, VB Vf NN Db Db Db Vf J^ Vf RR NN Z: Db VB Vp RR AA NN AA NN Z:
