NN J^ NN Z:
VB Z: J, RR AA NN P7 NN AA NN J^ AA NN NN J^ AA NN Z: J, VB AA Vf RR AA NN Z:
PD Vc Vp AA NN Z: TT Vc Vp PZ J, AA AA NN RR NN RR NN Z:
Vp Vc NN J^ NN NN RR NN AA NN Z: PD Vp Vc Vf AA NN Z:
J^ J, VB J^ VB PD NN Vf Db AA J^ AA Z: VB Dg Vf Z: J, RR NN Z: NN Z: NN Z: PE RR PS NN VB AA NN NN Z: VB PW AA Z: PE Vc Vp Vf J, Z: Dg AA Z: RR PD AA NN Z:
J^ J, NN RR PS AA NN Dg VB AA NN Z: P4 P7 Vp RR PS NN J^ RR P4 Vc Dg Vp Z: J, VB J^ AA J^ AA Z:
AA NN VB PD Z: P4 VB Cd Cl NN RR AA NN Z:
J, VB RR NN Z: P4 VB AA NN J, Db AA NN RR NN Z: AA NN RR PP Db Vp PD Z: J, VB Vp AA NN PZ AA Z:
PD NN P7 Vp RR PZ AA NN RR PD NN RR NN NN J^ Db VB Db Z:
Cl NN PS AA NN Vp Vf AA NN Z: J, P7 Vp RR NN PD NN Z:
Db PL NN VB Vp Cl RR Cr RR NN J^ Vp VB PZ AA J, Z: X@ X@ Z: Co TT J, VB Db Vp Vf P7 Vf NN Z:
J, VB PD Vp TT Cv Z: VB AA Z: J, AA J^ AA RR PP P7 Db RR PD VB Vf Z:
Db PD VB Cl AA AA J^ AA NN Z: RR P4 P7 Dg VB Z:
J, PP NN Vp VB Vf AA NN RR NN Z: P4 Vp Vs RR AA NN Z: PP Vp Vs P7 Vf RR NN AA NN J^ PD Db J^ RR NN RR AA NN Z:
Db TT PD Vp AA NN Vs PL PS Cn NN Z: J^ AA NN Vf AA NN Z: J^ NN RR NN Z: Db VB Vp Vf NN RR NN Z: NN Vp Db RR Cr NN AA NN RR NN Z: Db PD NN Vp J^ Db NN P7 Vp RR AA J, NN Z:
