AA NN PS NN Z:
PL VB NN RR NN NN Z: RR P4 PL VB RR NN Z: VB NN RR PL Z:
J, RR PD VB Z: VB P7 Vf Z: J, PL Z: P4 P7 Vp Dg Z: VB Dg RR Cl AA NN Z:
AA NN Dg VB Z: J, J, VB NN NN Z: Db P7 VB Vf RR NN J^ RR AA NN Z: Db P7 VB Vf Z: J^ J, TT VB NN Z:
AA NN P7 PH VB Z:
VB Vf Z: PQ P7 PH Vp Db Z: J, NN NN NN NN Vp RR NN Z:
NN VB PS AA AA NN Z:
J, VB P7 Vp Z: J, VB RR NN J^ VB NN RR NN Z: Vp VB NN Z:
Vp VB Vf Db Db Z: J, VB Vp NN Z:
J^ VB Vp RR NN NN Vf Z:
Cl NN Vp Db C= NN Z: Vp VB Vf Db Db Z:
NN Z: RR P4 P7 VB Vf NN Z: VB Cl NN RR NN NN Z:
VB Dg RR NN Z: J^ Vp VB Vf Db NN J^ NN Z:
VB Vf Z: AA AA NN RR NN Dg J, C= NN Z: VB RR NN RR X@ Z:
Vp VB PD Vf Z:
Vp VB NN RR Ca NN J^ Vp VB P7 RR NN Z:
AA NN RR NN VB P7 Vp Vf AA AA NN RR NN J^ Vf NN RR P5 Z:
Vp VB Db Dg Db Z: J, VB P7 Vp Vf Dg RR NN Z:
J^ Db VB Vp RR AA NN Z:
PS NN NN Vp Z:
RR NN VB Vp Vf NN RR PS NN Z:
Db VB Cv VB PS NN Z:
II Z:
PD NN Db VB RR AA NN Z: J^ RR AA NN Z:
RR NN AA NN Z: Vp NN Z: RR P4 VB NN RR X@ Z:
PD Vp AA NN Z: RR NN Vp NN Db Z: J^ VB Vp RR AA NN NN Z:
J^ TT VB Vp RR AA NN Dg J^ Vp VB RR NN Z: Db PP RR NN VB Z:
Vp VB AA NN J, Vp VB NN RR AA NN Z:
J, VB Vp RR NN Z: NN Db Vp Z:
J^ VB Vp Db NN Z:
TT NN Vp Z: Vp VB RR NN Z:
Vp VB RR NN Cn NN RR NN J^ Dg PD Vp PP NN Z:
Db P7 Vp Db AA NN Z:
NN NN Db VB J^ PS NN VB Db Z:
NN Db PP Vp Z:
Db VB Vp PD NN RR NN Z:
PD NN Z:
Vp VB Db AA Z:
Vp VB P7 RR NN RR NN J^ Vp VB AA NN Db Z:
Db VB Vp RV NN RR NN NN Z: J, Db Vp Vf NN J^ NN RR P5 Z:
Ca NN Z: P4 Db Vp NN Z: Vp AA NN J, PP Z:
J^ Vp Db AA NN Z:
J, P7 Vp NN Z: NN P7 Vp Cl Cr Z:
PS NN Z: RV P4 VB P7 Vf Vf NN Z: Vp PH RR NN J^ Vp P7 Z:
PP VB P7 Db Vp Z:
PD VB TT AA NN PS NN Z:
VB Vf AA AA NN Db Z:
J^ RV NN RR AA NN Z: P4 Db VB AC NN Z: VB AA Z:
Db VB Vp PH RR AA NN Z: RR AA NN Z:
PD VB AA NN RR AA NN Z:
