PS AA NN Z:
AA NN Xx Vp PS AA NN Z: J, VB Vp NN Z:
J^ J^ VB Db Db Vp Z:
J, RR Ca NN PS NN Vp RR NN RR NN Z:
Vp VB PP Vf NN Z:
PD NN VB Db Vp Vf RR AA NN Z:
VB Db AA J^ AA NN Z: J, AA NN Z: P4 RR NN VB NN Z:
RV Cl AA NN NN PP VB Z: VB P7 Vf RR NN J^ Dg AA NN Z:
NN VB Dg Db Z: J, Vp Db Dg Z:
Vp Vc P7 Vf Db J^ J^ RR NN VB Vp NN Z: NN J^ NN Z:
NN Vp AA Z:
RR NN Db Dg NN VB Z:
Vp VB Db RR C= NN Db Z:
Vp Db Dg PS NN Z: J^ NN Db NN Vp TT NN Z:
Vp PD Dg RR NN Z: J, VB NN Dg RR NN Vf J^ Dg NN Vf Z:
Dg Ca AG J^ NN VB NN Z:
Dg Db Vp NN Z:
Dg VB Vp RR NN Z: RR PP Vp PD AA NN RR NN Z:
NN NN Vp NN Z: J^ Db Vp NN Z:
Vp VB NN J^ Vp VB RR NN Z:
Vp PP Db AA NN NN J^ NN Z:
Vp NN AA RR NN RR NN NN Z:
PD P7 PH Db Vp Z:
RR NN P7 VB J^ Db NN Z:
Db VB Vp PZ AA NN Z: Db VB P7 NN Vp RR NN J^ Db VB Vp Dg Z:
Vp VB Ca AA NN J^ Vp VB Dg AA NN Z:
RR NN VB P7 Vp RR NN RR NN J^ Db VB Vp Z:
RR NN VB Db Vp AA Z: Vp VB Vf RR NN Z:
Vp VB RR NN NN Z: J, P7 Vp RR NN Z:
RR NN Vp PZ NN J^ Vp VB RR NN Z:
Vp Vf Z: J, Dg Vp AA NN Z:
RR P5 VB P7 Vp Z:
RR NN NN Vp NN J^ Db Vp Z:
Vp VB AA NN Z:
Db VB Vp NN Z:
J^ Vp VB Db RR NN Z: J, VB Vp RR NN Z:
Vp AA Vf Z: J, Vp Dg Z:
RR NN NN Vp J^ Vp VB AA NN Z:
Vp VB Dg Vf Db Z:
Db P7 Ca NN Vp J^ Dg Vp RR NN Z:
PD Vp AA Z:
RR NN VB Vp RR NN Z:
Vp VB Db AA Z: Db VB Vp RR NN Z:
NN Z: J, VB Vp Db Z:
J, VB Vp RR NN Z: Vp Dg Z:
Db VB Vp Vf Z: Db Vf Z:
Vp VB P7 Vf RR NN Z:
Dg RR NN NN PH Vp Z:
Vp Z: J, Vp NN RR NN Z: Vp P7 Vf Z: Vp Z: J, Vp VB PP Vf Z:
J, Db Dg Vp Z: Vp AA Vf RV NN Z:
Vp VB Z: J, NN Vp Z:
RR NN P7 Vp NN NN Z:
RR C= NN VB Vp RR NN Z:
J^ PW Vp Db Z:
Db Vp NN Z:
NN VB Vp Z:
J, VB VB Z: PQ P7 Vp Z: RV NN Vp NN J^ Db Vp Z: Dg Dg RR NN Z: Z:
NN Z:
Dg VB P7 Vp Z: J, VB Db Vp NN Z:
NN Z: NN J^ NN Vp NN J^ AA NN Z:
RR P5 Vp Z: AA Z: Z: Z: Z: PS AA AA NN Z: Z:
PD Vp PS AA NN Z:
