VB PS NN NN Z:
VB AA NN NN Z: RR PS NN Z: Db NN Z: NN Z: NN J^ NN Z:
Db J^ Db AA NN VB PS NN Z:
Db NN J, AA NN VB Db NN Vs Z: Z:
RR NN NN J, NN Vp Vf NN Z: Db NN Z: NN J^ NN Z: Vp Vf RR Cl NN Z: J^ Vf NN Cl Cr Z:
J^ P4 NN Db Vp Dg NN J^ Db VB AA NN Z:
VB P7 Z: J, AA Dg NN VB J, NN Z:
PP Db VB P7 P6 AA AA NN J^ Dg VB NN NN Z: NN J^ X@ NN Db Z:
NN VB NN RR PS AA NN Z:
Db RR NN NN VB TT AA NN Z: J^ J^ AA Z:
AA NN AA NN VB NN RR NN NN Z: J, P7 Vp Vf NN Z:
Db RV NN J^ RR NN AG VB PZ AA Z: J, NN Vp NN Z:
Dg P7 Vp NN Z: P4 VB Db AA NN J^ Db AA NN Z:
VB P7 PP Vf Dg J^ Vf Dg Z:
AA NN VB AA Z: RR NN Z: NN Z: AA NN Z: J^ NN Db Z:
VB Z: J, AA NN VB AC NN Z: J, AA NN Db VB Db VB PW Z: J, VB J^ VB Z:
AA NN NN PP VB Z:
Db P7 VB NN Z:
AC P7 VB AA NN RR NN Z: Db AA NN Z: VB NN Db VB PP Dg AA NN Z:
RR NN P7 NN NN AA NN RV PL NN Z:
VB AA NN RR NN J^ NN Z:
RR NN Dg NN Z: Vf NN Z: J^ Db VB Z:
RV NN NN Dg VB NN RR NN Z: J, AA Vp Z:
NN NN VB Dg NN Z:
NN VB AA RR PD Z: PQ VB Db Vp Z:
J, AA RR NN Z:
PZ P7 VB Z: J, VB NN Z:
J^ VB Db AC Z: J, VB AA Vf P7 P6 Z:
VB Vf Z: J, VB NN J^ NN Z: J^ VB RV NN Z:
RR Cr NN Db Db Ca NN PP VB Z: TT RR PD Ca NN VB AA Z:
J^ J^ VB Vf AA J^ AA NN Z: Z: Z:
