VB PS NN NN Z:
Db VB PS NN AA NN Z:
NN NN VB NN Z: NN Z: NN J^ NN Z:
AA NN P7 VB PQ VB AA RR AA NN Z: PQ P7 VB Vf RR NN Z: J^ P4 VB NN RR PS NN Db Z:
NN VB AC AA NN Z:
AA NN P7 VB NN Z: NN J^ Ca AA AA NN RR NN Z:
VB AA RR NN J^ NN RR P5 VB AA J^ AA Z:
NN VB Z: J, Db VB Vf NN Z: P4 VB Z: RR NN Z:
Db Z: VB Z: TT PZ NN RR NN Z: Vi NN J, Vc NN AA Z:
J, NN VB NN Z:
NN VB Z: J, VB P7 Vf PS AA NN Db VB Z:
Db NN VB Db Dg Vs J, Dg RR NN RR NN Z:
Dg VB Db NN J^ NN Z: J^ NN J^ AA NN Z: PK VB RR NN RR NN J^ NN Z: AA VB NN Z:
NN Db VB PP AA NN RR NN Z: Vf NN Db Z:
NN VB AA J^ AA NN Z:
VB Z: P7 Vf Z: Db NN Z:
VB Vf NN Z: NN Z: NN J^ Ca AA AA NN RR NN Z:
X@ Z: J, VB NN Z: NN Z: VB Vf PS NN RR PS NN Z:
J^ Db RR P5 VB Vf Ca AA NN Z:
VB NN Vf Dg Db P7 NN RR AA NN Z:
AA NN VB Z: J, VB Db Ca AA J^ AA NN RR NN Z:
Db Z: VB Db Ca AA J^ AA NN Z: NN J^ NN Z: P4 VB Dg Vf NN Z:
J, VB AA NN RR NN Z: Db VB AA NN Z: P4 VB Vf PS NN RR NN Z:
Db Z: RR C= Z: RR NN RR NN Z: PZ VB RR NN J, VB Dg NN RR NN Z:
PD NN Dg VB AA RR NN Z:
NN VB Dg AA J^ AA NN Z:
RR P5 VB Vf NN RR AA NN Z: AA NN Db Z:
NN VB AA J^ J^ VB PP Vf RR NN Z: NN J^ NN Z:
Cl NN VB Z: J, VB Vf AA NN RR NN Z: RR AA NN Z:
Dg VB Vf AA RR NN Z:
AA NN VB P8 NN J^ NN Z:
VB Db Vf RR NN Z: P4 VB RR NN Z: J^ Db Vf AA J^ AA NN Z:
VB NN J, VB PS NN NN Z: J^ Vi NN Vf PP Z:
