Dg Vp NN
Db VB Vp NN Z:
AA NN VB RR NN Z:
PS NN VB RR NN Db Cn NN Z:
Db RR NN VB Vp NN Z: J^ PD VB AA NN RR PH Z: J, VB Vf AA NN J^ Vf NN Z:
AA NN Vp J, PS NN P7 VB Z:
PD NN Vp Db RV AA NN Z:
VB Ca NN RR NN Z:
J, VB Db VB NN RR AA NN Z:
AA NN VB RR NN Z: Db P7 VB RR NN Z:
RR NN J^ RR NN VB RR PZ NN J^ VB RR NN Z:
AA NN Z:
VB AC NN J^ RR PH VB AA NN
