J, VB Vp AA NN Z: Db AA Z: Db Vp NN RR PH NN Z:
VB TT Cv Z:
Vp PH TT Cl Z: Cl Db Z: Vp VB Vf RR AA NN Z:
Dg NN Vp AA Z: J^ VB Vp Vf J^ Vp VB P7 NN Z:
Db NN Vp AA J^ Vp VB NN Z:
Db Vp VB AA Z: Cl Db Z: Vp VB RR NN J, VB Vp Z:
NN Vp Db AA J^ NN Vp NN AA Z: Vp Z: VB P7 Db Db Z:
Vp VB Cl NN Z:
NN Vp Db AA J^ Vp RR PH NN Z:
Db Vp AA NN RR PP Z:
