VB AC AA NN
PP VB Vp NN Z: Db VB Vf RR AA NN Cl NN Z:
Db VB Vp RR NN Cl NN Z: J^ Db RR NN Cn NN Z: J^ Db Db VB P7 RR AA NN Z:
VB Vf Dg Z: Db VB AC AA NN Z: J^ VB Vf Z: J, VB Z: PQ VB RR NN Db RR NN Z:
VB AA Z: J, NN Db AA J^ AA Z: J, RR NN Z:
Db Z: VB Vf NN RR NN Z:
NN VB AA Z: AA NN VB AA Z: AA NN VB Dg AA Z: NN VB AA Z: J^ Vp VB Db Ca NN Z: Db Db Z:
PP VB AC NN Z: J^ VB Dg AA NN Db Z: J^ VB Dg NN Z:
Db VB Vp RR AA NN RR NN RR NN Z:
Vp VB RR NN Z: J^ Vp VB AA NN Z:
RR PS NN NN VB Db AA Z: AA J, NN Z:
VB AA NN Vf NN RV NN NN NN Z:
AA NN VB AA RR NN Z: Dg VB AA NN Z: RR P4 P7 PW VB Z:
J^ RV NN NN VB AA Z: J^ VB AA RR NN Z:
J^ NN VB Db AA Z:
VB TT Cl NN Z:
VB AC AA NN Z: VB P7 RR P5 Z:
J^ J^ VB P7 Vp Dg Z: J^ Vp VB NN RR NN Z:
Db Db VB Vp RR NN Z: J, VB Vp Z: J, VB Cl AA NN RR NN Z:
RR PD NN VB Vp Cl AA NN Z: P4 VB NN J, NN Z:
Db Db VB Z: Db P7 PS NN VB NN Z:
Vp VB Z: J, RR NN VB Vf PD NN Z:
J^ NN VB Dg AA J^ Db Dg Vp RR NN Z:
VB AA Z: J, RR NN PD NN Vp Vc AA Z: Vp Vc NN Z: Z: Z:
J^ PD NN VB TT NN Z: Db VB AC AA NN Z:
Dg Z: VB Dg Vf Db RR PS NN J^ PS NN Z: J^ VB P7 Db Dg Z:
