VB AC NN Z: J^ Db TT
PP VB NN RR NN J^ PP VB Db RR NN RR NN Z:
VB Cv Z: J, VB RR NN Z:
J^ Db PH RR NN VB PZ NN Z:
Cl RR P5 NN Z: J, VB PH Db Db J^ Db VB J^ NN VB Db AA Z: Db NN VB AA RR NN J^ Db VB RR NN Z: J^ RR NN NN VB Dg RR NN J^ RR NN Z: Cr NN Z:
NN VB Db AA Db Z:
J, Z: Cr NN PH PZ Vp Db RR NN Z:
J, VB Vp NN Z: J^ Db PH Db VB NN Z: J^ Db PH Db Vf Z: Z: Db VB P7 RR NN NN Vp Z:
J^ Cr NN VB NN Z:
PP P7 RR AA NN VB J^ PP P7 VB Vf P7 RR AA NN Z:
J^ Db AA NN VB RR NN Z: Db VB RR NN Z: P4 VB Db AA J^ AA Z:
Db VB RR NN Z:
J, P7 PH PZ NN Vp Z: VB PH PD NN J^ VB PH PS NN Z:
J^ Vp VB Z: J, NN VB AA NN RR NN J^ Db VB NN J, Db Db Z: J^ RR NN X@ VB AA NN Z:
