NN Db
NN Db VB AA Z:
VB AA NN RR NN Z:
VB NN Z: NN Z: NN NN J^ NN Z:
NN VB NN J^ VB Z: NN VB NN J^ Db NN Z: Vp NN AA NN Z: NN VB RR NN Db NN J^ AA NN Z: NN VB RR NN Z:
VB Dg NN Db VB RR NN Z: RR NN Z: RR NN NN Z: VB Db PS NN Z:
Db VB RR NN Z: VB NN Z:
VB Dg AA NN J^ AA NN RR NN J^ RR NN Z:
VB NN RR NN Z: PD VB NN RR Z: NN Z: Db VB AA NN Z: Db VB AA NN J^ AA NN Z: Db VB AA NN Z: Db NN Z: NN NN Z:
VB Dg RR NN Z: VB Db Db AA NN Db Db VB Db J^ VB P7 Z:
NN Db VB AA J^ AA Z:
Db Z: Dg J^ Db Dg Z:
