VB PS NN NN Z:
AA NN NN VB NN Z: NN Z: NN J^ NN Z:
PD VB NN Z:
VB NN NN Db RR PS AA NN Z:
RR AA RR PP VB NN AA NN J^ TT NN VB Dg Vs Z:
Db Z: J, VB Vp AA Z: Db VB P7 RR PS NN Vp Db J^ Db Db VB P7 Vp RR NN Z:
Db NN AA VB P8 AA NN Dg RR AA NN J^ RR NN Z:
PD VB AA Z:
VB Z: J, NN NN VB Db Vf RR PS NN Z: J, TT Db Db Z: TT P7 VB RR NN J^ Db VB NN J^ NN Z:
RR AA NN VB RR NN PZ NN Z: VB NN Z: J^ Dg VB AA NN J^ NN Z: J, VB Vf NN RR PZ NN Z:
VB PS NN NN Z:
TT Z: RR AA NN Z:
Vi RR NN NN Vf PS NN AA NN Z: J^ Vi NN Z:
