AA NN C= Z: C= Z: C=
VB PS NN NN J^ NN Z:
RR PS NN VB AA NN Z: J, NN J^ NN VB PS NN Z:
Vp Vc Z: J, VB NN Z: J^ VB AA NN RR NN Z:
NN RR NN Db VB AA Z:
Db VB NN Db J^ NN VB AA NN J, Dg Z:
VB Db Vs RR NN Z: NN J^ NN Z:
VB Db Vf RR PD AA NN Z: J, VB Db Db AA Z:
Db PL VB Vf Db AA Z: PD VB AA Z:
NN J^ NN PP VB Z: PQ VB Vf Z: Vf Z: Vf J^ Vf Z:
VB Db AA Z: J, VB Vs Db Db Z:
NN VB AA NN Z: NN Z: NN Z: NN Z: NN J^ Db Db Z:
X@ TT NN Z: J^ Db NN Z:
J^ NN Dg VB J, NN Z:
NN Z: NN J^ NN VB NN Vf Dg NN Z:
VB Vf PZ AA Z: PW AA Z:
VB NN Z: J, PL VB NN Vf Z:
J^ PZ AA NN VB NN J^ Db NN Z:
RR Cl NN PD VB AA Z: J, NN VB Vf AA Z: AA J^ Db AA Z:
RR Cr NN RR PS NN VB AA Vf J^ Vf Z: PQ VB Z:
J^ PD VB PZ Db AA Z:
VB RR NN NN VB Db Dg J^ VB Vf NN Z: J, NN J^ NN PP VB J^ VB PS NN Z:
