PS AA NN
J, VB Cv Vp RR NN Z: Vp PH C= NN J^ Db VB Db Vp Z: J, RR PS NN NN Vp Dg Vs Z:
Vp VB RR AA NN RV AA AA NN Z:
RR PD Z: J, VB Vp NN J^ Vp VB AA NN NN Z: Db P7 PH Vp TT PD Z: J, VB Dg Dg Db Z:
J, VB Vp NN Z: Vp VB Vf RR C= Z: J, Vp NN Z:
J^ Db Z: NN VB Dg Db Z: RR P5 VB TT C= NN Db Z:
RR NN VB Db Vp NN Z:
Db VB Vp Vf AA NN NN Z: RR NN VB Vp AA NN NN Db Z: J^ Db Db PW VB Z:
NN RR NN Vp NN NN RR NN Z:
Vp VB Vp Vf Z: Vp VB Db Vf Z: J^ NN NN NN PH Vp Z: J^ VB Vf Dg J^ Vp Z: NN Z: Db VB C= Z: J^ PQ Db VB Z: Z:
J, VB RR AA NN Vp Vf Z:
Vp VB RR NN NN J^ Cl NN Z: Db VB PP Vp Z: J, RR PH Vp AA NN RR AA NN Z:
PD Vp Cr AA NN Z:
RR Cr NN VB Vp Vf NN PD NN Z:
Db RR AA J^ AA AA NN Z: Db P7 VB NN J^ RR P5 P7 NN NN Z: RV P4 VB AA NN Z: VB RR AA AA NN Z: J^ Db Vp TT Cl NN Z:
RR NN VB Vp Dg Vf NN NN RR NN Z: Db VB Vp NN RR AA NN Z: NN J^ NN Db Z:
RR NN Vp PP AA NN Z:
RR NN NN VB P8 NN NN Z: J^ VB J^ VB P7 TT RR AA NN Z:
PL AC VB AA NN Z: J^ Dg VB Vp Vf Dg Z:
RR NN Z: Vp VB RR NN RR NN Z: Db AA NN Vp Dg RR C= Z: J^ RR NN Vp RR C= Z: Db Vp Db Dg Z:
Db Vp AA NN Z: J^ RR NN Z: NN Dg Vp Z:
RR PD NN Vp NN AA AA NN Z: PQ Dg Vp NN Z: PD Dg NN Z:
Dg VB Vp AA RR NN Z: VB P7 Z: RR NN Z:
PD Vp NN NN Z: Vp PH Db Z: J, VB Vp NN Z: J^ Vp VB P7 Vf RR NN Z: Db PD Vp Dg Z:
J, PZ VB RR PD NN Z: Vp Vc NN RR PD Z: J, VB Vf NN Z:
Dg Z: PP VB Vp RR AA NN NN NN Z: Dg VB PD Vp RR NN Z:
Db VB Vp Vf NN NN Dg Z: Db PD Vp Z:
Vp VB RR AA NN Z: J^ RR NN Z: J, AC VB NN J^ NN Z: J^ J^ RR P5 Z: J, Vc Vp PZ NN Z:
J^ NN RR PD NN Vc Vp Dg AA Z: Db RR AA NN VB Vf AA NN NN RR NN Z:
Db Vc Vp Vf J, NN RR AA NN RR AA NN Z:
Db RR PZ NN Z: TT P7 VB Dg Z:
