NN RR NN
J, PH Vp Cn NN Z: Vp VB P7 RR NN RR Cl NN RR NN Z:
PS NN Db Vp Vs Dg J, Db Db Vp RR AA NN RV NN Z:
RR NN VB P7 Vp RR AA NN Z: Db J^ NN AA NN Z:
VB P7 J, Cl Db PP Vp NN RR NN Z: RR RR AA NN Z: RR NN Z:
VB AA J^ AA J, NN VB AA NN RR NN J, NN J^ J, P7 Vp J, AA NN Z:
J^ TT P7 PH PD NN Db Vp Z: J, VB Vp Dg NN Z: Z: J^ Db VB PS NN Z: Z:
Db Z: J, AA VB J^ VB NN Z:
Db Z: Vp Vc P7 J, P7 Vp NN J, VB AA Z: AA NN Z:
