Dg Dg NN
Db AA VB NN Z: Db AA VB NN J^ J^ VB Ca NN Vf NN Z:
PZ NN AC VB Db Z: AA VB RR NN Z: J^ RR NN Z: J^ RR NN Z: P4 VB Z: J^ PZ VB RR AA NN Z:
PZ NN VB AA NN Z: AA VB TT Vf Z: AA Vf Z:
NN Z: P4 VB Z: VB NN J^ NN Z:
PP Dg VB RR PL Db Z: J, AA RR P4 P7 TT VB Z: P7 VB Dg AA Z:
RR Cr NN AA Z: RR P4 P7 TT PZ VB Z: VB AG Z:
RR PD VB AC NN RR AA NN Z: J, P7 VB Vf PL Z: PQ VB Vf J^ PQ P7 VB Vf Z:
PS AA NN VB Vp AA NN Z:
Vp VB NN RR NN Z: NN Z: Z: Db VB Vp J, NN RR AA AA NN Z:
Vp VB Db Dg NN RR AA NN Z:
RR NN VB P7 Vp NN RR NN NN Z:
RR C= NN VB Vp Db RR NN Z: PD VB RR NN Z: J, VB P7 Vp Vf Z:
Db VB Vp RR NN J^ Db Db Z:
Vp PD AA J^ AA NN Z:
