NN RR NN RR NN Db
PD VB RR PH NN Z: P4 VB AA Vf Z: J, VB Vp RR NN TT C= NN RR AA NN RR NN Z:
Db VB Ca NN Z: J^ PQ VB Db Vp Z: VB Vf Z: J, NN RR NN VB Cl NN Z:
Db Z: J^ RR PH VB PD PD AA NN NN RR NN Z: VB Db NN Z:
Db VB J^ NN J^ NN P4 PD VB PQ VB Vf J^ PQ VB Vf Z:
Db Z: NN RR NN VB PD AA NN J, Vp RR NN Z:
Cr Z: RR NN VB Db PL Z:
Db J^ Db VB NN Z: P4 RR PP VB Vf J^ PZ Vf Z:
VB PD AA Z: J, P7 Cv RV NN J^ Db VB PW Z:
RR Cn NN VB AA NN J^ J, VB PZ Z: Db Vc P7 Vp J^ RR PZ AA Z: NN VB AA NN Z:
J^ Z: J^ Db VB RR NN NN RR NN Z: J, VB Db AA J^ VB C= NN RR NN NN RR NN Z: NN RR NN VB Vf Db AA Z:
VB PD Vf Db Dg AA Z: J, VB AA RV P4 VB Dg Z:
PP PD VB NN Z:
VB NN RR NN Vp Db AA Z: J, VB P7 Db Vp J, VB RR NN Z:
J^ VB NN P4 Vp Dg NN J, PP Z:
PS NN Db VB NN J^ Db NN VB AA Z:
Cl AA NN RR NN VB Z: J, VB Vf PL PL Z:
Db VB NN Z: P4 VB Z: VB J^ VB Z:
VB Z: J, J, P7 AA J^ AA NN RR NN VB Vf AA NN Z:
J^ RR NN J^ Cl VB Vf J, PD VB Z:
