Dg Dg NN
AA NN P7 RR PP VB Db Z: J^ AA RR P5 VB AA NN Z:
VB AC NN J, VB AA NN Db Db Z:
NN VB NN AA J^ AA Z:
RR PP VB Db AA NN Z:
RR NN PL VB NN Z:
VB P7 J, PW VB PD NN Z: TT PP Z:
PD VB NN AA NN Z:
AA NN VB PZ NN Z: PP VB Z: NN Z:
VB NN J^ PL P7 VB Z:
VB NN RR NN J^ NN VB AA NN NN RR NN J^ NN Z: J, AA NN Z:
NN VB Vf Cl J^ Cl NN Z:
Db P7 VB J^ VB Z:
VB P7 RR NN J^ AA NN Z:
J, P7 NN VB PP VB Vf NN P8 NN Z:
NN P4 Db VB AC VB NN Z:
Cr NN P4 VB RR PP VB Db Db NN Z:
PL PH VB AC Z: J, PP VB NN NN J^ NN Z:
RR NN P7 VB NN J^ NN Z:
PD P4 VB VB Db AA Z: AA J^ AA Z:
NN Db VB RR NN Z: AA AA AA NN Z: P4 VB AA NN Z: Z: Z:
NN RR NN J^ NN PL VB NN Z:
PD VB NN P4 Dg NN AC Z:
Db AA J^ AA NN RR PS NN Z:
PD VB AA NN RR NN Z: J^ PL VB NN RR NN Z:
PD VB NN Z:
