Db P7 RR PP VB NN
RR PP NN VB NN NN Z:
TT Cl J^ Cl NN RR AA NN P7 VB NN Z:
VB NN Z: J, PD NN VB AA Z:
Db VB AU NN Z:
Db VB NN RV NN Z: AA NN J^ AA NN Z: P4 VB RR AA Z:
RR NN VB NN Z: Db NN Z: PS NN J^ PS NN Z:
NN VB PZ RR NN Z:
Db VB PD NN Z: J, VB PZ AA RR NN Z:
RR NN VB Db AA NN J^ NN J^ AA NN J^ AA NN Z:
RR NN VB NN Z:
VB NN J^ Db PZ VB Vf NN J^ Vf NN Z: J, VB NN Z:
Db VB Db Z: VB NN J^ P7 Dg VB Z:
RR AA NN AA NN VB NN Z: Db AA Z: AA J^ PZ AA Z:
RR NN VB RR NN J^ NN Z: P4 Vp RR PP AA NN Z:
RR Cr AA NN VB RR NN Z: J, NN Vp Ca NN Z:
Db Z: J, VB Db NN Z: VB RR NN Z:
RR NN VB NN Z: J, Db VB Vf Z:
