Db TT Z: VB NN Z:
PP VB AC AA NN Z: J^ J^ VB Vp NN Z:
Dg PW VB Vp J^ RR AA NN Z: J^ J, VB Vp AA NN RR NN VB P7 Vp J, NN NN NN Z: J, NN RR NN PW VB RR AA NN J^ PH P7 VB Dg Db VB Vp NN Z: Db J, VB Db AA J^ NN Z: P4 VB NN VB TT NN Z: Db VB J, NN J^ RV NN RR AA NN Z:
NN P7 PH VB Z: J, NN Db VB Db AA J, RR NN Z: J^ Db VB P7 Vp RR AA NN Z:
NN VB NN RR NN J^ NN J^ PP VB Db Z: J, NN VB NN J^ RR NN Z: J, VB NN VB Db Db PD VB AA NN Z:
NN Z: P4 VB RR NN VB Db AA J^ VB RR PP Db Z: Db VB RR PP AA J^ J^ Vp VB Z: J, J, VB Db NN VB AA J, RR NN J^ Vf RR AA NN VB AA Z: J^ TT PD VB Z:
NN AA NN RR AA NN P7 PH VB Z: J, NN VB RR NN Z: J, NN VB NN J^ NN VB AA NN RR NN Z: J^ PD VB NN Z:
NN AA NN J^ Db NN VB AA J, NN Z: J^ P7 PW VB Vf Z:
AA NN VB AA Db RR PH Z: J^ J^ VB Vp Z: J, Db TT NN J^ VB AA Z: J^ RR Cr NN RR PH Db Z: Vp VB Vs J^ Db Vp VB Z: J, VB NN VB TT NN J, NN Z:
AA NN VB Z: J, Vp VB RR AA NN Z: J^ VB Z: J^ Db VB J^ VB NN Z: Db J, Vp VB Vs Z:
NN Db VB Db AA J, RR PP RR NN Z: VB Z: J, Db NN AA NN VB Db AA Z: Db NN NN VB AA J, RR NN Z: Db PP Vp Vf NN RR NN Z: J^ NN Db Vp TT NN NN Z: J^ RR NN VB C= NN Z:
AA NN VB Db AA Z: J^ Db P7 VB RR AA NN Z: J, VB Vf AA NN J^ J^ VB P7 Vf PZ J^ VB AA NN Z: J^ AA NN VB Db AA J^ Db NN Z:
J, VB AA NN Z: J, VB Db VB NN J^ VB Z: J, VB NN Z: J, Vp VB NN J, PP Z: J^ RR NN VB Vf NN Dg Z:
NN VB Db AA RR NN Z: J^ VB RR NN Z: J, PS NN VB NN Z: NN Z: NN J^ NN Db J^ NN VB J, NN NN J^ J^ VB AA Z: J^ RR NN PP Db AA Z: J, NN NN VB J, NN Z:
NN Db P7 PH VB Z: J, NN VB RV NN AA J^ VB NN RR NN J^ NN J^ J^ VB AC NN RR NN J^ VB Z: J, P7 VB RR NN Z:
VB RR NN Z: J, NN RR NN Db J, RR NN RR NN J^ VB Vf RR NN J^ RR NN Z: J, Vp VB AA NN Z: J^ Db VB RR PD NN Z: J^ VB Vf Z:
Db AA NN P7 PH VB Z: J^ VB Db NN VB PS Cr NN Z:
