PS AA NN
Vp VB Dg Z: J^ Vp VB RR PD Dg Z:
Vp VB P7 Db Dg NN Z:
AA NN Vp VB NN RR NN Z:
Db VB TT Vp AA NN RR NN J^ NN Z: J^ J^ AA AA NN Z:
RR NN C= P7 Vp RR PS AA NN Cl AA NN Z: P4 P7 VB Db AA Cr NN Z:
Vp VB RR PD NN NN Z: NN J^ AA NN Z: P4 VB Vp RR Cn NN Z:
Vp PP TT C= NN Z:
Db VB P7 Db Vp PD Z: J^ Vp PD J^ Db NN Z: TT Cl NN VB Vp PD NN J^ NN Z: J^ J, VB J^ Vp RR NN Z:
PD PH RR PD NN Dg Vp Z:
Db VB P7 Vp Vf NN NN Z: NN RR AA NN RV AA J^ AA NN Z: Z:
RR Db VB Vp RR AA NN RR AA NN J^ Db PD VB PL Vp Z:
Db VB Db NN RR NN RR AA NN RR NN C= Z:
AA NN VB Vp J^ J^ RR NN Z: Vp VB AC RR NN Z: P4 P7 RR AA VB NN AA NN J^ NN AA AA NN RR AA AA NN Z:
RR PD VB Vp Db RR NN NN Vf PD NN RR Cl NN RR NN Z:
Dg Z: J^ Dg Z: J^ AA Z: VB Vp Db Db Z:
VB NN Z: J, P7 Vp RR AA NN Z:
J^ VB Db Z: J, Db VB Vp RR NN Z:
Vp VB J^ AA NN J, NN Z:
Db VB Vp Db C= NN Z: J^ Db VB Vp Dg Db Z: J^ NN Vp Ca Z:
Db VB Vp Vf RR NN Z:
Db VB Dg Z: J^ VB Dg Z:
Db VB PD RR NN Z:
NN VB Dg AA J, AA NN Z: J^ J, NN Db Z:
