VB PS NN NN Z:
NN AA NN VB Cl RR NN AA NN Z:
PZ NN VB Z: J, RR AA NN VB Cl Z: NN Z: Z: AA NN Z: AA NN J^ AA NN Z:
J^ NN VB NN Vf Z: Vf J^ Vf AA AA NN J^ Vf AG NN RR AA NN Z:
NN VB NN NN Z: P4 VB J^ VB NN Z: P4 P7 VB Z:
Db NN VB Vf NN RR AA NN Z: Db VB Vf J^ P4 NN VB Vf Z: VB RR NN Z: NN Z: NN Z:
NN VB Vf J^ Vf Z: Db NN VB NN NN NN Z:
PD NN P7 VB RR AA NN NN Z: P4 J^ VB Z: J^ VB Z: J^ VB Z:
J^ NN VB AA NN Z:
RR NN AA NN Z: NN P7 VB Vf AA AA NN RR PZ Dg Z: P4 VB RR NN NN J^ RR NN AA NN NN Z:
J, PL VB PD Z: NN Db VB PS NN Dg Z: J, PP VB NN Z: P4 Vc Vp Vf RR NN AG RR NN Z:
