AA NN RR PS NN
J, P7 PZ PH VB Z: Z: P4 NN Vc Vp PS AA NN RR PS NN Z: Z:
PP VB PD NN Z:
Db Z:
RR PH AA NN VB AA NN Z: Dg Z: PS NN VB AA J^ AA Z:
Db P7 VB RR AA Db Z:
J, VB RR AA NN Z: VB PD Dg AA J, AA Z: P4 VB Vp Db Z:
PD P7 Vp Db RR PD NN AA AA NN Z: J, VB Vp RR NN Z: NN Z:
Vp VB Vf AA NN RR AA NN Z: AA NN NN RR NN Z: J^ Db VB Vp Z: J, Db NN Z:
Db VB Vp NN Z: J, Vp VB AA Cl NN Z:
RR NN AA NN VB Vp RR NN J^ Vp VB RR NN AA AA Z: PQ VB AA NN NN NN J^ NN NN Z:
Dg VB Vp PD NN Vf J^ Db VB Vp PD Vf Z:
J, VB Vp RR Z: PZ PH Vp Z: J, Db PD NN VB NN RR NN NN J^ NN Z:
Vp VB Db AA J^ Db VB Vp NN NN Z:
Vp VB Db RR C= Db J^ Vp VB P7 RR Ca NN RR Dg Z: P4 Vp Db AA Z:
Vp VB P7 RR NN Db J^ Vp VB AA NN Db Z:
NN NN Vp C= NN Z:
Vp VB Db J^ Vp VB Dg Z: J, Db PL Vp NN NN Z:
J^ Db VB P7 Vp RR NN J^ Vp VB NN Z:
Z: Vp Db Dg AA NN RR PS NN Z: Z:
