J, Vp NN Z:
RR AA NN Z: TT NN VB AA NN RR NN NN Z:
Db RR PS NN VB NN RR NN Z: Dg VB AA J^ AA NN Z:
Dg AA NN VB Vf Dg NN J^ Vf NN Z:
J, Vp AA J^ Vc Vp P8 AA NN Z: Db NN NN Z: Vp Vc NN Z:
Vp Vc Vf NN NN Z:
Db Vc Vp AA NN Z: Db PL NN P7 VB Z:
Db Vc Vp AA NN RR NN Z: Vp Vc AA Db Z: AA NN Z: NN Z: NN RR NN Z: NN RR NN Z: NN Z:
NN Vc AA Vp Vc Vp RR NN Z: Db P7 Vp NN Z:
Db AA NN NN Vc Vp NN J^ Db RR NN Z:
J, Vp NN Z: Vp Vc P7 Dg AA NN Z:
Db Z: NN Z: NN J^ AA J^ Vc Vp AA AA NN Z: J, P7 PH VB NN J^ NN Z:
VB Z: J, PD Vc Vp AA Z:
Dg Vc Vp RR AA NN Z: RR NN Z: NN Z: RR NN Vp Vc P7 RR AA NN Z:
VB NN Z: Db VB P7 Vf RR NN Z:
Vf Z: Vf Z: Vf AA NN Z:
VB AC NN Z: NN Z: PH Z:
Db Z: VB Z: J, J, Vp NN Z: Vp Vc Dg AA Z: NN VB AA TT RR PD NN Z: J, NN PP Z:
