TT Z: VB NN NN Z:
Vp Vc Vf NN RR PP Z:
VB RR NN Z:
VB RR Xx Z:
PD VB AA NN Z:
RR Xx VB Ca AA NN Z: AA AA NN Z:
AC VB RR NN Z: J, VB NN Z:
RR Xx VB NN Z: J, VB NN J^ NN Z:
J, Vp VB P7 RV NN AA Z:
VB P7 PH NN Z:
PD VB AA NN Z: Db VB Ca NN Z: NN Z:
NN Z: PD VB NN Z:
VB Ca NN Z: J, PS NN P7 VB Xx Z:
PS AA NN Z: VB NN NN Z:
VB P7 PH Xx Z:
