PS NN Z:
RR NN Dg VB Dg Z:
VB RR VB AA NN Z: NN Z: NN J^ NN Z:
Db VB NN Z:
Db VB RR NN RR NN Z: J^ RR NN Z: J, VB Z:
VB Db J^ RR NN Z:
Db NN RR NN Db J^ VB RR NN RR NN Z:
Db VB Db Z: VB Db NN J^ Db VB AA NN Z:
Db AC NN RR NN Dg Z: J, VB Vf Db Z: Z: RR NN Z: Z: Z:
Db AC VB AA NN RR NN J^ VB NN Z:
Db VB P7 J^ VB Vf TT RR Cl NN J^ RR Cl Z:
