NN RR NN J^ PS AA NN VB Vs AA NN Z: J^ Dg VB NN Z: NN J^ AA NN Z:
NN VB Dg AA NN RR NN J, NN Z:
J^ PD VB P8 NN Z:
NN VB Dg AA J^ AA Z: J^ Dg AA NN VB PL NN NN AA NN Z:
AA NN NN VB Z: AA NN NN Z: Z: PQ VB Z: J, NN VB NN AA NN J^ NN Db VB RR NN Dg NN AA J^ AA NN Z:
Db Z: RR NN PD VB Z: NN VB NN NN Z: J^ NN Z:
AA VB PZ Vf J^ Db Vf Z:
PP Z: NN Z: Vc P7 Vp RR NN Vf Db RR NN NN J^ NN Z:
J^ NN Vc P7 RR PP Z: NN Z: Vp P7 Vf RR PD Z: Db Vf NN Dg Z: PQ VB Db AA Z:
RR PH Z: NN NN VB Db RR NN Z: P4 RR NN VB Z:
J^ PP VB Dg Vf Z: Db VB Vf NN RR C= NN Z:
RR NN AA NN Z:
NN NN AA J^ NN J^ NN Z: J^ AA VB Vf Db AA RR NN P8 NN Z:
