Vp VB NN Z:
Ca NN Db Vp VB NN PS NN Z:
PS NN Vp AA Z: NN RR NN NN Z:
NN RR C= NN Vp RR NN Z: Db P7 Vp Z: Db VB Vf Db Z:
Db PP Vp PD AA Z: PD AA Z:
PD Vp Db AA Z:
Db PS NN J^ PP Vp RR NN Z: J^ Db Vp NN Z:
Vp VB RR Z: NN NN Z: RR NN J^ PD VB Db Vp Db Ca Z:
NN NN VB Vp RR NN RR NN J^ VB Vp AA AA NN J^ Db VB Vp PZ NN Z:
PD Vp AA NN Z:
