TT NN Z:
VB PH PD Db Z: J, P7 PH Vp RR NN Z:
VB PH Vf PD PZ X@ Z:
RR PS NN AA NN VB Db Dg NN RR NN Z:
Db VB PH Vf NN Z:
PP VB Db AA J^ VB Dg AA NN Z:
Db PH VB AA NN Z:
VB Z: J, PP PD VB AA RR NN Z:
Db VB Vf P8 NN RR NN Z:
AA NN Db VB AA AA NN Z:
VB Vf PD NN J, NN Z: NN Z: NN Z: AU NN Z:
Db AA NN VB Db AA NN Z:
Db VB Vf NN NN Z:
VB Z: J, PH P7 VB PD Dg Vf Z: J, RR NN RR NN Z:
VB RR PD Z:
J^ J, VB Z: Vi PH J^ Db VB Db Z:
J, VB Vf NN AA VB Db RR NN Z:
J^ Db Db VB Z:
VB Z: J, AA NN VB Vf Db Z:
VB P7 RR PS NN Z:
TT Z:
Xx
