PS AA NN
PS AA NN P7 VB NN Z:
PP VB Db AA NN Z: J^ RR PS NN Db VB VB NN Z:
NN VB AA Vf NN Z:
J, PP AA PS NN VB NN NN Z:
PP VB Db AA Z: AA Z: AA Z: AA J^ AA Z:
J^ VB TT Cl NN Z: VB Db AA Z:
NN VB AA NN Z: AA NN J^ AA NN Z:
VB PP Db Cn NN Z:
PP VB AA NN Z: P4 AC Z:
VB PP Db AC Z: J, VB Db RR P5 Vf Z:
