RR NN C= Z: NN C=
AA NN Z:
VB J^ RR NN Z:
VB Db Db C= NN Z:
VB P7 PH NN Z:
RV NN VB Vp NN Z: J, Vp NN Z: J^ Vp VB RR PS NN RR AU NN Z:
PD Vp RR PH PS NN Z:
Vp VB NN RR AU NN Z:
RR C= NN Vp Db Z:
Vp VB RR NN Z: J, PL Vp NN Z:
AA NN VB P7 Vp J^ Vp VB Z:
RR C= NN VB Vp Vf Db Z: VB Vp RR NN AA NN Z: J^ Vp VB Vf Z:
VB P7 PH AU NN Z:
VB RR PS NN
PS NN Z: NN Z:
