NN NN
AA NN VB Vp NN Z:
PD Vp Dg Z:
Vp VB Db NN Z:
Vp VB AA NN Z: AA NN Z:
Vp VB AA NN Z:
RR NN VB Vp Ca NN Z:
RR PS AA NN VB Vp NN NN J^ NN RR AA NN Z:
RR NN VB Vp AA NN Z:
PS NN Vp PH C= AA NN Z:
NN J^ NN Vp RR NN J^ Vp PH Z:
PD Vp AA NN Z:
PL P7 Vp Z: Vp Z: Vp Z: Vp Z: Vp Z:
Vp PH AA NN J^ Vp Z:
NN VB Vp Dg Z:
PP Vp Db AA Z: J^ Vp P7 PH Db Z:
