J, VB P7 Vp RR AA NN Z: Vp VB PW RR NN J^ NN Z: J, VB Db Vp RR AA NN J^ Vp VB PW NN Z:
J^ Db VB P7 Vp RR PD J, AA NN VB Db AA NN Z: Db AA NN Z: J^ Db J, VB Vp PZ NN Z: Vp VB Db AC Z: J, VB NN J^ AA Z:
Vp VB P7 Z: J, NN VB AC AA NN Z: J^ Db PP Dg NN Z: PD VB Db AA RR PH Z: J, P7 PH VB NN Z: J^ PD VB AA X@ Vf AA NN RR NN Z: J^ AA NN VB Db AA J^ AA Z:
AA NN VB Dg AA NN J^ NN Z: J, RR NN Z:
