Db NN VB RR AA NN Z:
PD VB AA Z: AA Z: AA NN Z:
VB Z: J, NN RR AA NN Vp AA NN RR PS NN Z:
J^ Db PL NN VB Db NN Z: Db J^ NN Z: RR P4 Vc Vp Vf Z:
NN NN RR AA NN VB Dg Z:
Cl RR P5 VB Z: J, VB Vf RR AA NN NN Vf P7 Cl RR AA NN VB Vf AA NN Z: P4 Vp RR PS NN Z:
NN Dg Db VB Z:
VB Dg Vf Z: NN VB AA Z: J^ PW VB Z: J, AA Z:
NN VB AA TT RV NN Z: J^ VB Db NN RR NN Z: P4 Dg VB AA NN RR NN
PQ P7 VB Vp Vc Vf AA J^ Vf RR AA AA NN Z:
NN NN RR NN NN VB Dg Z:
AA AA NN VB NN RR AA NN Z:
VB PL NN Z: P4 Db VB Vf Z:
PD PD VB Z:
