VB Dg J^ VB P7 J, Db RR NN VB NN Z:
VB P7 NN J^ VB P7 NN Z:
VB AA NN J, Vp Vc Vf PP Z:
VB RR NN NN Db J^ VB RR Z: AA Z: Z:
RR NN VB Vf NN Z:
Db VB NN RR Z: NN Z: J^ VB Db RR NN Z:
VB NN Z:
VB RR NN J^ VB Db Z:
VB P7 J^ VB Z:
VB J^ VB AA NN Z:
Db VB RR NN Z: P7 VB RR NN J^ VB Vf Z:
