PP VB RR AA NN Db C= NN Z:
Vp VB RR NN NN J, NN Db AA J, RR NN Z:
VB PH NN NN Z:
RR NN NN Db AA J^ Z: J, VB RR NN Z: VB NN Z:
VB RR NN RR AA NN Z:
VB RR P5 AA Z:
J, VB NN Z: VB AA Z:
RR PH Vp NN J, NN VB NN RR NN Z:
RR NN VB NN TT RR NN Z:
