NN Vp Dg Db Z:
Db NN Vp RR C= Z:
RR C= NN Vp J^ Vp NN Z: J^ NN NN Z:
RR C= NN Vp RR NN Z:
RR C= Vp RR NN Z:
RR C= Vp AA Z:
NN Vp P7 RR NN Z:
RR C= RR C= Vp J^ Vp NN Z:
RR C= Vp NN Z:
NN Vp NN J^ NN Z:
RR C= Vp P7 RR NN Z:
PD Vp NN RR AA NN Z:
NN Vp RR NN RR NN Z: J, VB NN Vf Db Z:
NN Vp RR NN RR P8 NN Z:
Db Vp RR NN J^ Vp Z: Vp NN J^ Vp Z:
Vp RR NN RR P8 NN NN Z: P4 Vp RR P5 Z:
NN VB NN NN Z:
Vp PP RR NN RR NN Z:
NN Vp NN RR NN RR PL Z:
AA RR NN Z:
Vp RR NN RR C= NN Z:
PD Vp AA NN Z: J, NN Vp AA Z:
Db Vp RR NN J^ NN Z:
Vp NN J^ Vp AA NN Z:
NN Vp RR NN Z:
PP VB AA J^ AA NN Z:
