NN Z: VB PP RR NN Z:
Z: RR NN PP VB Vf Db PL Z:
AA NN NN Db VB PD NN Z:
VB J, NN Vp Vc Vf RR NN Z: Z: Dg J, NN Db Vp AA NN Z: PP Vp NN Z: NN Db Z:
PD VB J, NN Db Vp Vf NN Z: J^ PD Z: PQ VB Vf J, NN Z: Z: J^ VB J, J, RR NN VB NN Z: PP VB Vf NN J^ PD VB AA NN NN Db RR PL Z:
NN NN Db VB P8 NN Z:
Db NN VB Dg NN J^ PP Dg VB J^ J^ PP VB Ca NN RR P8 NN Z:
