PS NN Z:
PS NN P7 VB NN Z:
VB PD AA NN NN Z:
VB Ca AA NN Z:
Db RR NN VB NN AA NN Z: NN C= Z: Z: Db VB NN Z: NN J^ NN Z:
Db Ca NN J^ AA NN Z:
NN VB Db AA NN Z:
Ca NN RR NN J^ NN Z:
NN VB RR NN RR NN J^ NN Z:
