AA NN
VB PH RR NN Z:
PP Db C= NN Z:
VB J, VB PP X@ C= NN Z:
VB PH PL AA RR NN Z:
Vi Z: J^ VB Z: J, VB Db AA J^ J^ VB Vf Z:
VB NN TT X@ NN J^ PW VB Vf J^ Vf Z:
J^ PS NN PH Vp Z:
VB J, AA NN Db VB AA J^ VB P7 Vf Db J^ Vf Db Cv TT RV PP Z:
VB J, AA NN VB AA NN RR Vs Z:
VB RR PS NN Z:
PS NN
NN
