AA NN VB Vp Z: J, VB Vf RR AA NN Z: J^ Db VB Db Vp Z:
Vp Db Dg RR PH Vf AA NN Z: Vf P7 RR AA NN Z: RR AA NN Z: AA NN NN J^ Db Dg Vf Dg RR AA NN Z:
Cl RR AA NN Z: P4 Vp NN RR PS NN Z: Vp NN NN AA NN J^ Db PS NN Z:
Z: Db RR PH Z: NN NN P7 VB TT NN J^ NN Z: Db RR PH NN RR AA NN VB TT NN Z: J^ PZ Db Dg J, PD Z:
RR NN P8 NN Db VB Vp AA NN Z: Vp VB Ca NN Z: Db RR NN Z: NN Z: NN Z: NN Z: NN Z: J^ J, PZ RR P5 Vp Dg Z: NN Vp NN Z: RR P4 VB P7 Vp Vf Z:
Db NN VB PP NN NN AA AA NN Z: NN J^ NN AA NN Z:
TT Db VB NN RV NN Db Z:
PD NN P7 Db VB NN NN Z: NN J^ Db Z: NN Z: AA NN Z:
J^ Db VB Z: J, Cr NN RR AA NN VB Db AA Z: J, NN RR AA NN RR Ca AA NN VB PD AA Z:
RR NN P8 NN Db Z: Vp Vc Vf Db Db J^ Vf PH Z: J^ Vf P8 NN Db Z: RR NN Z:
J^ Db TT Z:
VB Z: J, VB PD AA NN Z:
J, NN J^ AA NN Vp Z: Db Vp Vc Dg NN Z:
J^ Db VB Vp P4 PD VB NN Z: Db VB NN Z: J^ Db TT Z: VB P7 AA NN Z:
