AA NN VB Vp NN Z:
RR NN Db VB Vp Z: Vp VB Z: J, VB RR NN Z: J^ Vp PH NN J^ RR NN Z:
Db VB Vp NN AA NN J^ AA NN Z:
Db VB Z:
TT VB Vp Z:
Db VB Vp Z: Vp RR PW NN Z:
Vp VB RR NN Z: J^ Vp RR AA NN RR NN Z:
