AA NN Z:
VB P7 RR NN Z: J^ VB Vf J, VB AA NN Z:
J^ AA Z: NN J^ PL AA Z:
RR Vf NN VB Db J^ VB RR NN Z:
VB AA NN Z: J^ AA NN Z: VB Db RR NN Z:
Db VB Vf P7 RR PD Z:
Vp Vc Vf Db PL VB Z: PK VB J^ Db Vp Z:
VB RR PS NN Z:
NN Z:
