C= Db VB Vp AA NN Z:
C= Vp VB RR NN RR PS NN Z:
C= Vp VB Ca NN X@ Vp NN Z:
C= Vp VB RR NN J, TT Vp NN RR NN Z:
C= Db VB Vp RR AA NN RR NN Z:
C= Vp VB NN RR PS NN Z:
C= Vp VB P7 NN Z: Z:
C= Db Vp NN J^ NN RR PS NN Z:
C= PP VB Vp NN Z: Vp NN J^ Vp RR NN Z:
C= Db PS NN Vp RR NN Z:
C= PP VB Vp AA J, NN Z:
C= TT VB Vp Dg Z:
C= Vp VB NN C= NN Z:
C= Db VB Vp Db AA Z:
C= PS NN Vp Db AA Z:
