NN J^ NN NN RR NN
RR NN VB Vp RR NN Z: P4 VB NN Z: AA NN RR PS NN NN Z:
J^ VB Vp J^ Vp Vf RR NN Z:
NN RR NN VB PH Cl NN VB NN Z: Cr VB NN Z:
J^ VB NN RR NN Z:
VB NN TT RR C= NN Z: J^ NN VB RR NN Z:
VB PD Db Vf Z:
VB Z: J, RR P8 NN VB Vf RR NN NN Z: J, Db PD VB Db Db Z: J^ VB J^ P8 NN Z: J^ NN NN Z:
