PS AA NN
AA NN VB Db Vp RR NN RR AU NN Z:
NN Vp AA J^ AA Z:
Vp Db J^ X@ AA NN Z:
Db VB Vp NN C= RR NN Dg RR NN Z:
Db VB P7 Vp RR AA NN Z:
VB Vp RR NN Z: RR Z: NN Z: Vp P7 Db Z:
Db NN NN J^ Vp NN Z: Vp RR NN Db Dg Z:
NN VB NN NN Z:
NN RR NN J^ AA NN Z:
RR NN VB P7 Vp Db RR NN Z:
NN Z: Vp NN NN J^ Vp NN Z:
Vp VB RR NN Z:
Db RR Vp Vp AA Z:
