VB P7 NN Z:
VB RR NN Z:
PS NN VB NN Z: NN Z: AA NN Z: PS NN J^ PP Z:
PS NN P7 VB NN Z:
VB AA NN J^ NN J^ AC VB NN Z:
VB AA J^ Db AA Z:
PS NN P7 VB NN Z:
VB J, X@ Z:
VB AA Z: AA J^ AA Z:
VB PS NN Z:
AC P7 VB RR NN Z:
PS AA NN P7 VB NN Z:
VB NN J^ VB NN Z:
VB AA Z: AA J^ Db RV PP VB Z:
VB AC NN J^ NN Z:
PS NN P7 VB NN Z:
VB NN Dg J, PP J^ VB AA NN Z:
VB AA Z: AA J^ AA Z:
VB AC NN J^ NN Z:
PD VB AA PS NN Z:
