RR NN C= Z: NN C=
AA NN Z:
VB J^ RR NN Z:
Vi Z: RV VB Dg Vp Z:
Db VB Ca NN J, VB Vf Dg Dg J^ Vf P7 RR NN AA NN Z:
NN VB Db AA NN Z:
VB Db AA AA NN Z: AA NN J^ AA NN Z:
VB P7 PH Dg NN RR NN J^ AA NN Z:
VB AC Db AA NN Z:
VB Z: J, AA NN VB RR NN Z:
VB Z: J, VB RR NN RR NN Z:
VB Z: J, PP VB NN RR Cl NN Z:
Vp Vc Vf RR NN RR NN Z:
Db VB Vf Z:
VB P7 Z: J, Db Db VB Db Z:
VB RR PS NN Z:
