AA NN Z:
Db PP VB RR NN Z:
VB PP AA NN Z: PL AA Z: AA J^ AA Z:
J^ Db AA Z: Dg AC J^ Db AA NN RR PP Z:
J^ PP VB PZ NN Z:
TT Z: VB AA NN RR NN Z: J^ VB Vf RR NN Z:
RR NN VB Vf NN RR NN J^ VB Vf PL Z: PQ VB Vp AA NN Z:
J^ VB PH Vf PZ AA Z:
RR NN Db VB Vf NN J^ AA NN VB AA Z:
VB P7 Vf RR NN RR NN Z:
VB PP PS NN Z: VB Vf NN J^ NN RR NN Z:
J^ RR NN VB Vf RR NN Z:
VB Z: J, Db VB Db Dg Z:
Vi PQ VB Z:
AA NN
NN
