VB AC J, NN VB AA Z: J^ VB AA NN Z: J, P7 RR P5 VB AA J^ J, PH VB AC Z: PD Cv J, PP AA Z:
VB Z: J, PD VB Z:
VB AC PS NN J^ VB Db TT AA Z: J^ VB Z: J, NN NN J, VB AA Z:
VB Z: J, PP VB J, VB AA Z:
J^ Z: VB Z: J, VB Db Dg Z: NN TT PD Vf Z:
J, NN Db VB TT AA Z:
VB AA NN Z: VB NN J^ Db VB NN J^ VB NN Z:
VB Dg Z: J, PP VB Vf NN Z:
VB Vf PQ PP VB J^ VB Vf AA NN Z: RR PW VB NN J^ Dg VB NN RR NN Z:
VB PD TT Dg Z:
