VB RR AA Z: J^ AA NN Z: P4 P7 VB NN Z:
VB Ca AA NN Z: P4 Vp Db RR PP J^ NN Z:
J^ Vp Vc Vf RR AA NN Z: P4 Vp RV C= NN Z:
PS NN VB NN NN Z: Db AA J^ X@ NN RV P8 NN Z:
PP Vp NN NN NN Z: NN NN Z: AA NN Vp RV NN Z: Db Ca P7 Vp Z:
NN Vp NN Z: Vp NN Z: NN Z: NN Z: NN Z: NN Z:
Vp C= NN J^ Vp Ca AA NN RR NN J^ NN Z:
Cr NN Z:
Z: NN NN J^ NN AA NN Z: Z: Db Vp RR NN Z: NN NN Z: J^ Vp Db NN RR NN Z:
Vp NN AA AA NN NN Z:
RR NN Vp NN Z: J^ Db Vp RR NN Z: Db RR PD NN Vp NN J^ J^ Vp Db RR P5 Z:
Vp Ca RR Cl NN J^ VB J^ Db Db AA NN Z: P4 RR PH VB J, AA NN Z:
