NN RR NN
Vp Vp RR NN J^ Vp VB Vf Z:
NN VB NN Z: Db Z: AA NN J^ AA NN Z:
PD Cr Vp RR AA NN Z:
NN NN Vp PW NN J^ Db NN Z:
J, Vc P7 NN Vp Vc PZ Z: Db Vp Db AA Z:
J^ Db NN Vp RR NN J^ Vp PH J^ PS NN Z:
RR NN Db Cl Z: VB J, AA NN Z:
RR Vp Vf Z:
Db Vp AA J^ Vp PP Cv J, PP VB AA J, NN Vp NN Z:
VB Z: J, PD VB AA NN Z: NN VB PQ Vf Db J, PD VB Vf PS NN J^ VB Vf Vs Z:
J^ VB Vf J^ Vf J, PP VB RR P8 NN Z:
TT J, Vp Vc Vf RR NN RR NN NN PD Vc Vp NN Z:
VB Z: J, PD VB RR NN Z:
