AA J^ AA NN
Db AA NN VB Db Z:
RR C= Z: NN VB NN J^ NN J^ NN NN Z:
PD NN NN VB AA J, Dg J^ VB Db AA NN Z:
VB P7 Z: J, AA NN NN Z: RR P5 P7 AA J, AA NN Z:
RR NN VB PD AA NN NN J^ PD VB AA Z: Db VB Dg NN AA NN Z:
Db NN VB AA NN Z:
Dg Cl Z: Z: TT AA NN NN Z: NN J^ NN Z: J^ Db Cl NN Z:
VB Vf Z: J, PP VB Dg AA Z:
Db RR NN VB NN NN AA NN TT RR AA Cr NN Z:
J, PZ VB PL J^ PP J^ PP VB P8 NN Z: Db VB RR AA NN Z: AA J^ AA Z:
VB AA NN Z: J, VB AA J^ AA NN J^ NN Z:
NN VB Db AA Z:
NN VB AA J^ VB NN J^ PD VB Dg NN Z:
J^ NN VB NN Z: J^ PD VB Db NN Z: J, PD NN VB Vf AA NN Z:
PD Db VB Vf AA NN J^ NN Z: J, NN VB Db RR NN Z:
RR AA NN VB Vf Db Dg NN Z:
PD VB NN J^ NN Z:
Db VB PD NN Vf RR P6 Z: J^ Db VB P7 Vf Z:
PS NN VB AA J^ VB AA NN Z: PK VB AA Z: J^ VB Dg AA NN Z:
VB Z: J, PD VB Db AA J^ AA NN Z: PK J^ Db VB Vf NN J^ Vp Vf NN J^ Db J^ TT Z:
AA NN VB AA NN NN Z: J^ PP VB Z: J, NN VB AA J^ VB Vf Z:
