NN RR P6
VB P7 NN J^ VB RR NN Z:
VB NN J^ NN RR NN RR NN RR NN Z:
Db VB Vp Cr NN NN Db Z:
VB Vf Cr NN RR NN Z:
VB Vf C= NN RR NN RR Dg RR NN Z:
Db VB Vf NN J^ Vf NN Z:
Db VB C= NN Vf RR AA NN Dg NN J, NN J^ NN Z:
VB Z: J, TT VB RR AA NN VB Db Dg Vf Dg J^ Dg Z:
TT VB AA NN Z: Vp Vc Vf Vf J^ Vf NN Z:
VB AC NN RR NN Z: J^ VB P7 Z: J, VB Vf Dg NN RR NN NN Db Z: J^ P7 Db RR NN VB Vf RR NN Z:
VB Db Db AA NN Z:
VB Cl NN Z: P4 P7 VB NN J^ NN Z: VB PP C= J^ C= NN Z:
VB Db NN Z: VB NN Z:
VB J^ AA RF Z: J^ VB AA NN Z:
Db Cl VB NN Z:
PP VB NN J^ NN RR NN RR NN Z:
PS NN P7 VB Z: AA NN Z: J^ TT VB Cl RR AA RR AA NN Z:
VB Dg Vf Z:
Db P7 Cl VB RR NN Z:
PS NN VB NN NN Z: J^ PP Db VB J, NN NN Z: J^ PS AA NN VB NN RR PD NN Z:
RR NN VB Vf Cv AA NN Z: J^ VB Ca AA NN Z:
J^ Dg VB AA Z: AC TT VB J^ VB PW Z:
