NN
NN J^ NN RR PS NN
RR NN VB Dg NN J^ NN J^ VB Z: J, VB Dg Z: J, VB TT RR Cl NN J^ PL RR PD NN Z:
AA VB Vf Z: J, AA NN RR NN VB NN Z: NN Z: C= Z: NN Z: C= Z: NN Z: C= Z: NN C= Z: NN Z: Z: Z: Z: VB NN J^ J^ NN Z: NN Z: VB Db AA J^ Ca NN VB Db VB NN Z:
NN RR PS NN Z:
VB RR AA NN RR NN Db Db NN Z:
VB RR Xx J^ Db VB NN Db Z:
RR AA NN VB AA AA NN Z:
AA NN VB AA AA NN RR NN Z:
RR AA NN P7 VB NN NN Z: Z: VB NN Z: Db AA NN VB RR NN J^ VB NN J, NN Z: NN J^ NN Z:
PD NN VB Vs NN Z:
J^ RR NN AA NN VB Db J^ PP Db PD VB NN Z:
PD VB NN AA NN Z:
J^ NN VB NN Z:
Db AA NN VB Db RR NN Z:
RR NN AA NN Vp RR NN J^ PL NN VB NN Z:
NN VB Vf NN Z: NN J^ Db Db J^ Db AA NN Z:
AA NN VB AA NN NN Z:
AA NN Z: J, PL NN RR NN Db RR NN P7 Vp RR NN NN J^ P7 Vp RR AA NN Z:
J^ NN Db Vp AA AA AA NN Z:
J^ Db Db VB PH Z: J, VB PW NN RR PS NN Z:
Dg Db RR Db AA NN J^ NN RR NN J^ NN VB NN J^ AA AA NN Z: NN Z: NN Z: AA NN Z: NN VB Db NN Z:
