C=
NN RR NN RR PP
NN C= Z: NN NN VB NN RR NN Z:
NN C= Z: NN VB NN J^ NN RR NN Z:
TT NN Vp PD NN Z:
Db VB Cl Z: NN Z: Z: P4 P7 VB J, NN Vp AA AA NN Z:
J^ Ca NN VB AC C= Z: NN Z:
RR AA NN VB NN Z: Dg VB RR NN J^ VB NN RR NN Z: VB Vf Z: NN Z: PP VB Z:
C= Z: J^ C= Z: NN VB NN J^ Dg VB RR AA NN Z: Db Z: AA NN Z: Z:
NN VB TT RR C= Z: NN Z: RR NN Z:
RR NN Dg Db VB Z: VB PZ J^ RR NN P7 VB RR NN Z:
