VB NN Z:
Db Db VB NN NN Z:
Vp VB Z: J, VB NN RR AA Z:
Db VB Vp RR X@ Z:
Vp VB RR P6 NN Z: NN Z: NN Z: J^ NN J^ TT Cl AA NN Z: J^ PD VB Db AA Z: J, Vp PZ NN Z:
Vp VB NN RR NN J^ NN AA Z:
Cl NN P7 PH RR PD Vp Z: J, VB PD AA NN Z:
Vp VB P7 PH Z: J, PD VB NN RR NN Vp Db Z: J, Vp PD Vf Z:
Db VB Vp NN Z:
AA NN P7 Vp Dg J^ Db Db Dg Z:
RR AA P7 PH PD Vp Dg Z:
NN PH Vp Cl NN Z: J^ VB Vp Vf NN Z:
Vp VB NN J, NN Z:
Db Cv RR AA VB Db Dg PS NN Z:
PD Vp AA J^ AA NN RR PH Z:
