NN Z: C= Z: NN C=
NN Z: PS AA NN
PS AA NN VB Db VB Vf C? VB J^ Vf Db Dg Z: PK Cr NN Db Z:
PP PZ J^ Db Db VB RR NN J, Vf PS AA NN Z:
VB Db PW AA Vf J, Vf RR NN RR AA NN J^ Vf NN Z:
Db VB Vf PL RR PS NN J^ PW TT VB PH Z:
VB Db AA J^ AA NN J^ VB RR NN NN J^ NN Z:
VB RR PL PQ PH VB J^ RR NN VB AA Z:
AA VB Z: Db RR Cr VB P7 NN RR NN J^ NN J^ VB PS AA NN Z:
PD VB Db AA NN Z:
VB P7 RR NN RR J^ J^ VB RR NN Z: RR NN J^ Db VB P7 RR NN Z:
VB Db Z: VB P7 RR PW J^ VB Vf Dg Z: J, NN VB Db AA J^ NN NN Db VB NN Z: J, VB NN J^ Db VB Z: Db VB AA NN J^ PD VB AA NN Z:
VB PQ NN Vp Vf J^ VB NN J, AA NN Z:
RR NN VB RR NN RR NN J^ Db VB PZ AA RR NN J^ VB Db NN Z:
VB NN J^ VB P7 RR NN Z:
VB Db NN J^ VB P7 NN RR NN J^ NN Z:
VB Db Db J^ VB NN Db Z:
VB Dg RR NN Z: TT NN J^ NN J^ NN Z:
VB Vf RR Cn Z: J, RR NN VB Dg NN Z:
Db PS AA NN VB PH Vf NN RR AA NN Z:
J^ PD VB AA Z: J, VB Db NN Z: Db Db VB Vf PL Z: VB RR NN J^ VB P7 RR NN
