RV NN J, VB RR NN VB Vf RR NN J, NN VB X@ C? VB Z:
J^ TT Db NN VB PP J, VB Vf Z:
VB Vf J, RR AA NN Z: Vf J^ P7 Vf Z:
J, VB Cv Vp RR AA NN PD Vp RR PH NN J, NN Vf PS NN Db VB Vp Z:
J^ Db NN VB AA Z:
J^ Db VB P7 PH J, VB AA J, Cv J^ VB AA Z: VB Z: RV NN Z: PD VB Z: J, RR NN Z:
Db VB AA Z: Db VB Z:
