PD VB NN Z:
Dg VB NN Cl Db NN J, P7 Vf RR NN Z: RR NN J^ RR PQ NN VB Z:
Dg Vp RR NN Z: J^ Db P7 VB Z:
PD NN NN AA NN Z: J, VB P7 RR PQ P7 VB Z:
VB RR NN RR NN NN NN NN Z: Db NN RR NN VB RR P5 TT AA NN Z:
VB Db P8 NN Z: P4 VB RR P5 Z: J^ Db NN PS NN Z:
Db VB Vf Db NN VB Z: J, VB PS NN Z: PS NN J^ NN Z:
PD NN VB Db PZ NN Z: J^ PD VB Db Z: J, VB Db NN PS NN Z: J^ J^ Z: J, NN VB NN RR P5 Z: J, VB RR NN Z:
PD VB AA NN Z: TT J, PS Z: J^ VB Dg Z:
VB NN J^ NN NN Dg J^ VB PQ VB RR NN Z:
