AA NN J^ P8 NN Vp RR C= NN RR NN Z:
Vp RR NN RR NN Z:
NN NN Vp RR NN Z:
Db Vp RR NN P4 X@ VB Vf Z:
J^ RR C= NN Db Vp Db Z:
J^ NN Vp Z:
Z: Vi RR PH Z:
VB P7 Db Z:
TT VB Vf Z: Db VB NN Z: Z:
NN Vp RR NN J^ Vp PS NN J^ NN NN Z: J, AA NN Vp NN RR NN Z:
J, NN P7 Vp Z: NN Vp Db Z:
