VB J, Dg NN Vp RR AA Cl NN Z:
RR PH PD VB Dg Z:
Db Dg NN Vp J^ VB NN RR Vf NN Z:
Db Db PD VB NN Z:
J^ VB PD VB AA J, NN J^ NN Vf Z:
Db RR NN Z: VB J^ PS NN Vf NN Z:
VB Cl NN Z:
PS NN Db Z:
VB NN J^ VB J, PS NN Z:
NN Vp AA J^ Db VB J, Vp J, PD VB NN TT RR NN Z:
VB Vf VB PL J^ VB Vf PS AA NN Z:
J^ TT VB Db Dg NN Z:
Db NN VB J, NN VB Vf Dg NN J, NN Z:
Db Z: NN Z: RV NN J^ Db Dg RR AA NN Z:
VB Vf J, RR NN VB Db Db Dg NN Dg Z: AA NN Z: AA X@ Z: NN AA NN Db Z:
RR NN VB Db AA J^ Dg VB Z:
J^ Cl NN VB Vf Z:
PD VB Db NN P4 VB AA Z:
