NN VB PD J, P7 VB Vf Z:
Vi Db NN Z:
AA NN P7 VB Z: J, AA NN VB J^ VB NN Z: J, VB PD PS NN J^ PD NN VB NN Z:
NN VB Z: J, RR Cn Cl NN VB Cl AA NN Z: P4 VB RV Dg AA NN AA NN Z: P4 Vc Vp Dg Vf PS NN Z:
PD AA NN Z: Vi PH NN Z: VB RV P8 AA NN Dg Vf AA NN RR NN Z:
Db PH PW VB Z: VB P7 Vf RR NN J, RR AU NN Z:
Vp NN Z: PL AA NN RR NN VB Db RR NN Z:
NN P7 RR NN VB RR NN NN Z:
J^ P7 PS NN Db Vp Db Z: Db Dg P7 Vp NN J^ Vp P7 RR AA NN Z:
VB P7 NN PD AA NN RV P8 AA NN Z:
AA NN VB RR P5 NN NN AA NN Z:
AA NN VB NN J^ NN Z: NN J^ NN Z: NN J^ NN Z:
Z: VB Z: VB Db AA NN Z:
PL P7 PH VB PL Z:
RR AA NN P7 Vp AA NN Z:
NN Vp J^ VB PZ AA NN Z: P4 PP VB Z: J, Vp J^ Vp Z: Vp J^ Vp Z: Vp J^ Vp Z: Vp J^ Z: RR NN Z:
RR NN VB PD J^ AA NN Z:
VB J, NN J^ AA NN NN VB RR P5 Db Z: PL P7 Dg VB Z:
TT Z:
RR PD Z: NN VB Dg NN RR AA NN Z:
J^ VB NN Z: PQ Vc Vp RR PD NN Vf Z:
RR NN VB AA NN Z: VB Db NN RR NN Z:
NN VB Dg Z:
