PS NN VB AA Z:
VB Cl NN Z:
PP VB P7 NN Z: VB Cn NN J^ VB NN RR NN RR NN Z:
PP VB NN J^ AA Z:
PP VB Db AA Z:
PP VB P7 P7 Vf Z:
PS NN VB P7 NN Z:
PP VB NN Z:
PP VB P7 Vf NN Z:
VB NN J^ NN Z:
PP VB Db AA J^ AA Z:
PP VB Db AA NN Z:
PS NN VB P7 NN Z:
PP VB RR NN Z:
PP VB Db AA J^ Db AA Z:
VB Cl NN J^ Cl NN Z:
VB Db Cl NN Z:
PP VB Db Dg Z:
