NN RR NN
Z: AA NN Vp AA NN RR NN
Z: Dg NN Z: AA Z: AA Z: AA Z: AA Z:
Z: NN VB Cl NN VB RR AA NN Z: P4 VB P8 NN Vp RV C= NN Z: J^ J^ AA NN
Z: NN VB RR NN NN J^ VB Db AA RR P8 NN Z:
Z: VB PP Z: J, TT Db VB Z: Vp Vc P7 Vf RR P4 NN Db VB Z: VB Xx Z: Vp P7 NN Db Z: J, NN RR PZ Vp J^ PP P7 Vp Db Db Z:
Z: Db NN Vp RR P8 Db TT PP Cv Db VB RR AA NN Z: J^ VB PH Db NN Z:
Z: Vp NN Dg AA J^ AA NN RR Xx Ca AA NN Z:
