NN J^ PP
VB AC NN Z: J, J, Vp VB RR Z:
Vp VB RR AA AA NN Z:
RR RR Db Dg Z:
NN PP VB AA Z:
NN VB AA NN Z: J^ AA Z:
J, Vp VB PQ AA NN NN RR NN J^ Db RR AA NN Z:
Vp VB PH NN NN Z:
Db RR AU NN VB Dg AA NN Z:
