RR NN NN Z: NN J^ NN C= Db Vp NN NN Z: NN J^ NN C= Z:
Co VB Vp RR NN Z: Db VB Z:
Dg Z: J, PZ Vp J^ Vp NN Z: NN VB Vf RR C= NN Z:
J, NN AC VB NN Z: P4 P7 Vp RR NN Z: Db Dg VB Z:
J^ Cv RR NN VB Z:
J, PZ P7 Vp Z: P4 VB NN NN NN Z: Db J^ NN Z:
Cl NN Z:
AA Z:
VB RR NN Z: J, Db VB PW NN Z:
VB RR NN Z:
VB Z: J, VB AA Z: J, Vp Dg NN NN Z: NN J^ Db Z:
AA NN VB AA Z: J^ J, NN VB Dg RR AA NN Z:
PQ PP VB Z: J^ AA NN Db VB Z: Z: Dg Vp Db Z: Dg VB Vp Vs Z: Db J^ RR C? NN VB NN Z: J, PP Vp NN Dg Z:
J, Cr NN VB Z: VB PP Vf Cv Z: J^ Db PP VB Vf Db Z: Db VB Db Z:
NN Vp Z: J, VB Vp Vf Db RR Cr NN Z:
Vp VB RR NN RR AA NN Z:
TT Z: PW Z:
Db Db VB Vp NN RR NN NN Z: RR PD VB NN Z: J, PH Vp NN Cv J^ Vp VB Db J^ VB Vf RR NN RR NN Z:
Db Dg Z:
VB RR NN Z:
VB Cl NN RR NN NN Z:
Vp VB Db RR NN Cr Z:
Vp Ca NN RV PP Z:
TT Vp Cn J^ Cn Z:
Vp VB NN J, VB Vp NN Z:
NN RV NN Vp Vf Z: J, Vp NN J, NN NN Z:
Cl AA NN RR PP Co Vp NN AA Z:
PZ Vp Z: J, Z: PD VB NN Z: Z: Z:
AA NN Vp NN Z:
NN Vp PQ Vf Z:
J^ Cl RV NN Vp Z: Z: VB Vf AA NN Z: J, Vp Db Dg Z: VB PP Z: Z:
Cl NN RR NN Z: Z: VB Z:
PD Vp NN RV AA NN Z: J, TT Cl NN Z: Z:
TT Z: VB P7 PW Vf Z:
Vp NN Vf AA NN Z:
VB Vf Z:
VB Vf RR NN Z:
Cl NN Vp Z: J, PP Vp NN Z:
J^ Dg Z:
NN P7 VB Z:
PQ J, Vp PS NN Z:
Vp J^ Db VB NN Z:
PP P7 Db VB Db Z:
NN Vp J^ Vp Z:
PZ Vp Vf Dg J^ Vp Z:
Vp Cl NN Z:
Db Vp RR NN J^ Vp Z: Z: PP TT RR NN Z: Z:
PP PL Vp Z: Z: J^ PP Db Z: Z:
NN RR PP Vp Z: Z: PP VB Vp Db Db NN Z: Z:
Db Vp PP Z: J, Vp P7 Vf RR NN RR NN Z:
Dg Z:
VB RR NN Z:
Dg Z:
Vp VB NN Z:
Vp VB Db J^ Vp VB Vf NN Z:
VB Z: Db RR AA NN VB Cl NN Z:
J^ J^ NN Vp Db Z: J, Z: Z: Z: Z: NN J^ VB Vs RR NN NN RR AA NN Z: VB Z: TT RR NN Z:
J, NN VB Vs J^ VB AA NN Z: Vi J^ Vi AA NN RV NN Z: Z: NN NN Z:
VB Vf Db AA Z:
VB Vf AC Z: Vi NN NN RV NN Z: Z:
NN Z:
Vp VB Db Dg Z:
Db VB J^ Dg VB NN Z:
VB Vf Db Z:
VB AA Z:
