PP J^ NN
Z: VB Vf Z: VB Z: J, VB Vf Z: J, VB Z: X@ NN VB AA NN PS NN Z:
AC J^ Dg VB Z:
Vp Vc RR AA NN Z: Db VB Vp NN Z:
VB NN NN J^ NN Z:
AC VB NN RR NN NN NN J^ NN NN Z:
RR Db RR NN NN RR NN Z:
Db NN RR NN NN Z: X@ NN J^ NN X@ Z:
Db VB AC AA PD P7 TT VB AC RR NN Z: J^ Db VB TT Db Z:
Db VB Db Dg J^ Db VB Z:
RV Db VB AC RR NN Z:
AA NN Z: Vp RR PW Z:
Dg VB AA NN Z:
VB Z: J, AC VB Vf AA NN J^ J^ AC VB Z: Db Z: RR AA NN Z: J^ PD VB AA RR AA NN Z:
Db AA NN VB AA NN Vf NN AA Z:
J, NN VB Dg NN Z: Db VB Db Db AA NN J^ Db VB Db Vp NN NN J^ NN NN Z:
