AA NN Z:
Db PH Vp NN J^ Vp J, Z: VB RR C= NN NN Z: J^ VB PD NN RR AU NN Z: J^ NN P4 VB RV PP VB RR NN RV NN NN Z: J, VB Vp J, Z: VB RV NN C= Z: Z: J^ Db PP VB Z:
J^ Db VB Db RR AU NN Z:
AG PH Vp J, Z: VB Vf J, Vp NN Z:
Dg VB P7 Vp J^ Vp VB RV NN Z: Vp VB NN Z:
J^ Vp VB P7 Vf PS NN Z:
Vp VB C= Z: NN J, VB P7 Vp RR NN RV P4 P7 VB AU NN J^ NN AA NN Z: Db VB Vp Vf Db RR NN C= Z: NN J^ Db C= NN J, VB P7 Vp RR NN NN Z:
Db VB Vp Db J, Vp RR NN Z:
J^ Db PH Db Vp NN J^ Vp PH Z:
NN VB RR NN RR NN J^ PP VB PH Vp Z:
Db PD Z:
Vp VB PH J, Z: TT VB RR P5 RR NN J^ Db VB Db Db Z:
PP PH Vp VB Vf RR P5 Z: J, VB PW AA P4 Vc RR P5 Vp Z: Vp VB Z:
Db TT Z:
Vp VB C= Z: Z: J, VB P7 Vp RR NN Z:
Vp VB Dg AA Z: J, VB Vi J^ VB PW NN Z: NN Vp Db NN RR NN Z: J, PH Db Vp NN J^ Vp PH Z:
NN VB Vf RR PD NN RR NN RR NN J^ Db VB Cl NN J^ Db P7 VB RR NN J^ VB Db NN J^ Db VB Db Db RR NN Z:
PP VB PH Vp Z: NN AG Z:
PP VB PW AA NN J^ Db VB Db Vp Z:
J^ Db VB Vp Db RR NN P4 Vp RR NN NN Z:
Vp VB Cr NN Db RR NN J^ Dg VB P7 Vp RR PS NN RR NN J^ Vp VB Vf Z: PD Vp AA Cl NN Z: RR P4 VB Db Vp J^ Vp VB NN J^ NN TT C= Z: Z: Z: J^ PP VB Vp RR NN AA NN Z: J, VB Vp Z: J, PD Vp RR PH PD AA J^ AA NN Z: Db J, Db VB RR PD NN Vf Z:
