Z: NN Z: RR Z: RR II Z: Z: Vp NN AG RR NN Z: J, VB J^ NN Z: Z: PQ P7 Vp Z:
PS NN J^ Z: PP Z: VB PH NN Z:
J^ NN Z:
PQ VB PD Z:
Dg PD VB NN Z:
VB P7 NN Z:
AA NN Z: AA NN Z: AA NN Z: AA NN Z:
PL AA Z: Z: NN Vp VB RR NN Db Vp NN Z:
Z: PQ P7 RR PP Vp NN Z:
Z: J^ Vp PW Vp Z: Vf VB Z:
TT Db VB AA NN Z:
VB X@ NN Z: Vi NN Z: J^ Db AA NN Z:
Db VB Vf RR PP RR NN J^ Db VB Vf PQ VB Vf Dg Z:
