AA NN
NN Vp NN Z: NN Z: NN Z: Z:
Db P7 Vp NN Z: NN RR NN Z: Z:
Vp RR P5 Vs Z: J, NN PP P7 Vf Vf Db Dg J^ AA VB AA NN Z: PZ VB P7 Vf TT RR Xx J^ Dg Z: NN Vp NN X@ NN Z:
Vp RR P5 Vf NN Z: NN Z: NN Z: Db NN Z:
NN J^ Vp Z:
Vp Db Z: TT Z: Z:
NN Vp NN Z: AG NN Z: Db Vp Vs Z: J, Vf NN Z:
Db Vp Vf TT Z: NN Z: Z:
J^ NN Db Vp Z:
VB AA Z: J, Vp NN TT Z: Db Vp PL Z:
Db NN Vp NN Vf Z: J^ NN Vp Vf PS Z: J, Dg RR NN PW Vp Z: J^ RR NN Db Vp Z:
