NN
Cz VB Db Z:
C= Z: C= Z:
Z: Db VB Cr NN Z:
NN VB NN NN Z:
NN NN NN AA NN NN RR NN NN NN NN NN NN Z:
C= Z: NN
PP J^ PS NN
NN NN VB C= NN Z:
PP VB Cl NN Z:
PP VB NN Z:
Dg NN VB NN Z:
VB VB NN Z: J^ NN Z:
NN NN NN VB NN Z: VB C= NN Z: Ca NN NN VB NN Z: VB C= NN Z: PS NN X@ VB J^ NN Z: VB C= NN Z: PS NN VB NN Z:
AA NN VB NN Z:
NN Db Vf RR NN Z:
NN J^ RR NN NN Z: VB NN Z: VB NN NN VB NN Z:
NN Z: Dg Vf NN Z:
NN Z: Db VB RR NN Z: NN Z:
