PZ RR NN AA NN VB NN Z:
AC Vc Vp PZ RR NN Z: J^ RR AA NN J^ NN VB Vf Z:
Dg RR NN VB PP PD AA NN RR NN Z:
Db VB RR NN PZ AA NN NN C= Z:
NN VB Cl RR AA NN RR NN Z:
VB P7 RR PP Z: J, VB RR C= Z: NN Z:
Db VB Z: J, VB RR C= Z: NN RR NN Z: NN J^ NN Z:
P8 NN Db C= NN Z:
VB Db NN NN Z:
VB Dg J, C= NN NN Z:
AA Cr NN RR NN VB RR NN Z:
NN NN VB C= RR C= NN Z:
AA NN VB AA NN Z: RR C= Z: RR AA NN VB RR C= Z:
VB RR NN C= NN Z:
AA NN VB NN Z:
Db P7 VB RR PZ NN Z:
C= Z: NN Z: C= Z:
PQ P7 Vp PD NN Z:
NN Z: P4 Vp Dg C= NN Z:
Db VB PZ Z: PQ VB Z:
RR Ca NN NN Z: Db Vp Vs RR Dg Z:
Cl NN RR NN Z: PD VB AA NN Z: Vp RR NN RR Cl NN J^ Vp Z: J, NN VB Db AA Z: J^ AA NN Db VB Z:
PP PP VB Z: Db VB PD NN Z:
VB C= NN Dg RR AA NN Z:
VB Z: Db VB J, NN Z:
C= NN Z: C= X@ Z:
PD VB NN RR AA NN J^ AA NN Z:
RR NN NN Vp Vf NN Z: J, Vp Z:
Cl NN Vp RR NN C= NN J^ Db Vp RR AA NN J^ Vp PD C= Z:
Cl NN VB NN AA NN Z:
Vp Z: J, AA NN VB C= NN Z:
Vp P8 NN Z: J, NN Vp Dg C= NN Z:
Db AA NN Vp NN RR NN RR NN J^ RR NN Z:
PZ PH Vp Z: Z: Vp Vc Vf Dg Z:
PZ NN VB AA Z: J^ Vp RR Cv Dg J, PP Z: Z:
Vp Z: J, Cl NN VB Ca Z:
NN VB Db Dg RR PP Z: J, VB RR AA NN Vf Dg Z:
RR PS NN NN Vp Z:
PD P7 Vp Vf RR NN Z: J, Vc Vp Db Vf Z:
VB Vf P4 VB AA NN J^ NN Z:
Vs J^ NN Db Vp AA NN RR NN Z:
Db Vp Z: Z: NN Z:
Vi Db Z:
Dg PH Vi Z:
VB NN NN Z: Z:
PD VB NN Z:
PQ NN Z:
RR C= NN NN Vp AA NN RR NN Z:
Vp PH AA NN J^ NN Z:
J, Vp RR PD NN Z:
AA NN VB C= NN NN Z:
PS NN Vp Z: J, VB Ca NN RR Cl NN Z: J, RR AA NN Vp Z:
Cr NN Z: C= Z: NN C= Z: NN C= NN AA NN Vp AA NN Z:
C= NN NN Vp AA NN Z:
PL VB Z: J, NN VB AA Z:
AA NN PP Vp Z: J, PD P7 Vp NN TT RR NN Z:
J^ RR NN Db PW Vp Z:
VB PZ NN Z:
TT Z: VB Z:
RR NN C= NN P7 Cv Vp NN RR NN Z:
Vp Db Cl Vp Z: J^ RR NN Vp C= Z:
RR PD Cl Z: RR NN Vp Db Cl NN Z: Cl NN Z: Cl NN RR AA NN Z:
VB Db Z:
J, Vp Z: J, AA NN Db Vp Z:
Db Vp RR NN Dg J, C= NN NN Z:
RR NN C= Z: AA AA AA NN P7 Vp NN RR NN Z:
Vp Dg NN Z: C= NN Z: J^ Vp Db Dg Z: RR Cn NN Z:
RR NN C= Z: NN Cv Vp NN Z: J, P7 NN NN C= Vp RR NN Z:
Vi P7 Z: VB AA NN Z: RR AA NN Vp TT Cl NN Z:
Dg Vp RR NN Z:
J^ PD NN Z: C= Z: NN Z: C= NN Vp RR AA NN NN Z:
PD NN VB NN NN Z:
RR NN Vp PW NN Z:
Vp Db RR NN Z:
RR PD NN Vp Dg NN Z:
Vp P7 RR NN Z:
C= NN C= NN Db Vp NN NN Z: NN Z: Z:
Vp Db AA NN Z:
VB Cl RR PD NN Z:
Vp PP Cl NN Z:
RR NN C= Vp NN Db Z:
RR NN C= Vp Z: J, C= Z:
NN P7 VB RR NN Z:
Vp NN NN Z: J, P7 Vp NN RR PP Z:
Vp VB Vf Z: J, PP Db VB Vf Z:
RR AA NN Z: J, Db VB NN Z: VB P7 Dg Vf Z:
Db Vc P7 Vp Vf Z: VB Vf PZ RR PS NN J^ RR AA AA NN Z:
RR PS NN J^ VB PW RR AA NN Z:
X@ Z: NN PS NN Z:
VB P7 Z: J, VB AA NN RR NN Z:
J, NN NN VB NN Z: NN II VB NN Z: NN PP VB AA Z:
X@ VB NN NN II Z:
RR NN C= Z: NN Db Vp NN Z:
RR NN C= Vp AA NN NN NN Z:
VB Ca NN NN RR C= NN Db Z:
NN NN VB RR PS NN Z:
VB Cl RR AA NN RR NN Z:
NN NN VB Cl NN Z:
VB Z: Db Cl NN Z:
Vp VB Db NN Z: NN Z: Z:
VB AA NN Z: P4 VB Vf J, AA NN Z:
Db Vp Z:
J, J, Vf NN RR NN Z: NN NN NN VB AA NN NN Z:
NN Vp PD NN Z:
PQ VB NN Z:
NN Z: AA NN Z:
Db Vp NN NN RR AA NN Z:
Vp VB P7 RR NN RR NN J^ Vp VB P7 RR AA NN Z:
PP VB Vp Z: J, VB AA Z:
NN Vp Z:
Db VB Vp Z: J, Vc Vp Vf RR NN Z:
Db NN Vp NN Z: Z: PQ Z:
PD VB Dg Z:
Db RV NN NN NN NN VB Z: J, P7 NN Vp Z:
J, NN NN Vp RR PD NN Db C= NN Z:
VB NN AA Z: NN AA Z: Z: NN Vp Z: J, VB RR PD Z: J, NN VB AA J^ VB Z:
VB RR NN Z:
RR PQ VB NN Z:
J, NN NN Vp P8 NN Z:
NN VB RR NN J^ RR NN J^ NN Z:
PD VB PL Z:
VB RR NN Z:
