AA NN Z:
Cl NN Vp RR NN C= Db Dg X@ Vp Vf AA NN X@ VB NN Z:
Cl AA NN Vp P7 J^ Vp RR RR Vf RR NN C= Z: Vp Z: NN J^ Vp Vf RR PD P7 Db Dg VB RR PD NN Z:
J^ AA P7 Vp PD NN X@ Vp NN Z:
PP Vp Vf NN Vp PD NN Z: NN J^ NN RR NN PP Db Vp RV NN J^ Vp RR NN C= Z: C= Z: Vp P7 NN Z:
PD NN J, Vp PP Z: RR NN RR NN Z:
J^ Vp P7 PP J^ Z:
PP PW TT Vp PH Z:
J^ Db Vp P7 PP C? PP Vp Vf NN Z:
PP Vp PH J, C= Z: J, PP Vp P7 RR AA RR C= RR C= NN Z:
