NN
VB P7 NN Z: Vp VB RR NN C= Z:
Db VB RR NN VB Z: NN AA VB P8 NN Z:
PS NN P7 VB NN J^ PP C= NN J^ NN P7 VB NN J^ PP C= NN Z:
VB RR C= Z: J^ Z: RV NN AC P7 VB TT Db Z: J^ NN Xx PH VB Dg J^ RR PZ NN NN TT Z:
NN VB Db AA J^ Vp Vc Vf RR AA NN Z:
RV NN PH Dg VB NN J^ VB Db AC NN J^ AA NN Z:
