PQ VB RR PH RR NN AA Z:
RR PH RR AA NN AA VB NN Z: RR P4 Db VB J^ Db PD P4 VB RR NN Vf Z:
AA NN VB RR P8 NN Vf NN P4 PP VB Vf Z:
Cl RR PS PD NN VB Vf PS NN PL Z: J, Vp PL Db Z:
RR AA NN VB Vf AA NN Z: TT Cl Z: Db Cl NN Z:
VB PD VB AA Z:
VB J, PS AA NN VB Vf Dg PP Z: J, VB RR P5 Dg Vf Z:
J, VB RR NN VB P7 Vf AA NN J^ AA NN Z:
Vf AA NN J^ NN Z:
Db PL VB Vf AA J^ AA NN Z:
