VB PP P7 NN Z:
VB RR NN Z:
NN VB NN Z:
NN VB NN Z:
Db VB RR NN Z: VB AA NN Z: J^ VB C= NN C= NN Z:
VB RR NN NN VB C= NN Z:
PS NN VB NN Z:
VB AC NN J^ NN Z:
VB P7 Vf Dg Dg J^ NN NN Z:
J, RR NN Dg VB NN Z: Db AC NN J^ VB P7 Db II RR NN Z:
