Db VB NN AA NN Z:
J, VB Vp RR NN J^ Vp AA NN Z: RR NN VB Vp AA NN Z:
Db Cl NN Z: RR NN J^ RR NN Z: Db TT Cl NN Z: RR NN Z:
J, VB Vp Dg AA NN Z: Vp VB AA NN RR NN Z: J^ Db RR NN RR NN Z: P4 VB Vp Vf Z: J, VB Vp Ca NN AA NN Z:
VB Z: J, Dg NN RR NN Z: P4 VB NN J^ VB PL Z: VB J, PP Z:
J, VB NN Z: TT VB Z: J, VB Db NN Z: VB RR NN Z: RR NN Z: J^ NN RR NN J^ RR NN Z:
PP Db VB Ca NN Z:
TT RR NN J^ Db Db RR NN Z:
RR PH PD VB AA Z: J, VB Vf RR NN RR NN Z: J^ Db VB Vf RR NN Dg Dg J, Dg Z:
VB P7 Db Vf Z: J, PL NN VB J, PP Z:
VB Z: J, PP VB Db AA Z:
