Db VB AC NN Z:
Db VB Cv RR NN Z:
Vp VB Db Z: J, P7 Vp J, NN NN RR NN AU RR NN Z:
Cl NN VB Db RR NN Z: J^ VB Z: J, VB PD Db Dg Z: J, Vp Vf Z: J, P7 PH NN Db VB Z:
PD VB NN Z: J, NN Vp Z: J, NN VB NN NN Z:
NN Z: P4 VB PD NN P7 PH Dg VB Z:
VB AC AA NN Z: NN NN Z: AA NN J^ AA AA NN RR NN Z:
Db NN VB Vf AA J^ AA NN Z:
RR NN VB Db AA AA NN Z:
AC VB RR NN Z: NN J^ NN Z:
VB AA Z: J, VB Db RR NN AA NN Ca AA NN Z:
PP VB Vf J^ AA NN RR NN Z: P4 P7 PH Db VB Z:
TT J^ Z: J, VB AA NN Db AA Z:
NN VB AA AA NN Z:
J, Db VB NN AA J, RR NN Z: PP J, NN VB Ca NN Z:
Db VB Db Db Dg Vs Z: J, NN Db VB NN Z:
NN RR NN PH Db Vp RR NN Z:
Db VB Vp Ca Z:
Vp VB NN Vf AA NN TT RR NN Z:
Vp VB P7 RR Ca AA J^ AA NN Z:
PS NN RR NN Vp AA Z:
PL Z: P4 VB Vp P7 PH Db Vp Z:
VB AA Z: J, Db VB Vf J^ NN RR PD NN Z:
