NN Z: RR NN NN
Vp AA NN RR NN J^ RR NN VB Vp RR NN Z:
Db VB Vp Vf NN Z: J^ VB Vp Db NN J^ J^ VB Vp NN Z:
Db VB P7 Vp RR NN Z: J^ Db VB Vp AA NN J^ Vp VB P7 RR P5 Vf Z: Z: VB P7 Vf Z: Db AA PD NN RR NN PD Vp Z: Z: J^ Db VB Vp NN RR NN Z:
J^ Db PP Vp Z: NN Z:
Vp VB PH Cv J^ PD Vp NN RR Cr NN Z:
Vp VB PZ RR PP Z:
PP VB Vp PS NN Z: Z:
NN Z: RR NN NN
Vp Cl RR PD AA AA NN RR NN J^ PL PH Vp J^ PW PH VB Z:
Vp VB J^ NN RR NN J^ NN RR AA NN J^ Db VB Vp Z: Db PD PL VB RR NN Z:
Vp VB RR NN J^ Db VB Vp PP Z: NN Z:
Db RR NN VB Vp AA NN J^ Dg VB Vp Z: J, PP VB NN PS NN Z:
J^ VB Vp NN Z: Db VB Vp Vf NN RR P5 Z:
RR NN VB Vp PS NN J^ Vp VB NN P7 Vf P7 PP Z:
