C= Z: Vp VB Dg J^ Vp VB Vf RR NN NN NN Db Db Z: Vp VB J^ Vp PS Cr NN Z: Db VB Vp Xx NN Z: Vp VB Db J, Vp PH J^ Vp Z: Vp VB RR NN J^ Vp PS NN Z: J^ Db PH Vp AA AA NN J, PH Db PS NN Z: Vp VB P7 Dg Z: Vp VB J, Z: Db VB PH Vp Z: Db VB Db AA Z:
C= Z:
Vp VB AA AA NN VB RR NN Z: Vp RR PZ Z: Vp VB RR P5 Vf J^ Dg NN RR PH Vp Z: PP Vp Vf J^ Vp PS NN Z: Vp VB J, PD VB PD AA NN J, Vp RR P5 Vf Z: Vp VB J, PP Dg PS NN Z: PP PH Vp RR NN J^ Db VB P7 Vp Db Z: Db VB AA
