NN Z: NN Z:
Db P7 VB Z:
Db VB Vp RR AA AA NN RR AA NN Z:
VB Z: J, RR NN VB Vf NN Z: Vp Vc Vf AA NN RR PP Z:
AA NN VB Db AA NN Z:
Db VB AA NN Z: VB Vf AG NN Z:
AA NN Db Vp J^ AA NN Z: Db NN NN Z: NN NN Z:
VB Z: J, PD VB AA NN Z:
VB RR PS NN Z:
