P4 NN VB NN Z:
RR AA NN NN NN VB AA Z:
RR PH NN VB AA Z: J, AA NN VB AA Z:
VB P7 RR PD RR NN Z:
RR PS NN J, P7 VB NN Db NN VB AA Z:
Db TT VB C= NN Z: Db NN VB Z:
Db NN VB RV NN J^ Db VB NN Z: AA NN Z: X@ Z: AA J^ AA NN Z: Z:
RR NN Db PL P7 VB Z:
RR NN NN VB AA Z: AA Z: AA Z: X@ NN Z:
J^ J, NN VB Dg NN Db NN RR P5 NN VB AA J^ RR NN VB AA Z:
Db NN VB RR PZ J^ NN TT AA Z:
J, NN VB PZ RR NN J^ RR AA NN NN TT AA J^ PD VB Vf Dg Z:
Db PL P7 VB RR NN Z:
