C= Z: VB Vp RR NN Z:
RR NN VB Vp RR NN Z:
Vp VB AA NN Z: J^ Vp VB AA NN Db Dg Z:
PL VB Vp RR Xx NN Z: C= J, Vp VB Db NN C= Z:
J, RR NN VB TT NN Z: Vp Dg Z: J, RR NN AA NN Z:
Vp VB RR AA NN Z:
J, VB P7 Vp NN RR P5 Z: Cr Z: PQ VB Vp Z: Vp AA NN NN Z:
Vp P7 Z: AA VB Vf PZ AA NN Z:
Db Db Vp Dg NN Z: J, Vf NN RR NN Z:
Vf P7 RR NN Vp Dg Z: J^ Vp VB Z:
RR RR X@ NN Vp Vs Z: J^ J^ Vp VB NN Z:
Db X@ Vp AA Z:
Db VB P7 Vp RR NN J^ Vp VB Db Z:
VB Z: J, PD Vp AA AA NN RR NN Db Dg Z:
