NN VB Db C= NN RR NN Z:
NN Vp Vs RR C= X@ Z:
Db VB Vf NN NN NN Z:
Db VB Ca AA AA NN Z: Db AA NN NN J^ AA NN Z:
Db VB AA NN Z: AA RR NN Z: Z:
VB NN RR AA NN Z:
J, VB RR NN RR PZ RR PD NN Z: VB Vf AA NN Z:
Db VB Vf AA NN Z:
PD VB NN Z: RV P4 Vp NN NN Z: NN NN Z: NN NN Z: J^ VB J^ PP Z:
VB NN RR AA NN Z: AG NN Z: Z: VB Db Vf NN AA NN Z: NN AA NN Z:
Db VB Vf NN Z:
J^ Db VB AA AA NN RR AA NN J^ Vf AA AA NN Z: NN Z:
Db VB Vf J^ NN Z: Db VB NN NN RR NN Z: Db VB Vf AA NN Z: Vf AA NN Z: Z: Z: NN NN Z: Z:
Vi Z: J, PD NN Vp AA RR PP Z:
AA NN Z:
