NN Z:
NN Z: VB NN NN Z:
AA RR PP VB AA NN RR NN Z:
AA NN VB P8 AA NN Z:
AA NN VB Dg Vf AA J^ AA NN Z:
RR NN VB NN NN RR NN Z: NN RR X@ Z: NN Z:
VB AA NN Z: AA NN Z:
VB Db AC NN RR NN Z:
VB Db AA Z: J^ PD Db NN Z:
J^ NN Dg Vf NN RR NN AA Z:
NN Z: NN Z:
VB Dg AA NN Z: P4 VB NN PS NN Z:
Db Vs RR NN Z: AA NN Z: AA J, NN Z:
