TT Z:
NN NN Z:
TT NN Z:
VB P7 PH RR PP Z: Z: Z:
Db P7 VB Z:
VB Dg Z:
VB RR NN Z:
VB RR NN Z:
VB NN RR X@ Z:
VB AC PL AA Z:
NN VB Db AA NN Z:
RV AA NN VB RR NN Z:
PS AA VB Z: NN Z: Z:
J^ VB NN RR NN Z:
C= Z: NN VB RR NN Z:
Vi RR PP Z:
RR NN Z: NN Z:
