NN Z:
PD AA NN VB AA Z:
RR NN VB Vp RR AA NN Z: J^ NN Z:
NN Z: AA AA NN Z:
NN VB Vf PL NN RR NN Z:
C= AA NN Z: NN J^ NN Z:
NN C= J^ Dg Z: NN AA Z:
Vp VB RR Dg J^ AA NN Z:
Db VB P7 Vp Vf J^ Vp RR NN Z:
RR PS NN VB P7 Vp Vf J^ Vf RR NN Z:
J^ RR NN NN Z: VB Vp RR NN Z:
