AA NN NN Z:
Db P7 VB Z:
VB P7 Dg Z:
PQ VB Vp RR NN Z:
RV NN J^ RR NN VB PW Vp Z: TT VB Vf J^ Vp VB NN Z:
RR NN VB Vp RR NN RR PS NN RR NN J^ RR AA NN Z:
RR NN VB Vp RR NN RR NN J^ Db VB Vp NN Z:
RR NN VB Vp RR NN RR NN Z:
J, Vp Dg NN Z:
Vi P7 Dg Z:
NN Z:
