PS NN Z:
Db VB NN AA NN Z:
Db VB Vp RR C= Vp VB AA NN Z:
Vp VB NN J^ NN Z:
X@ VB Vp NN RR NN Z: NN J^ NN RR NN Z:
Db VB Vp RR NN Dg Z:
PD C= NN RR AA NN Z:
Db RR C= VB Vp RR Xx Z: NN Vp Db NN Z:
Db NN J^ NN NN Vp RR PS NN Db Vp Vp Z:
PD VB AA NN Z:
