PS AA NN P7 VB NN Z:
Vp VB NN RR NN C= RR NN Z:
RR NN C= NN Vp RR NN RR NN Z:
Db VB RR P5 AA NN Z:
NN VB AA Z: AA Z: AA Z: AA Z: J^ AA Z:
VB AC PH J, P7 VB Dg RR AA NN Z:
AC VB RR NN J^ VB P7 Z:
PS NN VB AA Z:
AA NN Db VB Vf RR NN NN Db Z:
PS AA NN VB PS NN Z:
VB AA Z: AA Z: AA Z: J^ AA Z:
VB AC PP J, P7 VB Dg Z:
