PP J^ NN Z:
J, VB Vp RR Vi Z: VB Vf NN Z:
J, VB Z: NN Z: J^ Vf RR NN Z:
J^ Db Z: PS NN VB Vf RR PH Z:
J, VB NN Z: VB Vf RR NN J^ NN Z:
Db VB RR NN Z: Db VB NN Z: J^ Dg NN J^ Vf RR NN Z: J, VB Db NN J^ NN Db Z: J^ AA NN VB Vf RR NN J^ Vf RR NN Z:
Dg Vf NN Z:
J, VB NN Z: VB Vf Z:
NN VB AA NN RR PH Z:
