PD NN VB PP RR PD Z: Db Cl NN Db Vp P8 NN Z:
Vp Vf PZ NN J^ NN Z: J^ Z: VB Vp Db AA J^ Vp Vf Db J^ Vf PZ NN Z:
J^ Vp Z: J, PS NN AC VB NN J^ VB AA NN Z: J^ VB AA NN RR PD NN NN Z:
Vp PH RR P6 RR NN J^ Db Vp PH P8 NN Z:
NN P7 Vp PH Vf Z:
J^ Vp PD Db Z:
J, NN Vp AA NN Z: Db P7 Vp RR AA NN Z: P4 Vp RR PD NN Z: Vp NN Z: J^ Vp PH Vf PD NN Z:
NN Vp RR P8 NN Z: Vp RR PQ VB NN Z: J^ Db PD Vp Z:
J^ Db Dg RR NN Vp AA NN NN Z: P4 Vp Db Vf J^ Vp PD Vf Db Db Dg Z:
J^ Vp Db AA J^ Vp NN RR PD NN Z:
TT NN Vp Vf P8 NN Z:
RR PD NN PD Cl NN Db VB NN Z:
