AA NN Z:
VB NN NN J^ Vp VB PS NN Z: J, VB NN RR NN Z:
VB NN RR PS NN J^ Db VB Ca NN Z:
Cv Z: VB NN J^ VB RR NN Z: VB RR NN Z:
PD VB Z: J, VB Db P7 Vf J^ Vf NN Z: Db Vp Vc Vf AA NN NN Z:
VB PP Vf Z: J, VB AA Z: J, NN VB C= Z: NN J^ VB PL PQ VB Vp Z:
VB AA NN Z: J^ VB Vp Z: VB Z: TT Db NN J^ TT Z:
PD VB AA RR PH Z: J, VB NN J^ Db PP PD VB Z: PD VB NN P7 Vf RR NN Z:
C? VB Db NN Z:
J^ P4 VB NN Z:
VB Z: J, NN Db AA J^ VB P7 Vf J, VB Vf NN Vi PH VB J^ Vi RR PS NN Z:
VB RR PS NN Z:
Dg NN
NN Z:
