VB AA NN Z: J^ J^ Z: NN P7 VB Vf RR NN Z:
Dg AA AA NN P4 RR NN Db AA AA NN VB J, NN RR NN Z: VB AA AA NN NN Z:
J^ PP VB Z: J, AA RR PD AA NN VB NN RR NN Db NN VB Z:
J^ Z: PS AA AA NN VB RR NN X@ NN Z: P4 VB J^ VB P7 RR Vi RR AA J^ AA NN Z:
Dg RR AA NN AA NN AA NN VB NN Z: Dg AA Z: Db P4 VB AG J^ Ve J, Vp NN NN Z: J^ Db NN RR NN AA NN Z:
RR AA AA NN Z: AA VB AA AA NN Z: Dg RR NN Z:
NN Z: AA RR NN VB Vf RR NN Z: J, Vp NN Z:
AA NN VB Z: NN VB RR NN Z: J^ NN P7 VB NN TT RR NN RR NN Z:
J, PD Vp AA NN AA NN VB NN Dg NN J^ Db NN NN VB AA Z:
AA NN P7 VB Dg Z: J, VB PW X@ NN Dg NN Z: J^ Db PW Vi Z: Z: Cl Z: Z: X@ NN Z:
AA NN NN RR NN Db VB PQ RR NN Vf Z: J^ AA NN RR NN VB RR NN RR AA NN Z: P4 VB Vf RR AA X@ NN Z:
J^ AA NN VB X@ NN Z:
VB PL RR AA NN Z: NN Z: NN J^ NN Z: J^ NN Z:
PQ Dg VB RR NN Z:
VB Cl NN Z: Db VB NN AA NN AA Z:
