PS NN Z: NN
J, VB Vp NN Z: Vp VB Dg RR NN NN Z:
AA NN VB Vp NN RR NN Z: NN NN Z: NN J^ NN Z:
Vp VB NN Z: P4 Vp NN Z: J^ PH Vp AA NN J, NN Z: NN J^ AA NN Z:
TT Z: VB NN Z: J, AA NN Vp Dg RR NN Z: NN RR NN J, AA NN RR NN RR PD NN Z:
J^ VB NN Z: J, Db Vp Vf AA NN J, AA NN RR NN Z: J, AA NN Db PD Dg Vp Z:
Db Z:
Dg VB Vp RR NN Z: J, Vp NN Z: RV AA NN Z:
PD Vp RR PH NN Z:
Vp VB Z: RR NN Z: NN RR NN Z: NN Db J^ Vp Ca NN Z: VB Db Z: RR PD VB Vp AA NN Z:
RR NN P8 NN Z: VB P7 Vp Vf AC Z: J, P7 AA NN Vp RR PH NN RR NN Z:
RR NN Z: RR PP Z: AA NN Z: Z: P7 VB PS AA NN AA NN Z: NN NN Z: Z:
AA NN Db Vp Z: J, PD AA NN VB PZ NN Z: J^ J, NN Vp Z:
Db VB Db Dg NN VB NN RR NN Z:
Ve RR NN Z: NN Vf NN Db Z:
Db VB NN AA NN AA Z: J^ NN PP AA NN Z: P4 VB NN J^ NN Z: J, P7 Vp NN Z:
PP VB Vf NN Db Z: J^ VB PD NN Db J, VB Z:
Db RV NN Dg NN VB Dg NN Z: J^ NN NN P7 VB Z:
J^ J^ Z: VB J, RR NN Z: NN J^ NN RR Z: AA NN Z: P7 VB Vf Z:
J^ Db VB NN AA NN Z:
