Vi Z: Db VB J^ Db AA NN VB Z:
VB RR NN J, NN NN Z:
Vp VB C= NN RR NN NN RR AA NN Z:
Db VB J, AA NN AA NN Z:
NN Vp PH Db RR NN Z: J, Vp NN RR AA NN Z: X@ Z:
PS NN VB Dg NN RR NN Z:
VB AA J^ AA NN Z: Db NN Z: NN NN Z: NN Z: NN Z: NN Z: NN RR NN Z: NN Z: NN Z: NN Z: NN Z: NN Z: Db Z:
PS NN VB Db VB Dg PS NN Z:
NN VB RR PD Z:
PS NN NN Z: J^ Db AA Z:
RR NN Z: VB RR NN RV NN Z:
Dg Z: AA X@ NN P7 VB AA J, Db Db Z: J^ Z: AA NN VB Dg NN Z:
Db Z: Vp Vc Vf Db RR NN Z:
Z: NN Z:
