AA NN
AA NN J^ AA NN Z:
Vp VB RR NN AA NN RR PS AA NN J^ VB PP NN Z:
VB AA NN RR NN AA NN Z:
Vp VB RR AA NN AA NN J^ VB P7 Vp C= NN NN RR AA NN Z:
Db VB Vp Vf RR NN Z: J, Vc Vp Vf RR NN Z:
RR NN Vp VB NN NN Z: J^ J^ VB Dg Dg Z:
VB AA NN Vf J^ Vf Dg Z:
AC P7 Db VB PZ AA Z:
J, P7 Vp NN PS NN Z: Vc PP Dg Vp Z:
Vp Vc Db AC Z: J, Vp PS NN J^ Vp RR PD Z: J, VB PH NN NN Z:
RR NN
NN
