VB P7 NN Z: PP VB NN Z:
Db VB NN RR NN Z:
AC VB PL RR NN Z:
Db VB Vp NN Z: Dg VB Vp RR NN Z:
PD VB NN NN AA RR NN Z:
AA NN Dg VB Vp RR NN RR NN Z:
AC VB NN Z: NN Z: NN Z: NN NN Z:
AC VB J^ Dg VB Vp NN Z:
AC VB Vp NN RR NN J^ NN RR NN J^ NN RR NN Z:
Db VB Vp RR NN Z: AC VB Vp RR NN Z:
Db VB Vp NN Z: NN Z: NN Z: NN Z: NN Z: NN Z:
AC VB NN Z: NN Z: Vp Db Z:
