PS AA NN
Db Vp AA NN Z:
Vp Dg Z: Vp VB RR C= NN Z: Vp VB P7 Z: Vp VB P7 Z: Db VB NN NN J^ NN NN Z:
Vp VB RR NN RR C= NN Z:
VB AA NN RR C= RR C= NN Z:
RR NN VB Vp Z: J, VB NN Z:
Db VB Vp NN Z:
PS NN P7 RR PZ Vp Z: J^ Vp Z:
VB NN J^ NN Z:
Vp VB Dg J^ Vp VB Db RR C= NN Z:
Db VB P7 Vp Dg Z: Db VB Vp Dg Z:
Dg Z: Vp PH RR NN Z: Db VB Vp NN J^ NN Z:
VB NN Z:
VB NN Db VB PH Db J^ Db Db Z:
VB C= NN Z:
VB PH AA NN J^ VB PH Dg Z:
Vp VB RR NN Z:
VB Vf NN RR NN NN Z:
VB Vf J^ VB Vf Dg NN Z: Db VB Vp Vf RR NN Z:
Db Z: P7 VB Dg Z:
Db Vp AA RR NN Z:
VB AC Db PL Z: J, P7 PH VB RR PS NN Z:
