PS NN VB RR Cr NN NN RR NN Z:
C= Z: NN NN RR AA NN NN Vp P7 Dg RR AA NN Z:
RR NN PD NN Vp Ca NN AA AA J^ AA NN Z:
J, AA NN Vp J, NN RR NN J^ NN P7 VB Z: NN RR PD Cl NN Vp Z:
NN AA NN VB NN PD NN RR NN RR Cl NN J^ NN AA NN J^ NN Z:
RR PS Z: NN P7 Vp J, NN Dg Vp NN NN Z:
VB Z: J, AA NN Vp P7 RR NN RR NN RR NN Z: P4 Dg VB NN Z:
Db RR PD Z: Vp Db PD NN AA NN Z:
AA NN Vp P7 Vf NN NN NN Z: P4 Vp RR NN NN NN Z:
AA NN Dg VB J, NN P7 Vp RR AA NN NN NN Z:
RR NN AA NN AA NN NN VB Vf P7 RR NN NN NN J^ Vf P7 RR AA NN RR NN Z:
NN NN VB J, VB AA Vf NN Z: P4 VB Vf RR NN Z:
Vp Vs NN RR AA NN NN Z:
