AA NN NN AA NN Z:
PS AA NN P7 VB Z: X@ PP Z: Z:
PD PD NN RR NN Z:
VB RR NN Z: P4 Vp RR NN Z: Vp AA NN J^ Vp RR NN RR NN Z:
NN P7 VB NN Z: PP VB NN Z: NN Z: NN J^ AA NN Z: P4 VB RR AA NN Z:
PS NN VB RV NN J, AA NN Z: J^ J^ VB Db NN J^ VB RR PD NN Z:
J^ X@ VB Vf P8 NN J^ J^ Vp RR P8 NN J^ Vp Vf J, NN Z:
X@ VB AC Vf Z: AC AA Z:
Db Vp RR NN RV P8 NN J^ Vp Db Cl AA NN Z: P4 Db Vp Z:
Vp VB Db J^ AA Z:
J^ PS NN Vp X@ J^ Vp Vf PP NN Z:
RR AA VB Vp Z: X@ Vp NN Z: PS NN Db Z:
Db Vp NN Z:
Vp PD Db AA NN Z:
