VB Cl NN AA NN Z:
Cr VB Z: NN Z: Z: P4 VB Db PL NN Z: J^ Vf VB TT NN Z:
NN NN AA NN VB PD AA Db PZ NN VB RR Z: NN Z: Z:
Db NN Db Dg P7 VB Vf NN Db RR NN P4 VB NN Z: J^ J, VB PD VB AA NN Z:
NN Db VB Vf NN Z: RR AA NN Z: J, NN VB AA NN P4 VB AA NN NN Z:
NN VB J, J, PP VB Vf Db Db Db VB Vf NN PD NN Z: Dg J, PP VB Vf NN J, VB RR AU NN Z:
PP Dg VB P7 NN J^ VB J, VB PD Db AA Vf RR NN X@ Db VB J^ VB Db VB Z: PS NN Z: J^ AC J^ VB J, PH AA Vf
