PS NN
PS NN VB AA Z:
NN Z: NN Z: NN J^ PP Z:
VB Cl NN Z:
VB P7 NN Z:
VB PH C= NN Z:
VB NN RR NN RR NN Z:
VB AA Z: AA J^ Db AA Z:
J, PH VB PZ Z: Db PP VB NN PH Z:
J^ Db PP VB AA Z: Db RR NN Z:
VB NN RR NN Z: VB P7 RR NN Z:
PS PL VB P8 NN Z:
PS NN P7 VB NN Z:
VB PP C= NN Z: VB J^ NN RR NN Z:
Db VB PP Z: J, VB Z:
Db VB PZ Z: J^ VB NN J^ VB Z:
VB Z: J, PP VB Db AA NN Z: VB Dg AA NN Z:
PS NN VB VB NN Z:
VB PH C= NN Z: VB RR PS NN Z:
VB AC NN Z:
AA NN VB RR NN RR P8 NN Z:
VB AA NN J^ VB RR NN Z: J^ AA NN Z: VB RR NN Z:
VB AA NN Z:
