AA NN J^ AA NN Z:
AA NN Z:
VB P7 NN Z:
RR NN C= Vp Db AA NN Z: X@ NN Z: P4 Vp NN NN PP VB NN Z:
Vp VB RR NN P4 P7 Vp NN Vs NN Z: PP Vp J, NN X@ NN RV NN AA NN Z:
NN NN Vp Cl NN J^ Cl NN Z:
NN Vs Vp AA J, Db AA NN P4 Vp AC X@ NN Z:
J, NN Vs Vp Z: NN Vp PS NN NN Z:
PS AA NN P7 VB Z: NN Z: PD VB NN RR NN NN Z:
AA NN P7 VB NN PP VB NN P4 VB P8 NN J, VB AA Z:
