NN
VB P7 NN NN VB C= NN Z:
J, PP Vp NN PP Vp RR NN Z:
Vp PP Db AA NN Z: AA Z: Vp AC NN NN Z:
Vp PP RR NN Db Vp VB RR NN P4 Z: AA NN Z: Z: PS NN VB Db Dg Z: VB AA AA RR AA NN Z: AA NN Z:
VB NN J, VB Dg NN Z:
P4 NN NN RR Z: AA NN NN Z: Z:
Vp Vc Vf RR C= NN Cl NN Z: NN J^ NN Z: J^ TT RR AA NN Z:
VB RR NN Z: NN Z: NN Z: AC Z:
VB Db NN RR C= NN Z:
Z: Db NN RR Z: AA NN Z: Z:
