NN NN NN
VB RR AA NN RR AA NN Z:
PP P7 TT VB Vf Db Db Z:
Dg VB RR Cn NN Z: Db Vf P7 J^ VB P7 AA Z:
VB AA NN Z: NN Z: NN Z: NN J^ VB NN J^ NN Z:
Db VB P7 NN Z: VB P7 J^ RR Cn NN VB RR NN Z:
VB RR NN RR NN J^ RR NN Z:
Dg VB RR NN Z:
Db VB AA NN VB VB Z:
RR NN VB P7 NN Z: NN J^ VB Db RR NN Z:
Db TT VB RR NN Z: VB P7 RR NN NN Z: J, RR AA NN VB Db NN Z:
RR Cn NN VB P7 NN Z: J^ PP NN Z: VB J^ PP J^ PS NN Z:
RR Cn NN Cn VB RR NN Z:
VB NN Db AA NN J, NN VB Db Dg J^ J, AC P7 VB Z:
RR Cn NN VB P7 NN Z: AA P7 J^ VB P7 NN Z:
Db VB P7 J^ VB AA NN Z:
Dg VB Vf RR Cn NN Z:
