NN NN Vp Dg NN Z: J^ Db PH PZ Vp Z:
J, Vp NN Z: Vp Dg AA Z: Dg Vp NN Z: J^ Dg Vp RR NN Z:
J, Vp RR NN Z: Vp Vf Dg NN Z:
J^ Db PS NN Vp PZ NN Z: P4 PH Vp Vf Z:
Db Vp NN Z: Vp NN Z: J^ Db Vp AA NN Z:
Vp NN Dg NN Vf J^ RR NN Vp NN Z: J, Vp NN RR AA NN Z:
Vp AA NN J^ Z: Vp NN J^ NN Z: J^ Vp Vf NN Z:
RR NN Vp NN RR NN Z: Vp NN Z: Vp Vf RR NN Z:
RR PL Dg NN RR NN Z:
Vp P7 RR AA NN Z: Vp NN RR NN Z: Vp NN Z: J^ Vp NN Z:
NN Vp NN Z: J, RR NN Vp NN Z:
NN Vp NN Z: J^ Vp RR AA NN Z: Vp RR NN Z: Db VB AA NN Z:
J, Vp AA NN Vp RR NN Z:
