Db VB Vp RR NN Z:
Db VB Vp NN RR NN Z: Vp VB RR NN Z:
RR Z: NN Z: Z:
J, VB Vp RR NN Vp Ca Ca NN Z: Vp VB P7 RR NN J^ Vp VB NN Z:
Db Vp RR PH NN Z: J^ Vp P7 NN Z:
Vp VB PH X@ Z:
Vp P7 RR P5 Z: J^ Vp PH PH Z:
