AA NN VB TT RR C= NN Z: J^ J, Dg VB Vf PD VB Db TT C= Z: C= NN J^ Db VB RR NN J^ VB RR NN Z:
Db VB AA NN J^ NN RR NN Z: Db VB NN RR NN RR NN Z:
J, PP J^ PS NN VB Vs Db VB RR NN Z:
Db VB NN J^ NN RR NN Z:
VB Db C= Z: C= NN J^ Db VB RR NN J^ VB RR NN NN Z: J, Db Vf NN RR PZ Z:
RR NN NN Vf J, Dg VB AC Z: J^ VB RR NN J^ Db Db PP Z: PD PQ Vp NN Z:
PP NN Db VB PH Z:
Db Db VB Z: VB RR NN Z: VB RR NN RR NN Z:
Db Db VB P7 Vf NN J, VB Db AA Z:
Db VB AA NN Z: VB NN J^ NN Z: J^ Db PD Db VB J, VB J^ VB NN J^ NN PZ Vf Z: J^ Db Db J^ Db Db VB Z: J, PD VB Dg J^ PW VB Vf Z: VB NN Z:
Db Db Db VB RR NN Z: VB J^ P7 VB RR NN Z: J^ VB RR NN Z:
VB Vf TT RR C= Z: C= NN Z:
PD Vp AA Z: AA NN PS NN Z:
