RR AA NN VB Db Db Cl NN Z:
J, VB Db PS NN J^ Db VB Vf Z:
VB PH NN RR NN Z:
VB Db AA J^ Db AA Z:
Dg VB Db RV NN Z: J^ Db VB AA NN Z:
VB NN RR NN Z:
J, VB Vp RR AA NN Vp PH PD J, NN VB RR NN Z: RR NN Z:
RR PH PD Vp Db Dg Z:
