VB J, TT Z: J, RR NN VB Vp NN RR NN J^ J^ Vp RR VB Vf AA AA NN Z:
Dg PD Vp Db AA Z: J, Vp VB Vf PW AA Z: AA Z: AA Db Z:
Db Vp VB Db Vf Z:
Vp VB RR NN Z: C= NN VB Vp NN J^ Db VB Vp Z:
Db VB RR NN Z: J, VB Vf AA J^ AA Z:
VB P7 PH AA NN Z: P4 Db Dg J^ VB AA Z:
AC VB RR NN J^ AA NN Cv VB Vp RR AA NN J^ PD VB J, Db VB Dg NN Z: J, RR NN VB AA NN J^ Dg Z:
Db Db VB PW AA Z: VB AA Z:
AC VB J^ AC VB NN Z: J, PD VB PH Dg NN RR AA NN J^ Db VB RR P6 NN P4 VB NN Z: Vf NN Z:
RR NN VB Vs Vf Z: J, PD VB NN J^ NN Z:
