AA NN
C= Z: Vi P7 RR C= NN Z: Z: NN P7 RR AA NN Z:
NN RR NN Z: Z: Vi RR NN Z:
Vi P7 Db RR C= Z: Z: Vi P7 Dg Z:
C= Z: Vi NN Z: Z: Vi NN Z:
Vi NN Z: Z: Vi NN Z:
Vi Dg Z: Z: Vi Dg Z:
C= Z: Vi RR NN Z: Z: Vi NN Z:
Vi PD NN Z: Z: Vi PD NN Z:
Vi NN Z: Z: VB NN Z:
C= Z: Vi RR PH Z: Z: Vi RR PH Z:
Vi Db Z: Z: VB Db Z:
Vi PH Z: J, VB RR NN Z:
Vi PH Dg Z:
C= Z: Vi NN TT VB AA NN Z:
Z: Vi NN J, VB Z:
Vi NN TT Dg VB NN Z:
Vi NN J^ Dg Z: Z:
Vi NN TT VB Db Z:
VB NN J^ VB Db Z:
