RR NN C= AA NN Z: P7 Vp NN Z: VB Db Dg Vf Dg Z: Z:
NN X@ J^ NN NN NN Z:
NN NN Vp Vs NN NN NN NN AA AA NN Z:
PL AA NN VB Vf RR NN NN Z:
PD NN VB AA RR AA NN J^ NN Z: P4 VB NN J^ VB NN NN X@ Z:
PD VB Z: J, VB AA RR AA J^ RR NN RR NN RR AA NN Z:
NN P7 VB RR C= NN J^ AA NN VB C= NN Z: J^ Z: Z: NN J^ P7 VB AA AA NN Z: NN NN NN Z: NN J^ NN Z:
Db Db VB AA AA NN NN Z: NN NN VB AA J^ AA NN J^ NN NN Z:
NN VB AA J^ AA RR PL Z: PK VB Vf RV NN AA NN RR NN RR AA J^ AA NN Z:
J^ VB Vf NN RR PD Z: J, PD NN VB P8 NN J^ NN Z:
J^ J^ VB Dg Vf NN J^ PL P7 Vf RR NN J^ NN
RR AA VB Vf Z: J, NN VB Db AA AA NN Z:
AA NN VB AA AA NN RR AA NN Z:
AA NN PP VB Vf Co Z: J, NN Dg VB PD NN J^ NN Z:
PD VB Z: J, NN VB AA NN RR NN AA NN Z:
RR Cr Vi NN RR NN J^ NN RR P5 Z:
AA VB NN Z: J^ J^ VB Ca NN RR AA NN Z:
J, VB AA NN Z: VB P7 Vf RR NN AA NN J^ PS NN X@ AA NN VB AA Vf PZ RR AA NN NN Z:
J^ PZ NN J^ NN P7 VB AA NN AA NN Z: AA NN Z:
Db RR NN C= VB AA NN RR NN NN Z:
RR NN Vp Vc Vf Z: J, NN VB AA NN NN Z: AA NN Z: NN Z: AA NN Z:
Db P7 VB RR NN NN Z:
Vp VB P7 Ca NN J, PH Vp Z: PQ PP Dg VB RR PD NN NN VB AC Z:
NN NN VB VB NN RR NN Z:
VB Z: J, PD NN VB AA J^ NN VB AA Z:
Z: J, VB AA NN Z: Db VB NN RR NN NN Z: Z: Vp PH Cl NN Z:
NN PP Vp Vc Db Vp NN NN Z:
RR NN RR AA NN Z: NN RR NN Z: Z: PD NN P7 PP VB Z:
Db Cl NN Z: P4 VB Vp Z: RV Xx Xx Xx Z:
TT Z: AA NN VB AA Z: J^ VB Ca NN Z:
Db NN Z: NN Z: VB Db AA Z: VB NN Z: P4 VB Db J^ RR NN TT Z: VB NN RR AA NN NN Z: NN Z: J^ Z: AA NN Z:
RR NN VB PL Z: VB PP PD NN J^ TT Z:
J^ J, VB Dg NN J^ NN Z: AA NN RR NN VB X@ RR NN NN J^ NN VB AA NN J^ J^ NN VB AA RR NN Z:
