PQ Vc Vp Z: J, Vp RR NN NN
J, VB Vp AA NN RV NN Z: Vp VB Vf PQ VB Vf Db Z:
PS NN PH Vp Z: J, VB P7 Vf RR P4 NN VB Vf J^ PQ Z:
PD Vp Db AA NN RR PH Z: J, VB Vp Vf RR NN Z:
Vp PS NN Z: J, Vp Vc Vf RR NN J^ Vf P7 Db Cl NN Z: J^ Vf RR NN Z:
J, Vp Vf RR AA NN Vp Vc P7 Vf Db Z: J^ PD Vp Vc Db Dg RR PH Z: J, Db VB Vp Vf RR NN Z: Vf P7 RR AA NN Z:
Vp Vc Db Vf Vf Z: J^ VB Z: J, PD VB AA NN Z: J, VB Db AA J^ VB Db Db Vf RR AA NN J^ Db Vp Vc AA Z:
J^ J^ J, Vp Z: Vp Vc Db NN Z:
Vp Vc Vf Z: Vp Vc P7 RV P8 AA NN J^ RR AA NN Z:
VB Db AC Z: J, Db VB RR NN Z:
Db P7 PH Db VB Z:
