J, VB P7 Vp NN RR AA NN PS NN PH Vp Z: J, NN VB AA NN Z: J^ J, VB Vp RR NN Z: PW VB Vp Z:
RR NN VB Vp TT NN Z: AA NN Z: J^ Z: C? PD VB Z: Z:
Vp VB P7 Z: J, NN VB Db AA NN J^ J, VB P7 PH Vf Z:
NN J^ NN VB Dg AA NN Z:
RR NN Db VB NN Z: J^ VB Db J^ NN Z:
Db NN Z: Z: NN Z: VB RR NN NN AA Z: J^ J^ VB Vp PD NN NN Z:
RR NN NN RR NN RR NN Vp PH PD Z: J, PZ NN VB AA Z: J^ VB AA J^ AA NN Z:
Db J, VB PZ NN Z: VB P7 Vf NN J^ NN Z: J^ NN PH VB Z:
Db Z: J, VB Dg Dg Z: VB P7 PH Vf Db Z:
RV P8 NN Z: P4 VB RR NN Z: Vc Vp P7 Vf RR PZ AA NN Z: J, VB NN RR NN Z:
Db RR NN VB TT AA NN Z: J^ PD VB NN Z: J, VB NN Z:
VB Z: J, PS NN P7 VB Vf Z:
