NN Z: RR P4 VB
NN Z: RR P4 VB P7 VB RR NN Z:
J^ RR NN Z:
PD VB AA AA NN RR P4 VB Ca NN J^ NN Z:
Db VB C= NN Z:
RR NN VB NN J^ Cl AA NN RR NN Z:
Vp Vc Vf NN J^ VB RR Ca NN Z:
RR Cr NN P7 VB PS NN J^ NN NN Z:
RR NN NN VB Vf PP RV PL RR NN Z:
Db VB Db AA NN Z: AA NN J^ NN NN J^ NN Z:
RV C= Z: Cr Z: Ve Vc Vp Cn AA NN Db RR NN Z:
