Vp VB Vf NN RR C= NN Z:
RR NN NN Vp PD Dg AA Z:
Vp VB Db PW Z: Vp VB NN Z: NN J^ Db Z:
Db Db PD Vp Db AA Z: J, VB Vp AA NN RR NN J^ NN J^ NN Vf Dg Dg J, Dg Z:
NN J^ NN VB Dg AA Z:
Db PD VB NN J^ NN Z:
PL PD AA Z: PQ VB P7 Vp RR NN Z: Vp Ca AA NN Z:
NN P7 Vp TT Db Z:
Vp VB Dg NN RR NN Z: Ca AA NN Z:
J^ RR NN PD Z: PQ VB P7 RR PD Vp Z: Vp PD Z: Db Z: Db AA Z:
Vp PH RR NN NN PD Z: J, NN AA AA NN VB AA NN J^ Db Db Z: AA NN VB AA NN Z:
VB PD AA Z: J, P7 PD Db Vp NN Z: J^ Db PD Db VB Z: VB TT Dg Z:
Db NN RR PH VB Cr AA NN RR NN Z:
Db VB NN RR NN Z: Db VB AA NN RR AA NN Z:
Db Db PS NN VB Z: PQ VB Z:
PD C= NN RR PH Vp AA NN Z:
VB Z: J, NN NN Db VB Z:
