NN J^ NN VB NN NN NN C= Z: NN NN C= RR NN P7 Vp Cr AA NN Z: RR P4 P7 Vp AA NN Z:
RR NN C= P7 Vp AA AA AA NN RR NN Z:
Db Vp Vs NN AA NN Z: NN RR NN J^ Db NN RR NN NN AA Z:
RR PD AA NN NN NN Vp AA NN J^ NN NN NN Z:
AA AA AA NN RR NN Vp AA NN AA NN Z:
