AA NN Z: C= NN Z:
NN
Db C= J^ Cl NN VB RR NN NN RR NN Z:
Db Vp VB RR AA NN Z:
VB RR RR AA NN RR NN Z:
X@ NN VB AA RV AA NN Z: Z: AA NN RR NN Z:
PD NN VB RR PH Db X@ Z: J, VB P7 AA NN PZ AA J^ VB NN RR AA NN Z:
PD VB NN NN J^ VB Vf NN RR AA Z: Xx Z: NN RR AA J^ AA NN Z:
PD NN Ve RR NN AA J^ NN Z:
Db VB RR NN NN RR NN J^ AA RR NN RR NN AA J^ AA NN Z: J^ AA NN Z: RR PD NN RR II PD AA NN Vf AA NN Z:
PD NN VB AA Db RR NN Z: J, VB PQ Vf RR PD NN Z: P4 VB RR Dg Z:
NN NN NN VB Db NN RR NN J^ Vp P7 C= NN RR X@ P5 Z:
VB AC PS NN Z: J, VB AA Z: X@ Z: Z:
