C= Z: C= Z:
RR NN NN P7 VB NN Vf Z:
PP Vp RR AA NN J^ Vp NN RR NN Z:
Db P7 Vp NN Z: J^ VB Vf NN Z:
VB RV P8 NN RR NN Z:
Db Dg Vp Vf PD NN Z:
PS NN VB Dg NN Z:
Db VB AA NN J^ Dg NN Z:
VB NN Z: J^ J^ RR NN VB NN Z:
RR
RR NN NN VB Vf RR NN Z:
AC VB J^ Db P7 VB Z:
J, P7 Vp Vp PZ AA NN RR NN NN Z:
Db Vp Vf NN Z:
NN VB Vf NN Dg Z: J^ Vp Dg J^ Vp RR NN RR NN Z:
Vp AA AA NN J^ Vp PQ VB Vf Dg Z:
Db Vp RR NN J^ Vp P7 RR NN Z:
Db Vp RR NN Z:
Db Dg Vp P7 P8 NN Z:
AA NN Db VB RR NN RR NN Z:
J^ Db NN Vp Z: J^ NN Db Vp Z:
Db NN J^ PS NN P7 VB NN RR NN Z:
PD Vp AA NN Z:
J^ Db NN P7 Vp Z:
PD Vp AA Z: J, Vp Vf NN RR NN Z:
