VB P7 NN Z:
VB PH Cn Cl NN Z:
PP VB RR NN Z:
VB RR NN Z:
VB NN Z:
VB RR NN RR AA NN RR NN Z:
NN VB AA NN NN Z:
NN VB AA NN Z:
NN VB Ca NN Z: Db P7 Vf Z:
Db Xx RR AA NN J^ AA NN RR X@ Z:
Db AA RR NN AA NN J^ J^ VB PD NN P7 VB Z:
Z: AA NN Z: Z:
J^ RR NN VB Vf Ca AA NN Z:
PP PD NN Z: X@ NN Z: P4 X@ NN NN Z:
X@ AA NN NN Z: Db P7 VB Vf NN NN J^ NN RR AA NN Z:
Db VB AA NN Z: P4 RR NN VB AA X@ Db Ca AA NN J^ NN RR PD AA NN Z:
Db NN Z: J, NN VB Ca NN Z: NN VB AA J^ AA Z:
