C= NN Vp RR AA NN Z:
VB Vf RR PZ NN RR NN Z:
C= J^ PS NN VB Vf RR NN Z:
PP VB PD Dg Z:
C= PP VB AA Z:
VB P7 PP NN Z:
Db VB NN J^ AA Z:
C= PP VB P8 NN RR NN Z:
PS NN VB P8 AA RR VB Z:
PD VB AA NN Z:
Cl NN PP Vp Z: Vp Z: Vp NN Z: Vp NN Z:
Db P7 J^ Vp NN RR NN Z:
J^ PS NN VB AA NN Z:
PP Vp RR P5 Z:
PD Vp Dg RR NN Z:
