NN J^ NN VB AA NN Z:
NN VB AA J, NN Z:
RR NN VB AA AA NN J, RR NN Z: J^ RR NN VB AA NN J^ Dg AA NN Z:
RR NN VB AA NN Z:
RV NN TT Cl NN Z: Cl VB RR NN J^ AA VB RR NN Z: J^ PS NN VB AA J, RR NN Z:
RR NN VB AA NN Z: J^ RR NN NN VB AA Z:
RR NN Dg AA NN J, RR PS NN Z:
NN VB RR NN Z: J^ NN VB RR NN Z:
RR NN VB Vf RR NN J^ NN RR Cl NN Z: J^ RR NN VB Vf Cn NN Z:
NN J^ NN VB Cl AA NN Z:
