NN
VB AC Dg VB Z:
Dg VB Z: J^ Db VB RR NN Vf P7 Z: P7 Vf J, Vf AA AA NN Z:
RR NN Db VB Db Z: NN Z: RR NN Z: RR NN Z:
J, VB Z: VB NN Z:
RR AA NN VB Vp AA NN C= Z: Cn Z: NN Z:
X@ Z: P4 PL VB NN Z: VB AC VB NN Z: VB Z: VB RR NN Z:
VB AA NN Z: TT VB NN Z: TT AA NN Z: J^ VB Z:
