AA NN Z:
VB RR NN Db Cl NN Z:
Db C= NN RR NN J^ Db NN Z:
Db P7 VB J^ VB RR NN J^ NN RR NN Z:
Db VB NN J^ Dg Z:
VB Dg NN Z:
Db VB RV P8 NN J^ VB RR AA Z:
VB P7 PH NN Z:
PP VB Db AA Z:
AC Vf RR NN RR NN NN Z:
NN VB AA J, VB Ca NN J^ NN Z:
Db VB Vp RR NN J^ Vp P7 RR AA NN Z:
J, VB RR NN VB Vf NN RR NN Z:
VB P7 Vf RR NN Z: RR NN NN Z: AA NN J^ NN Z:
Vi P7 RR AA NN J^ NN AA NN Z:
PD VB Db AA NN Z:
RR AU NN Vi P7 RR NN J^ NN J^ VB NN Z: P4 VB RR AA NN Z: AC NN J^ AA NN Z:
PD VB Db AA Z:
VB AC Vf PP Db Z:
Db VB AA NN Z:
PD VB Db Dg Vf PS Db Z: RR NN Z:
J, VB RR NN P7 VB P8 NN Z:
VB Db AC Vf PS Db Z:
VB P7 RR PD NN Z:
PS NN Z:
