Xx PS NN NN Z:
VB AA NN RR P4 NN VB Vf Z:
PD NN VB Vf AA Z: AA Z: J^ AA Z:
Dg RR NN VB Vf AA NN RR NN Z: Db RR NN Z:
Vp Vc Vf Dg NN Z:
Vp Vc Vf RR NN RR AA NN Z:
PD NN VB Vf AA Z:
PD NN VB Vf PD NN RR NN NN Z: Dg RR NN Z:
RR AA NN Xx AA NN Z: J, VB AC AA NN Z:
RR NN VB Vf Dg NN J^ NN Z:
RR Xx VB Vf AA Xx J^ AA Xx J^ Xx Z: J, AC P7 Xx Xx Xx Xx Xx NN AA J^ AA RR AA NN NN Db Z:
AC VB Z: J^ Vc Vp AA NN Z:
J^ Db RR NN VB Vf Xx RR Xx J^ AA NN Z:
Xx Xx Vp Xx Xx J^ Xx Xx Z:
VB Z: J, VB Vf NN Vf RR PD NN Z:
