TT NN Z:
VB Db AC Db Z:
NN VB AA NN AA NN Z:
VB RV NN VB Db AA Z:
NN VB NN AA NN Z: AA NN Z:
Db AA NN RV P4 X@ NN VB AC AA Vs Z:
Db VB Vf RR PZ NN Z:
VB Cl AA NN Z:
VB P7 RR P5 AC Vf Z:
J^ Db X@ NN VB Vf RR NN RR NN NN Z:
J^ Db VB Vf RR NN Z: Db VB Db AA NN Z:
Db J^ J^ PS NN Z:
VB RV PD VB Db AA NN Z:
Db Vp Vc Vf P7 RR PS NN J^ Vf RR NN Z:
VB RV NN Z: X@ X@ NN Z:
J, VB AC Vf Z:
VB P7 RR PP Z:
NN Z:
