AA NN Z:
VB PP RR NN Z:
VB Vf PQ VB Vf RR NN Z:
RR NN VB X@ Ca NN RR NN Z: J, VB Vf RR NN Z:
VB Vf NN Dg AA NN Z: J, VB P7 PH AA NN J^ NN Z:
Db VB RR NN Z:
VB Vf AA NN J^ Vf P7 RR AA NN Z:
VB NN Z:
Db P7 VB Z:
PQ VB RR NN Z:
VB Vf RR PS NN Z:
Db VB Vf PP Z:
VB RR PS NN Z:
VB RR P6 Z:
PS NN
