Db VB Dg NN AA NN Z:
Cl RR PD NN VB NN NN RV NN Z:
TT Z: RR NN NN VB AA J, Dg Z: J^ J^ P7 PZ VB RR NN Z:
VB PD Db AA Z: J, VB NN AC NN Z:
Vp Vc Vf Db Db Dg Z: J, Vp NN Vf Z:
Db VB AA NN Z: Db Z: NN X@ Z: Z: P4 P7 VB Vf AA NN Z:
PD VB AA Z: J, Z: J^ J, NN Dg VB NN Z: VB RR NN PD NN Z: P4 VB Vf PS NN RR NN Z:
RR PS NN Z: AA NN NN J^ NN VB PD NN Z: Db P7 J, NN Db NN VB Dg Z:
NN Db Vp AA NN P8 NN Z:
Db Db VB PZ Vf Z: J, Vp NN NN NN Z:
Db Vc Vp Vf Z: J, Db VB Ca AA NN J^ NN Z:
Db NN VB NN Z:
Db NN Vp NN RR NN J^ Db Db VB Dg PD NN Z:
NN Dg NN VB AA NN Z:
NN J^ NN VB Vf NN Z:
VB Vf NN Z: J, Vp NN Z:
