NN J^ NN
RR AA NN NN VB J^ VB PP Z:
J^ TT PL NN J^ NN NN Z: J^ PZ VB RR P5 Z:
PS AA NN RR NN VB X@ Z: J^ VB Db TT Vp NN RR P5 Z:
J, Vp RR NN Z: Vp P7 RR PD Db Z: NN VB NN J^ VB PP Z:
Db NN NN Vf RR NN RR NN NN Z: J^ PD Dg RR P5 Z:
NN NN VB NN RR NN Z:
PD VB NN X@ J^ Db Cl NN Z: RR P4 Ca NN VB NN Z:
