PP J^ PS NN Z:
VB P7 NN Z:
VB NN P7 VB NN Z:
PS NN P7 VB NN Z:
VB NN Z:
PS NN P7 VB NN Z:
VB RV NN Z:
Xx NN VB NN Z:
PS NN P7 VB Xx Z:
VB AA J^ AA Z:
PS NN VB RR NN Z:
PS NN P7 VB Xx Z:
VB AA J^ Xx Z:
