NN NN Z:
VB PH RR NN Z:
Vp Vc Vf RR NN RR NN Z:
VB Z: J, NN VB Db AA NN Z:
Vp Vc P7 Vf RR AA AA NN Z:
Db NN RR AA NN Z: AU NN Z: NN J^ NN Z:
VB Db Vf RR NN RR AA NN Z:
NN NN VB Vf TT C= NN Z:
RR AA NN VB Db AA NN Z: P4 P7 VB NN AA NN Z:
RR NN Vc Vp Vf Dg AA NN Z: J^ Vf AA AA NN Z:
Vp Vc Vf RR NN J, Vf AA NN Z:
VB Z: J, VB PL Z:
J, VB Vf NN VB RR AA NN Z:
Vp Vc Vf RR PZ AA NN Z: J^ RR NN Z:
PQ VB Z:
PQ VB PH Db Vf Z:
