PP J^ PS NN RR NN VB Vf RR NN Z:
VB PD AA NN Z: J, Db VB PS NN RR NN Z:
Vp VB P7 Db Dg Z:
VB Db RR NN Z:
VB PS NN J^ NN Z:
Db VB RR NN RR AA NN Z:
RR NN VB RR AA NN Z:
RR NN VB Vf NN Z:
Db P7 VB RR AA NN Z:
