Vp VB P7 RR NN Z:
NN VB AA NN Z:
VB Db RR NN Z:
NN VB AA NN Z:
RR NN VB Db C= NN NN Z:
PS AA NN VB Db AA Z:
Db VB Ca NN Z: AA NN Z: AA NN Z: AA NN Z:
NN VB PD NN Z: Db NN VB Vf Dg NN Z:
J^ RR PD Z: VB Ca Vf Z: J^ RR NN VB Ca AA NN Z:
VB P7 PH Db Z:
