PQ Dg VB RR NN
Dg VB TT RR C= NN Z:
VB P7 Z: AA P7 NN Z: VB P7 Z:
Dg P7 VB NN J^ NN Z:
Db VB Z: VB AA NN J^ NN Z:
VB RR NN Z:
Db Db VB Z: VB AA NN Z: VB NN J^ VB NN Z:
NN VB RR NN RR NN J^ RR NN Z:
RR C= NN VB Vf Z:
