Z: Cl NN NN J^ NN RR Xx Z:
Vp VB Dg NN RR AA NN RR NN RR AA NN Z: Vp VB Z: J, AA NN RR NN Z: NN NN Z: VB Dg RR AA NN Z:
RR PD Z: AA NN VB AA RV NN Z:
Vp VB RR NN C= Z: NN C= Z:
PS Cr NN Z:
NN VB Db NN Z:
NN Vs Db Dg Z:
NN VB Db AA Z: AA NN Z:
Vp P7 PH NN RR PD NN Z:
Vp VB P7 RR NN Z: P4 P7 VB RR Z: C= Z: NN C= Z:
NN P7 PH VB Z: J, VB AA J^ VB Db NN RR AA NN Z:
RR C= Z: NN VB Vp Vf RR NN AA NN Z:
RR NN PP Vp NN NN NN J^ NN Z:
PP VB AA J^ AA Z:
RR P5 VB P7 Vp NN NN J^ AA NN Z:
NN NN RR AA NN Db VB RR NN NN RR NN Z:
RR AA NN PD NN PP Db Vp NN NN NN J^ NN NN Z:
NN Z: VB Cl RR AA NN Z: RR NN Z:
NN NN RR NN VB NN Z: J^ TT PL NN VB Vf RR NN Z:
