RR NN Dg Db Vp VB Vf P7 RR NN RR NN RR NN Z:
Vp Db Dg Vp NN Z:
Vp VB NN Z: NN Z: AA NN Z:
Vp Vp AA NN Z:
PP Vp AA Z:
Db PS NN Z: Vp VB RR NN Z:
PS NN Vp Vf AA NN Z: J^ PP Vf VB Dg NN Z:
RR Db Vp VB Vf RR NN Z: J^ Vp Vf Z:
J^ NN Vp AA RR NN Z:
J^ Vf VB RR PS AA NN NN RR NN Z:
RR NN Z: Db NN Vp VB Db Dg Vf Z:
Vp VB P7 Db AC Z:
