AA NN
AA NN AC VB AA NN Z:
Db VB RR NN RR NN RR NN Z:
VB RR NN Z:
Vp VB RR NN Z: J, NN RR NN VB Db AA Z:
PD NN Vp Cl AA NN Z:
AA NN P7 Vp RR AA NN Z: Db Vp AA NN Z: Vp Db NN Z: NN Z: AA NN J^ AA NN Z:
Db NN VB AA AA NN Z:
Dg RR NN VB NN Z:
VB P7 Db Vf AA J^ AA NN Z: VB Vf Db J^ P7 Vf RR NN Z: VB Db AA NN Z:
J^ RR NN NN VB NN Z: Db VB AA NN RR NN Z:
PD VB RR PH Db AA NN Z:
Db P7 VB RR NN J^ RR PD AA NN Z:
