AA NN RR PS NN
AA NN P7 VB RV Cl NN Z:
VB PD NN J^ RR NN NN Z:
Dg VB Db Cl J^ Cn NN RR NN Z:
VB P7 RR AA NN Z: Cl NN J^ NN Z:
PZ NN VB AA NN Z: P4 VB RV NN NN Z: PZ VB Db NN Z:
NN Db VB Vf Db NN Z: J^ Dg RV NN Z: J^ NN VB Dg RV NN Z:
PZ NN VB NN Z: Db VB Vs NN J^ NN Z:
PP VB Vs NN Z:
RV NN VB Ca AA NN Z: Db AA NN J^ NN Z:
AA NN VB Z: II Z: Z:
VB AA NN J^ VB Vf RV NN J^ NN Z:
Dg P7 NN RR NN X@ VB AC Vf RR NN RR PD Z:
NN NN VB Vs RR NN J, NN J^ VB AA NN RR NN Z: J, Vp J^ Db RR NN Z:
