Vf P7 NN NN RR Z: PQ PH Vp J^ Vp AA NN Z: J^ Z: VB P7 NN RR NN Z: Z: Z: VB RR PH Db AA Z:
J^ VB RR PS NN VB Z:
PQ P7 VB Cr NN Z: VB PP Z: J, NN NN RR NN Z: Vf Z: J, PD Z: PQ VB Z: VB Dg PZ AA Z:
Vf NN Db Z: J, PD VB PP Z: PD VB NN J^ PP VB Db Vs Z:
VB PD Db Z: J, PD Z: J, P7 NN VB Vf AA NN Z: VB RR AA NN Z:
Db RR NN Z: RR P4 VB NN Z: RR NN Z:
Db VB Z: J, VB P7 Vp Vf AA NN Z: J, Vc P7 PS NN Db Vp Z:
VB PP J^ AA NN AA NN J^ NN Z:
J^ J, Vc Vp Dg Vf RR NN Z: PQ RR PH VB NN Z: VB Z: Dg Z: Z:
VB PD Vs Db RR NN NN Z: P4 RR NN VB Z:
VB P7 Dg Vf PD NN Z: Vf RR P6 Cl NN VB Vf P7 NN Z:
VB P7 Z: J, RR P6 Db Cr NN VB Z: TT P7 PH Db VB AA NN J^ AA NN Z: Db PH VB AA NN NN Z: Z: NN NN Z: Z:
NN Z: P4 VB AA PW AA NN RR NN RR NN Z: NN Z: Z:
J, VB P7 Cv Vp RR PD Z: J, P7 VB Vf AA AA NN Z: AA Z: AA Z: Dg J^ PZ AA NN Z: Z: Dg P7 PH Vp NN Z:
J^ Vp VB P7 Dg Z:
RR Cr NN VB P7 J^ Vp Db Dg Z: Db NN Z: NN Z: Z: RR AA NN RR NN VB Z:
NN RR PD NN RR PH Vp Db Dg Z: Db RR NN Z:
RR AA NN RR PP Db RR NN Vp Cl NN RR NN Z:
Dg RR NN NN Z: P4 VB RR AA NN Z:
NN RR NN J^ AA NN RR PH RR NN Db VB Z:
PQ PH Vp AA NN Z:
VB Z: Dg Z: Z:
J^ RR NN Z: PQ PH Vp Z: Z: VB Z: PQ Vf Z: Dg PW Z:
PQ NN VB NN PZ Vf Z:
NN J^ NN Z: P4 AA NN J^ Db Dg Vc Vp AA RR PD Vf Z:
J, Vc Vp Z: J, NN RR NN VB Z: Vp Vc PD Dg PD Z: PQ P7 VB Z:
VB NN J^ NN RR PH VB Ca Z:
VB P7 Z: Db VB RR NN P8 NN RR AA NN Vp RR AA NN Z:
TT J^ Z: J, Vc Vp J^ J, Vc PH Vp AA AA NN Z: J^ RR PD Z: J, VB Db Vp Vf AA J^ AA Z:
VB NN NN NN Vf AA Z:
VB Z: J, TT Z:
J^ VB Db Db NN PZ AA Vf Z:
Db VB AA PZ Vf NN Z:
Vf PZ Z: RR PQ NN Db Dg VB J^ TT PZ NN Z:
Db Vc PD Vp RR NN Z:
VB P7 NN J^ AA VB P8 AA Vf Z:
NN VB Dg Vf AA NN Z: J^ NN PP Db VB Z:
NN VB RR NN Z: RR PD Vc AA NN Vp Z:
Db P7 VB Vf P7 RR PD Z: PQ VB PD NN Z:
NN VB RR PP PL Z: VB PD NN PL Z: PQ PP VB Z: NN Z: NN Z: NN RR NN Z: P4 VB Db Vs RR NN Z:
AA VB Vf PL Z: PQ VB Z: RR NN Z:
Db VB NN J^ PL VB AA J^ AA Z:
NN VB RR PP PL Z:
