VB NN Z:
J^ NN P7 VB NN Z:
PP VB AA NN Z: Xx AA Z: VB AA NN J, VB Db AA Z:
NN VB AA NN J^ AA NN Z:
PP VB AA NN Z: AA NN Z: J^ PD VB AA Z:
RR AA NN Z:
NN NN Xx AA Z: J^ AA NN Z:
PP VB Db AA Z:
PP VB Vf Z: PD Z: VB Db Vf Z:
NN VB AA Z: AA Xx Z: AA Z: AA Z:
PP J^ PP NN Z: VB AA J, NN NN Z:
PP VB Db AA NN J^ RF Z:
PP VB Db AA Z:
NN PP VB AA NN Z:
