VB P7 NN Z:
Vp VB P7 NN Z: VB RR NN Z:
RR AA NN NN Z:
VB Db RR NN RR Z: NN Z:
VB NN Z: NN J^ NN Z:
Db VB RR AA NN RV NN NN RR Z: VB AA Z:
AA NN VB NN Z: VB RR AA NN Z: RR NN RR NN RR NN NN Z:
VB Dg Z: AA Z: AA NN Z:
AA NN J^ NN PP VB J^ Dg RR NN Z:
