Vi Z: J, P7 PP Vp
VB P7 NN Z:
VB PH Cn NN Z:
VB RR NN VB Db Z:
VB NN Z:
VB Dg Z: X@ VB P7 NN Z:
J^ RR NN Z:
NN VB P7 NN Z:
VB C= NN Z:
VB Z:
NN VB P7 NN Z:
VB C= NN Z:
VB NN Z:
VB Cl NN Z:
VB NN J^ VB Db AA Z:
VB C= NN Z:
VB AC J, VB Db Z:
