Db Dg J^ Db Dg
PD VB Db AA NN Z:
VB Z: J, PD VB NN Z: J, Db RR PP VB PS AA NN Z:
Db Z: Db NN Z: P4 Db VB Vf PL Z: VB Vf Db J^ Vf RV P8 NN Z: RV P8 NN Z:
J^ PD VB Dg Z: J, AA NN VB P8 NN J^ VB Vf Db Z:
PS NN Db VB Z: Z: VB P7 Vf C? VB Z: J^ Db VB Vf Db Z: Z:
J, Dg VB Dg RR AA NN Z: VB NN RR Db Z:
VB Db Db NN VB RR P8 NN J^ Dg RR AA NN Z: J^ Db Db Db VB Vf Z:
J^ Db Db VB Z: PQ Vp Db AA RR PP Z: J^ PQ VB Vf Z:
Db Z: J, VB Db Z: VB Z: Db VB PD AA Z: J, VB NN J^ VB NN Z: Db Db RR PP VB Z: Db PL AA J^ Db VB Vf PL Z: PQ VB Z: Db PL Db Z: Db VB J^ Db VB NN J^ NN Z:
