PP VB AA J^ AA NN VB AA RR X@ PP VB C= NN Z: VB AA NN Z:
PS NN VB PS AA NN X@ PP VB Ca AA NN Z: J^ NN PP VB AA Z:
J, PP VB NN RR P5 Z: VB VB RR P6 PZ NN J^ Z: NN Z: PD VB AA NN P4 PP Db P7 VB Z:
PL RR PS NN PS PP VB Ca NN X@ J, NN RR P5 X@ Xx NN VB NN J^ NN Z:
VB P8 AA NN Z:
