AA NN Z:
Db VB P7 Vp RR NN Z:
NN RR NN Z:
VB RR NN Z:
VB AA J, PP Z:
VB AA Z:
VB AA J^ AA NN Z:
NN P7 VB AA Z:
VB AA Z: AA J^ AA Z:
Db VB Db AA Z:
NN VB RR NN Z:
X@ VB Dg J^ Dg Z:
NN VB AA NN Z:
Vi P7 Dg Z:
PS NN Z:
