VB NN NN RR NN RR NN Z: RR C= RR C= Z:
Db VB NN Z: J^ VB NN RR NN RR C= Z: VB P7 RR NN RR NN RR C= Z: VB PS AA NN RV NN RR C= Z:
RV NN VB RR NN RR NN RR C= J^ RR NN VB RR NN RR C= RR C= Z:
RR NN J^ NN Db VB NN Z: J^ RR NN RR C= VB RR NN RR NN NN J^ RR NN RR C= VB Vf NN Z:
