PP Vc Vp Z: J, AA NN RR AA NN VB Vf AA RV NN RV AA NN Z:
J^ VB NN Z: RR PH Z: VB J^ NN AA Z:
J^ PD VB Dg Z:
J, NN Z: P4 P7 VB RR NN J^ VB Z: Db Z: Vf NN VB Vf NN RR NN AA NN RR AA NN J^ PH VB NN AA NN Z:
J, PP P7 Vc Vp RV NN NN NN RR AA NN Z:
NN VB Vf NN NN Z: RV P4 NN Vs RV AA NN RR NN Z:
