VB J^ RR NN Z:
VB RR NN Db C= NN Z:
RR NN RR NN Db VB NN Z:
RR NN RR C= NN AC VB NN Z: RR NN RR C= NN P7 VB RR NN Z:
AA NN RR C= NN VB AA NN Z:
RV NN VB RR NN RR NN Z:
AA NN RR C= NN RR C= NN VB RR AA NN Z:
RR NN VB NN RR NN NN Z:
NN NN PP AA NN Z:
RR NN VB Vf NN RV P8 NN Z:
VB P7 RR PS NN Z:
Vi P7 Dg Z:
PS NN Z:
