VB RR NN J^ VB NN RV NN Z:
NN VB RR C= NN Z:
VB P7 RR C= Z:
Db VB Dg Z: J, VB PZ NN Z:
RR NN RR C= P7 VB RR NN Z:
RV NN RR C= VB AA NN Z:
RV NN VB RR NN RR NN Z:
RR NN VB RR NN Vf Z:
RR NN VB Vf RR NN Z:
RR NN RR C= NN RR NN RR NN NN Z:
RR NN RR C= VB NN Z:
PS NN NN Z:
