NN VB PD AA Z: PQ VB Z:
J^ RR P5 VB Vf Z:
Z: NN NN Z: Z:
J^ PQ RR PD VB Z:
PD VB Db AA NN Z:
NN Z: VB J, NN Z: P4 VB Vf NN Z: J^ Vf Z:
RR PW NN VB Vf PP Z:
AA NN VB Vf Vs RR AA NN J^ RR AA NN Z:
VB NN Z: P4 VB Dg Vf Z: Vf Z: J, PH PS NN Vp Z:
J^ VB Vf P7 Vf PP PD Dg Z:
VB PP Vf PZ Db Z:
RR P8 NN Vp J, Dg J^ Dg Vp NN Z: J^ Dg J^ Dg Vp NN Z:
Db Vc Vp Z: J, NN PH Vp Db NN Z:
NN Z: P4 NN VB Vf AA Z: RR PS NN Z: VB PZ Vf RR P6 Z:
Dg Db PD VB Z: J^ VB P7 Vf Z:
