VB Vf RR NN Z: P4 PH Dg Vp Z:
VB P7 NN Z:
J, VB P7 RR P5 Vp Cv Z: Db Vp Dg Z: J^ Vp AA NN RR NN Z:
Vp VB RR AA NN RR Cn NN Z:
RR PD NN RR NN Vp TT Cl NN Z: J^ Db VB P7 RR P5 Vp Z:
Db VB P7 Vp RR NN Z:
PP PH Vp NN Z: J, VB Vf NN Z:
RR NN Z: Dg VB Vp RR P5 Z:
RR NN VB Vp TT Dg Z: J^ RR NN Z: J, RR Cl NN VB Vp Vf Dg Z:
