TT NN Z:
Z: VB P7 Vp NN RR NN Z:
NN VB AA J^ VB AA NN Z:
VB J, Z: NN Db VB AA Z:
TT NN VB Db Dg RR NN Db VB PZ NN Z:
VB PH RR NN Z:
VB J, VB Vf RR PS NN J^ PD VB VB PD Z:
PP VB Db AA J^ Db AA Z:
VB RR PS NN Z:
NN
