PS AA NN P7 VB NN Z:
J^ C= NN J^ VB NN Z:
PP VB Db AA Z: TT C= NN Z: VB AA NN Z: AA NN Z: AA NN Z: AA AA NN Z: AA NN J^ X@ Db AA NN RR AA J, NN NN Z:
NN VB AA NN Z: VB AA Z: AA J^ Db AA Z:
VB RV NN Z: VB NN J^ Cl NN Z: J^ AA NN Z:
AC VB RR RR NN Z: J^ RR NN Dg VB Z:
AC VB NN J^ VB RR NN Z:
Dg RR NN RR NN VB RR NN Z: VB Db AA AA NN Z:
AC VB NN Z:
Vp VB P7 TT C= NN Db Z: Db Vp VB Vf RR NN Z:
Db Db VB NN Z: VB NN J^ Db P7 VB RR NN Z:
NN VB Dg AA NN P4 AC Z:
