TT NN Z:
Db P7 VB Z:
VB P7 Dg Z:
Vp VB RR NN J^ Vp VB RR NN Z:
Cr NN VB Vp Cn NN Db Z:
RR C= VB Vp NN RR NN Z:
RR C= Z: C= VB Vp RR NN Z:
RR C= VB Vp PL NN Z:
RR C= VB Vp RR NN J^ VB Vp AA NN Z:
RR C= VB Vp RR NN J^ VB P7 Vp AA NN Z:
RR C= VB Vp RR NN J^ Vp VB Z:
RR C= VB Vp RR NN J^ Vp VB NN Z:
VB RR PS AA NN Z:
Vi P7 AA
PS NN NN
