PS AA NN RR AA NN VB NN Z:
RR NN Vp VB NN RR NN PS NN Z: Db P7 VB RR NN RR NN J^ RR NN PS NN Z:
RR NN VB Vp NN J^ NN RR NN Z: Db Vp Ca AA AA NN Z: P4 VB Vp Vf J^ Vf Z:
Vp Db AA NN RR AA NN Z:
TT C= Z: C= Z: VB NN AA AA NN Z: Db NN Z: NN J^ AA NN Z:
RR NN VB P7 Vp RR NN Z: Vp VB AA NN Z:
J, VB Vp Cv RR AA NN Z: RR NN J^ NN Z: PD Vp NN Z: J^ VB Vp Z: J, VB NN Z:
Db Db VB RR NN Z:
J^ Db VB Z: J, RR NN VB NN NN Z:
