PS AA NN VB Z: AA NN Z: Z:
AA NN Cr NN VB AA NN Z:
NN VB Dg Z:
J, Db VB Vf Dg NN Z:
J, Z: NN VB Vf Dg NN J^ NN Z:
NN J^ NN P7 VB RR NN Z: VB J^ VB J^ VB RR PZ Z:
VB AC AA NN Z: Z:
Db VB RR NN Z:
RR NN VB P7 VB RR NN RR NN Z:
VB RR NN J^ VB RR NN J^ VB RR PZ Z:
Db PS AA NN VB Z: AA NN Z: Z:

