NN Z: Db RR C= NN Z: NN NN Z:
NN Z: Db RR C= Z: VB NN Z:
NN Z: RR C= NN Z: VB RR NN Z:
C= Z: RR C= NN Z: VB Z:
NN Z: RR C= Z: VB RR NN RR NN Z:
NN Z: RR C= Z: VB NN Z:
NN Z: Db RR C= NN Z: VB P7 RR NN Z:
NN Z: X@ C= Z: VB RR NN Z:
