TT NN Z:
Db P7 VB Z:
Db Z: Vp VB P7 AA NN RR NN Z:
Db Db VB AA Z: J, VB Vf AA NN AA NN Z:
P8 AA NN VB AA NN J^ NN RR NN Z:
AA NN VB AA Z: TT NN Z:
AA NN VB RR PH AA Z: J, VB NN NN RR NN NN Z:
Vp VB AA NN RR NN Z:
NN VB AA J, AA NN Z:
NN VB Dg RR NN J^ Dg NN J^ NN J^ NN Z:
Db P7 PH VB Db Z:
Db Db VB P7 Vp NN Z: J, NN Vp NN Db Z: Z:
PP Vp Z: J, Vi Z:
VB AC Z: J, NN VB AA AA NN Z:
NN Z:
J, VB NN AA NN Z: Vi RV PP RR NN Z:
Dg VB Z: J, Z:
NN PS NN Z:
VB P7 RR NN RR PP Dg Z:
NN Z:
NN
