TT NN Z:
Db VB RR AA NN J^ VB RR NN Z:
VB RR NN J^ VB RR NN X@ NN RR NN Z:
TT PD VB AA J^ VB Vf Dg Z:
J, NN RR NN VB Vf Dg J^ Dg Z:
NN Z: VB AC Z: J, VB Db Z:
Db Z:
Db VB AA NN J^ VB Db Cv NN Z:
VB RR AA NN Z: J^ VB AA Z:
VB AA J^ AA Z:
VB AA AA NN J^ AA NN Z:
VB RR AU NN RR NN Z:
VB Cn Cl NN Z:
J, VB Vf Z: VB RR NN J, NN Vf Z:
VB Db AA Z:
AA NN VB Db RR NN Z:
Vi PL Z:
VB P7 RR PD NN Z:
Vi P7 Dg Z:
NN Z:
TT
NN
