AC VB NN Z:
VB Vf RR NN Z:
J, VB Vp AA Z: PS AA NN Vp NN NN Z:
J^ PS AA NN Vp Z:
Z: NN Z: Z: J, RR PH Z: PD Vp AA Z:
NN RR NN Z: Z: Z: NN X@ Z: Z: Z:
Db Z: AC VB NN Z: J^ AA NN J, VB AC NN J^ NN Z:
PD VB AA NN Z:
Db RR PH Z: AA AA NN VB Z: NN Z: RR NN NN NN Z:
PD VB RR NN NN NN RR NN Z: P4 Vp AA NN RR NN RR NN Z:
J^ Vp AA Z: Vp PH TT C= NN Z:
Db VB Vf Db J, VB NN J^ Vp Vc Vf Db NN RR NN NN J, Z: NN Z: Z:
