NN C=
RR NN Z: AA AA NN VB Dg NN Z:
Db Db Ca NN PD VB Z: Db RR NN J^ RR NN Z:
NN VB Dg NN Z: Db Z: RR P5 VB Vf RR NN Z: P4 VB Dg Z: J^ VB Dg Vf J^ Vf P8 NN RR P5 Z:
J^ PD Dg VB Db NN Z:
PP P7 VB Z: J, PS AA NN VB Z: NN AA NN Z: Z:
VB Cl NN RR NN Z:
Cl NN Z: P4 Vp RR AA AA NN Z: Dg Vp PZ AA RR Cl AU J^ PS NN RR NN Z:
NN Z: P4 PD Vp Z: P7 Vp J^ Vp PK Dg VB PD Z:
PP PP Vp RR NN Z: J^ Db PL AA NN RR PD NN RR NN Z:
VB Z: J, PD NN Vp Dg AA Z: J^ PD VB Dg Z: J, Z:
AA NN VB Vf NN RR AA NN Z: J^ J, RR P5 Db VB Z:
NN AA NN VB Dg AA NN Z: J^ Db VB Db Db AA NN Z:
VB RR PD Vf NN Z:
Z: Vi RR PD Z: J, VB Vp Dg Z:
