TT NN Z: VB Db RR NN VB RR NN RR C= Z: VB P7 P7 Vf RR C= RR NN NN Z: J^ Db VB NN NN C= J^ C= Z:
J, Vc PD Vp Z: VB Db Vf NN Z: NN NN Z:
NN C= Z: AU C= Z:
Vp VB Db Vf VB J, Vp VB P7 AA NN Z: J^ Vp PD AA Z: Cl NN Vp C= X@ Z:
VB P7 RV NN Db Z: J^ RR P8 NN Z: J, VB Vf RV PP Z:
VB Db AA NN Z: J^ VB Dg AC J, PP VB Z:
VB Vf RR P5 AA NN Z:
Db TT Z:
VB P7 RR X@ Z:
PS NN NN Xx Z:
