VB RR NN Db Cl NN Z:
Vp Vc PH Vf PQ VB AA NN Z:
RR NN RR NN VB NN Z:
NN VB RR C= NN J^ VB RR C= RR NN Db RR C= NN VB NN Z:
RR NN RR C= NN P7 VB RR NN Z:
RV NN RR C= NN VB AA NN Z:
RV NN VB Db RR NN RR NN Z:
RR NN RR C= VB RR C= NN VB Z:
RR NN Db VB Dg J^ RR C= NN VB RR NN RR NN NN Z:
RR NN Db Db VB Dg J^ RR C= NN VB NN Z:
VB P7 RR P8 NN Z:
