TT NN Z:
Db P7 VB Z:
VB P7 Dg Z:
VB AC Z: J, VB Db RR NN Z:
J, VB Db RR NN Dg Z: VB RR NN J^ VB Vf Dg AA NN Z: NN NN Z:
J^ Dg P7 VB RR NN RR Cn NN RR AA NN PD VB NN Db Dg NN VB Dg Z:
RR NN VB Dg AA NN Z: VB Db Db J^ VB Vf Dg RR NN J^ VB RR AA NN Db VB NN Z:
Db VB RR RR NN RR NN NN Z: PD VB Db AA J^ AA NN Z:
Vi P7 AA Z: VB P7 Dg Z:
PS NN Z: NN
