C= NN Z: P4 PH RR NN Dg Vp Z:
VB P7 Vf PS NN RR NN J^ NN RR P5 PH VB Dg Z:
PS NN VB AA Z: VB Db AA J, PP J^ AA Z:
VB AA Z: AA J^ Db AA Z: J^ Dg VB AA Z:
VB PH Db Z:
Db PH Vp Z: J, VB Vp Vf NN RR NN RR AA NN Z:
VB RR NN J^ Db VB RR NN Z:
J^ J, VB Ca NN Z: VB PH Db Z:
VB PZ Z: PQ VB Vf PL Z: J^ J, VB PZ Z: PQ VB Vf PL Z: VB RR PD Z:
Db PH VB Vf Z: J, VB PD PS NN Z: J^ PH VB TT Vf PD Z: PQ VB J^ Vf PD Z: PQ VB Z:
VB Db AA Z: J^ Db VB NN NN Z: J^ J^ P7 AA RR PP Z: J, VB PH C= NN Z:
VB PH J^ VB PP Z:
J, VB Vp RR AA NN Z: Vp VB RR NN Db RR NN Z:
Db VB Vp Z:
VB Db Z: J^ Dg VB Vp AA Z:
J^ Db NN Vp J, PP Z:
Vp PH NN J^ Vp VB PD RR AA NN RR PP Z:
Db VB AA RR NN Db J^ Db Db VB AA Z: J, VB NN NN RR AA NN Z: J^ VB P7 RR NN Z:
