NN Z:
AA NN Z: VB NN Z:
Db VB PP Dg Vp Z:
Db P7 VB Z:
Dg Z:
VB P7 Dg Z:
J, VB P7 Vp RR NN Z:
NN VB PS AA NN Z: PD VB RR NN J^ VB PP C= NN J, PP Z:
J^ VB RV AA NN Z:
J^ Db PP Db VB Dg Z:
PP VB AA Z:
J, AA NN VB Dg NN Z:
J^ NN VB AA J, PP Z:
NN VB NN RR NN Z:
VB Z: J, VB NN Z:
J, NN VB RR NN RR NN Z: Db Cv P7 VB Vf RR NN Z:
J, VB AA RR NN Z: Vi NN Z:
Db VB Vf NN NN Z:
VB PP NN Z:
VB NN Z: VB PP
Z: AA NN Z:
