Db P7 VB Z:
RR AA NN VB RR NN Z:
VB NN Db J^ RR NN RV NN Z:
RR NN Db VB Vp RR NN Z:
RR NN Db P7 Vp RR NN Z:
RV NN VB Vp AA NN RR C= Z:
Db VB NN Z: RV NN VB NN RR C= RR C= Z: RR NN Db VB Dg Z:
RR NN NN VB Vf RR NN RR NN NN J^ RR NN VB Vf NN RR C=
NN
