NN Z:
NN Z:
Db P7 VB Z:
PP P7 VB Dg Z:
Db VB RR NN C= Z:
PS NN VB Cl NN J^ AA NN J^ NN Z:
PS NN VB AA J^ AA Z:
Dg P5 VB NN J^ NN Z:
AA NN VB NN RR NN Z:
RR NN VB NN Z: J^ J^ Dg VB RR NN Z:
PS NN Z: NN Vp Z: J, PS NN VB Dg NN Z:
PD VB AA Z: J, PP VB Vf Z:
AA NN VB Vf NN Z:
VB Vf PH Z:
VB P7 Vf RR NN J^ Vf AA NN Z:
VB P7 AA NN Z:
Vi P7 Dg Z:
TT Z:
NN
