AC VB NN RR PP Z:
Db P7 VB Z:
VB AA Z: J^ AA NN Vp AA Z: J, VB Vp NN RV NN J^ Vp VB Vf NN RR NN RR NN Z:
Db VB P7 Vp RR NN J^ VB Vp NN Z:
RR NN VB Vp RR NN RR NN RR NN AA NN Z:
J^ RR NN VB Vp Vf RR P6 AA NN Z: Vp TT Cl NN RR C= RR C= NN Z:
J^ VB Vf Db VB NN RR NN NN J^ Db VB NN Z:
NN
