TT NN Z:
Vp VB PS NN J^ Vp P7 J, Vp Vc Vf RR NN Z:
Db VB Vf RR NN J^ RR NN Z: J, RR VB RR NN VB Vf Z:
VB P7 RR C= Z: NN RR NN RR NN Z:
VB Db Vf RR PP Z:
Db VB Vf RR NN Z:
Db VB RR AA NN Z:
Db VB AA NN J^ Ca AA NN Z: TT RR Db VB RR NN J^ VB P7 Vf RR AA NN Z:
Db VB RR NN RR NN J^ Db VB Vf Z:
VB J, PD VB Db AA Z:
Db P7 Vi Dg Z:
PS NN Z:
