Z: Db Z: Db VB RR PS NN Z:
Db VB NN J, RR PP VB PL X@ Z:
PP Db VB P7 Db Dg Z:
Db VB Vp AA NN Z: Vp VB RR NN J^ J^ VB Vp Db Dg J, Dg J, VB RR NN Z:
RR C= NN VB Vp NN NN Z: Vp VB RR NN Z:
RR NN TT PD Vp Db RR C= VB Vp NN Z:
Db RR C= NN VB Vp RR NN Vf NN Z:
RR C= VB P7 Vp NN Z:
RR NN RR C= Vp VB RR NN Z: Vp Db AA NN Z: J^ J^ VB P7 AC Vp RR NN Z:
Db VB P7 Vp Db Z: J^ TT RR C= VB Vp Vf PD NN Z:
RR C= VB P7 Vp RR NN Vp Db AA NN Z:
RR C=
Vi P7 AA Z: J^ Vi X@ Z:
PS NN
