NN Z: C= Z: C= Z: C=
J^ Vp VB AA NN Z:
AA PH PD Db J^ Vp VB AA J, Vp NN RR NN Z:
NN VB AA PD NN Z:
VB NN NN Z:
Db VB AA NN J, NN J^ NN Z:
VB NN Z:
AA NN VB P7 Vp Z:
PS NN VB AA Z:
Dg VB NN J^ AA NN NN VB RR NN Z:
Db P7 VB PD Z:
VB PZ AA NN RR PS NN RV NN Z:
VB J, PL VB Vf Dg J^ VB Vf PQ VB Z:
PS NN VB J^ VB PD Dg NN Z:
VB J, VB VB Vf Db AA NN Z:
VB PH Dg NN J^ VB P7 RR PP Z:
RR NN Z:
NN
