TT NN Z:
VB AA AA Z:
Vp VB NN RR NN Z:
VB PD Db Dg Z:
Db NN VB AA NN Z:
J, VB NN Z: VB NN Z:
NN RR NN J^ J, VB Db Z: VB AA NN Z:
PS NN VB Dg RR NN Z: J^ J, VB RR X@ Z: VB PD Dg Dg Z:
Dg AC VB Vf J^ VB J, VB NN RR NN Z:
VB Vf Vf RR PS NN J, VB Z:
VB PH Z:
NN
