PS AA NN Vp RR NN Z:
Vp PH C= NN Z:
Vp VB NN Z:
PD VB PS Cr AA NN Z: J^ VB RR NN Z:
Vp VB NN RR NN RR NN Z:
J, VB Vp NN Z: Vp VB Db AA Z: J, NN VB Db AA J^ AA Z:
VB AA NN J^ NN Z:
Vp VB PP RR PS NN Z: Cv VB Vp NN NN Z:
Vp VB AA J^ AA Z:
PS NN PH Vp J, NN VB Ca Cl NN Z:
AA AA NN Vp RR NN Z:
RR NN VB AA NN Z: PD NN P7 VB AA NN Z:
VB Db AA Z:
Vp VB RR NN Z: PD VB Cr NN RR NN Z: Vp PH PD Z:
PD NN Vp Db AA Z: Vp VB Dg Z:
Db VB Vp RR PS NN Z: Db VB Vp NN Z: VB AC NN Z: J, P7 PH VB NN NN Z:
PD NN Vp Db AA Z:
