J, PH Vp C= NN Z: Vp VB AA NN Z: VB Vp VB NN Z:
J, Vp Dg NN RR NN RR NN PH Z:
Vp VB AA Z:
PP Vp PP Dg NN Z:
J, PH Vp C= NN Z: Vp VB AA J^ AA NN Z:
Vp VB AA NN Z:
Vp VB RV NN Z:
Vp VB C= AA NN Z:
J^ Vp VB NN Z: J, Vp Dg NN RR NN RR PH Z:
PP Vp PP Dg NN Z:
J^ PS NN Vp Db AA Z: J^ VB Vp Vf Db Z:
Vp VB RR NN Z: Vp VB RR Cl AA NN Z:
Vp VB NN Z: Vp VB NN J^ NN Z:
Vp VB RR NN Z: RV P4 VB Vp Z:
PD Vp AA NN Z:
VB AA NN Z:
