AA NN
Db P7 VB RR NN Z:
Db VB NN Z:
PP VB Dg Db RR NN Z:
AA NN VB Vp AA J^ Db VB AA NN Z:
PP P7 VB NN J^ VB RR NN Z:
PP Vp RR NN TT AA NN Z:
PP VB AA Z: AA Z: AA Z: AA Z:
PP VB NN J^ Db VB J, NN RR NN Z:
VB NN J^ NN Z:
PD VB PL Z:
TT Z:
