Db Db VB NN Z:
RR NN VB NN Z:
RR NN VB NN Z:
RR NN VB NN Z:
NN VB Db Z:
Db VB NN Z:
RR NN VB NN Z:
NN VB RR NN J^ VB NN Z:
NN VB Db Z:
NN VB RR NN Z:
NN VB Db Z:
Db VB NN Z:
NN VB RR NN Z:
NN P7 VB RR NN Z:
