RR NN Z: C=
AA NN Z:
Vp VB Cl NN RR NN Z:
J, Vp Dg RV NN Z: NN J^ NN RR C= Z: Vp Vc Vf Db RR NN Z:
NN P7 VB NN J^ VB PH RR NN NN Z:
Vp Vc P7 Vf RR PS AA NN RR NN AA NN Z:
RR NN VB NN NN C= Z: C= Z: J^ C= Z:
VB PH Z: Vi PH J^ NN RR NN Z:
VB P7 RR PS NN Z:
PS NN Z:
NN Z: Vp VB RR NN Z: J, PD VB Db AA NN Z: VB PH Vf Z:
