PS NN P7 VB NN Z:
VB AA Z: VB AA Z:
VB AA AA NN Z: AA NN Z: AA NN Z: AA NN Z:
VB AA Z:
NN VB AA Z: AA Z: AA Z: VB AA Z: AA Z:
PP VB AA Z: J^ VB Db AA Z:
PP P7 Vp RR NN Z:
VB C= NN Z:
RR NN C= Vp NN Z:
Db VB RR NN Z: J^ VB P8 NN Z:
VB AA Z: AC VB NN Z: VB AA NN Z: VB Z: VB RR NN Z:
AC VB RR P5 Z: J, PP VB AA NN Z:
Dg P7 VB RR NN RR NN Z: VB Z: VB P7 Z:
VB AA Z: J, VB PP Vp Z: J, Db PH VB NN Z: P4 Vp Db Z:
