RR NN Z: Dg VB Vf AA NN Z: J, Vp Vf Vf RR AA NN Z:
AA Z: PK VB Z: VB Vf Z: J^ Db PD VB Dg Db NN Z:
Db PL NN Z: P4 VB RR AA NN Z: VB Vf NN RR NN Z:
VB P7 Z: J, VB PD AA Z: J, VB Dg Vf Db PD NN Z: P4 VB Vp Z:
Db Z: PD VB Cn Cn NN Z: J^ Dg Z:
Db Z: J, NN VB NN Z: Db VB RR NN Z: J, VB AA Vf Z: J^ Vf NN RR P8 NN Z: J, Vf Ca NN RR NN Z:
VB PD Db AA Z: Db P7 PD VB RR AA NN Z: J, PZ VB Vf RR AA NN Z:
TT P7 VB Vf Z: Vf AA Z: J^ Db Vf Vf RR NN Z:
J, P7 PZ Dg VB RR AA NN Z: Db P7 Db VB Z:
VB PD RR PH Z: Dg AA Z:
