VB Db RR NN C= NN J^ Vp Vc X@ PS NN NN VB Db Vp Z:
J, VB Vp RR NN Vp Db Db J, VB Db Vp PL Z: J^ PL NN RV P4 VB Db Vp PH Vp Z:
J^ RR Xx VB NN P4 VB RR NN RR NN Z: J, VB Vf RR PL Z:
NN VB AA J^ AA Z: VB AA NN J^ AA AA NN Z:
NN VB Db AA NN Z:
VB PP Db Cn NN Z:
PS NN VB Db AA J^ Db VB AA NN Z:
NN VB Db AA J^ Db TT VB Dg RR NN Z:
J, VB Db RR NN VB J, PD VB Db AA J^ AA NN J^ PP Db VB PZ J^ PZ AA Z:
PP Db VB RR PQ Vf J^ Vf Db Vp PD J, X@ RR PQ Vf Z:
