AA NN Z: Z: TT NN Z:
AA NN Z:
Db P7 VB Z:
VB P7 Db Dg Z:
VB AA NN Z: Z:
VB PH Dg NN J^ PD VB J, VB RR AA NN Z:
RV NN Z: VB AA NN Z: P4 VB RR NN Z:
VB P7 Z: NN Z: Z:
VB NN RR PP Z:
VB P7 RR NN Z:
VB J, Z: VB Dg Z:
VB PH C= NN Z:
VB AA J, PP Z:
VB AA J^ AA Z:
VB AA NN Z:
VB NN Z:
VB P7 Z: NN Z: Z:
VB AA Z:
Vp VB P7 RR NN NN Z:
Vp VB AA NN Z:
NN VB AA J^ AA J, NN Z:
VB Db AA Z:
NN VB AC Z:
J^ AA NN VB P7 Vf J, VB RR NN J^ VB RR NN Z:
PD VB NN Z:
J^ PP VB PS NN NN Z:
VB Vf PH NN Z:
Db VB AA NN Db Z:
VB Vf AA NN C= Z: C= Z:
VB Z: J, VB Vf AA NN Z:
VB P7 RR NN RR C= NN Z:
Vi P7 Dg Z:
AA NN Z:
