PP VB Vf RR P8 AA NN P4 Db J, PP VB NN Z:
Vp VB P7 RR C= NN Z: J, VB Vp Vf RR NN Z:
Vp VB RV AA NN Z:
Db PP VB Db VB PS NN Z:
VB NN C= NN C= NN NN NN NN VB TT NN Z:
PS NN VB AA PS NN TT C= NN Z: Db PP VB RR NN Z: Db VB Vf J, Db Dg Z:
PQ P7 VB PS NN Z: Db PD VB Db AA Z: AA Z: AA J^ Db AA NN Z:
PW RR PS NN TT VB J, NN Z: J^ PP Vp Vf J, Vp C= NN NN Z:
RR PS NN VB Vf PD Z: J, VB AA NN Z:
RR PS NN VB Cn NN J, NN Z: NN J^ Db Cl NN Z: Cl RR P5 Db VB RR NN Z:
Db PS NN Vp Dg NN Z:
PQ P7 VB PS NN RR P5 Z: Db PP Db VB PS J^ PS NN Z:
Db PP NN Z: PP VB Vp NN RR PS NN Z:
J, VB Vp RR NN Z: Db Db AA NN VB Db Db Vp J^ Vp RR NN RR PS NN Z:
Db NN VB RR NN Z: Si Z:
