Db Db RR C= VB Vp Z: Vp VB NN RR C= Z: J^ Db Vp PW AA Z: J^ VB Vp RR NN RR NN Z:
Vp VB RR NN RR C= Z:
RR C= VB Vp Z:
RR C= VB Vp RR NN Z:
RR C= VB Vp NN RR PS NN NN Z:
Db VB P7 Vp RR NN Z:
RR C= VB Vp Vf Z:
PS
NN
