Db P7 VB Z:
PP VB RR NN Z: VB NN Z:
VB NN NN AA NN RR NN RR NN RR C= NN Db RR C= NN NN Z:
J^ RR NN VB NN Z:
AA NN VB NN RR C= NN Db J^ RR NN VB P7 RR NN RR C= NN Db Z:
RV NN VB AA NN RR C= NN Db J^ RV NN VB RR NN RR NN RR C= Db Z:
RR NN VB RR NN RR NN NN RR C= NN NN Z:
RR NN VB NN RR C= NN Db Z:
NN Z:
