AA NN NN Z:
Db P7 VB Z:
Vp VB Z: J, P7 Vp Z:
PP VB Dg Z: J^ VB P7 Vf RR NN Z:
Db AA NN PH VB Z: J^ PH PW NN VB Z:
PD VB Db AA NN Z:
J, RR NN Z: RR NN Db NN VB Db AA Z:
VB Vf AA NN TT RR NN Z:
VB Vf Dg RR NN Z: J, PS NN VB Ca NN Z:
VB NN J^ X@ Z:
AA VB NN Z:
J, VB NN Z: Db P7 VB Vf NN Z:
VB Vf J^ NN Z:
J^ VB Z: J, PD VB TT NN Z:
Vp VB Vf Vf Z:
J, VB AA NN Z: VB PH Z:
RR C= NN VB NN Z: J^ Db VB NN Z:
Db PH VB Z: J, Z: Vi P7 NN Z: Z:
J^ VB Db AA Z:
J, VB NN AA NN Z: VB P7 Vf Z:
RR NN Z:
