Vp VB RR NN NN NN J^ RR PH VB AA NN Z:
J, VB J, Cr NN Z: RR P4 VB Vp Z:
VB PL Z: J, VB PH Vp NN J* Z:
Db Db VB NN NN RR NN Z:
VB PL Z: J, VB Db Dg AA NN Z: P4 VB AA NN Z:
NN J, NN Z: NN J^ NN Z:
J^ VB AA NN J, VB RR PQ VB NN Z:
VB AA NN RR NN Z:
Db PH VB Vf PH Db Cv J, PD NN VB NN PH Z:
J^ VB TT NN NN Z:
VB Db AA NN Z:
VB PD J, NN Z:
RR PH PD NN VB AA NN RR NN Z: RR P4 VB Vf Z:
VB Z: J, VB AA X@ RR NN Z: J, PS X@ RR AA NN Z:
