NN NN
Vp Vc Vf Db Vp PS NN Z:
PD Vp C= NN RR NN RR NN Z:
Vp Db PH NN Z: VB Vp Z: Vp Z: Vp VB P7 Z:
Vp VB Dg NN Z:
AA NN Vp NN PS AA NN Z:
Db VB Vp NN J^ Vp VB NN Z: NN Z:
PD Vp AA NN Z:
VB RR PP PS NN Z:
C= Z: C= Z: C=
