NN Z: P4 PH RR NN Dg Vp PD VB PS NN Z:
VB P7 NN Z: VB AA AA NN Z: AA NN J^ Db AA Z:
AA NN P7 VB RR P8 NN Z:
J, Vp NN Vp RR NN J^ PP AA NN Vf Dg Z:
Db Db VB AA RV P8 NN Z: VB P8 NN RR NN Z: NN Z: NN Z: J^ NN Z:
J, Vp VB RV NN Vp PH J, Vp Vc Vf Db RR NN J^ NN Vp VB PD NN J^ VB Vf RR NN Z:
Vp J, VB Vf P7 AA NN J^ Db VB RR AA NN Z:
NN PH Vp J, VB RR AA NN Vp PH RR PS NN Z:
VB P7 J^ VB Vf PD NN Z: J^ X@ RR NN Z:
