J, VB Vp PH J, VB Vp NN Z: Vp Vc Vf J, PD NN Vp PP Z:
RR Cn NN Z: J, Vp PH C= Z: Vp VB X@ Z:
J^ PD VB Db Db VB Vf RR NN J^ NN Z:
PP PH Vp P7 NN AA NN Z:
Vp Vf AA NN J, VB Vp Z:
PS NN Vp PH Vf RR AA NN Z: J^ Dg Vp PH Vf J, PQ VB Vp RV NN Vp Db AA Z: J^ PD NN VB Z: Db Z: PZ NN VB Vp RR NN Z: J, PP Vp RR NN Z:
Vp Db Db RR PH Z:
J^ Db Z: RR PD NN Z: VB AA NN RR PH Z: J, Vp AA Z: X@ Z: NN J^ Vp AA NN Z: Vp VB PH P7 Vf Z:
J, VB PZ AA NN Z: VB RR NN Z: J^ VB NN Z:
PP PH Vp Z: Dg Z: J, PP VB NN Z:
