Z: P4 VB Dg AA NN Z:
Vp VB AA Z:
J, NN Vp Db J, NN Z:
Vp VB Db RR NN RR NN Z:
Vp NN NN Z:
Vp VB P7 NN Z:
RR NN Vp Db AA Z: PD NN Vp AA AA NN Z:
Vp VB TT C= NN Z:
J^ Db VB P7 Vp AA NN Z:
J^ PD PH Vp Z:
J, VB Vp NN J, VB Vp NN Z:
Db VB P7 Vp NN Z:
Vp PH NN Z:
RR NN VB Vp RR NN Z:
Db VB NN NN RV NN Z:
J^ TT Vf Z:
J, VB P7 RR NN Z:
NN VB NN Vp PH PD Z:
J^ Db VB Vp Vf Z:
J^ J, VB Vp NN Z: Vp PD AA J, PP Z:
Vp VB RV NN RR PD Z: Db Vp PD Db Z: Vp VB AC J, Vp VB P7 J^ J, VB Vp AA Z:
NN VB Z:
TT
