AA NN Z:
Db P7 VB Z:
Db Dg PH Vp Z:
Vp NN VB Vp NN Z:
NN Vp RR NN Z: RR NN Z:
PL PS NN NN Z: RR PP Z:
VB Dg NN Z: NN J^ NN Z:
VB NN Z: J^ Vp NN Z: NN J^ NN Z:
VB AA NN RR NN Z: RR NN Z: VB PH PD Z: Db Z:
J^ VB Z: J, NN VB Z:
Db Z: TT Z: J^ Vi X@ P7 Dg Z:
NN Z:
