PS AA NN VB Z: NN Z: Z: J, PS NN Db VB NN C= Z: C= Z:
AA NN VB P7 Vp RR NN RR NN Z: Db VB Vp RR NN Z:
Vp VB NN RR NN Z:
NN Vp Z: J, Z: PD VB NN Z: Z:
Db VB Z: Z:
NN Vp AA Z:
PD NN VB RR NN RV NN Z:
VB Z: NN Z: J^ Z: NN Z: Db Z:
VB P7 RR C= Z: C= Z: C= Z: Z:
