AC Db VB Z: J^ Dg NN NN PH VB Z:
RR NN Z: Vp VB AA NN J^ NN Z: J^ VB Db NN AA Z: J^ PS AA NN Vp PD NN RR NN Z:
VB PH AA NN J^ Db AA NN J^ NN Z:
Db PH VB AA NN J, VB Vf Dg NN Z:
AA NN VB RR PH AA Z: J^ VB X@ RR PS NN Z:
VB Vf Dg RR PD NN RR NN Z: J^ VB Vf Dg PQ Vp RR NN J, Vp NN Z:
Db VB PL Z: J^ Db PH VB NN RR AA NN Z:
RR AA NN Z: Vp VB Db RR NN NN Z: P4 Vp NN RR NN Z:
NN VB Db Z:
