Db P7 VB Z:
PP VB Dg RR NN Z:
AA NN VB NN NN Z:
J^ Db VB Vp NN Z:
Db VB Vp RR C= Z:
Db VB Vp RR NN Z:
PD NN Dg NN Z:
RR C= VB Vp NN Z:
Vp VB NN RR NN Z:
Db VB Vp NN Z:
Db VB Vp NN Z:
VB NN AC AA NN Z:
RR C= VB Vp RR NN RR NN Z:
J, Db Vp Db AA NN Z:
RR C= VB Vp Db J^ Vp VB Cl NN RR PS NN Z:
Db VB Vp J^ Vp VB NN Z:
RR C= VB P7 Vp RR NN Z:
Vp VB RR C= Z:
PD VB AA NN Z:
Vi P7 Dg Z:
PS NN Z:
