AA NN Z:
TT NN Z:
VB NN Z:
Db VB Vp Dg Z:
VB PH NN Z:
VB Z:
Vp VB P7 PZ NN Z:
VB P7 NN Z:
PP VB RR NN Z:
VB Db NN Z:
J, PP PS AA NN VB NN Z:
PD VB AA Z:
PP VB Dg Dg Z:
PP VB AA AA NN Z:
Db VB AA J^ AA Z:
PP VB NN AC P5 Z:
J, VB P7 VB Z: VB Db AA Z:
J, VB AA NN Z:
Vs NN Db Z:
NN Z:
C= Z: C= Z: C=
RR NN Z: PS NN Z:
