VB RR PD Z: J, NN VB NN NN Z:
RR PS NN RR AA NN AA NN VB Vf AA NN J^ Vf Db VB NN Db Z:
VB P7 PD Z: J, NN Db Vp NN J^ VB PH Vf Z:
PD VB Z: J, J, Db NN VB AA NN Z: Db Db VB Vf Dg Vf RR NN Z: VB PH Vf PZ NN Z:
J^ NN VB PL Z: P4 VB NN Z:
NN VB Vf PS NN J^ NN Z:
Db J, NN VB AA Z: J^ VB Dg P7 Vf Z: PD NN VB AA NN NN Z:
Dg AA NN PL VB Vf P4 VB J^ PQ VB Vf Z: J^ PP VB Vf AA NN Z:
PD VB PS NN RR NN NN Z:
J^ Db VB PZ NN Z:
VB Ca NN Z: P4 VB Db AC Z: J^ RR PH PS NN VB AA Z:
