RR NN VB NN Z: NN Z: NN Z: NN Z: NN Z: NN Z: NN Z: NN J^ NN Z:
NN NN RR NN Z:
NN VB AA Z: VB RR NN NN Z:
RR NN VB PZ NN J^ VB P7 RR NN Z:
NN VB Db Db Z:
RR NN Z: RR NN VB PZ NN J^ VB NN Z:
NN J^ NN VB Db Z: RR NN VB AA NN Z:
