PP J^ NN
Vp VB P7 RR NN Z:
VB AC NN Z: J, VB AC NN Z:
RR NN Z: RR PS NN Z: NN P5 Z:
J, NN NN Z: Db VB NN Z: Db VB AA Z:
PD VB Db AC Z:
AA NN Vp Z: J, AA NN VB Z: AA NN VB AA NN Z:
VB AC NN Z: J, RR NN Dg VB Dg J^ Db Vp J^ Vf Db NN Z:
Db VB AA NN Z:
Db VB Vf NN Z:
J, VB NN Z: Dg VB RR NN Z:
VB AC NN Z: J, PS NN VB NN RR NN Z:
RR NN Db Dg J^ Dg Z:
VB Vf RR NN Z:
VB Vf RR NN Z: J^ J, NN VB AA Z:
VB AC NN Z: J, Db VB AA RR AA NN Z:
RR NN VB AA NN Z: VB AA NN Z: VB AA NN Z:
VB Vf AA NN Z:
VB AC AA NN Z: J, NN AA VB AA Z:
