VB Z: J, PD NN Vp AA RV PL NN Z: P4 VB Vp RR NN Z:
NN P4 VB RR NN Vp Db Dg Z:
Dg Vp PP AA NN Z: J^ Db PS NN P7 Vp AA NN Z:
J^ PD NN P7 Vp Z: Db Vp Z: J, PD Vp PS NN Z: J, Vp NN Z:
PP VB Vp Vf AA J^ PZ AA Z: J^ PP Vp Z: J, PD VB Z:
Vp VB Db AA Z:
J, VB J, Vp PP Db PP AA NN Z: Vp VB TT C= X@ Z: J^ RR NN Db Vp C= X@ Z:
PD Vp AA Z:
PD AA NN Vp NN Db Cv Z:
J, PS NN Vp P7 Vf Z:
J^ PP P7 NN RR NN Z:
Db Vp PZ AA NN Z: Vp VB Vf PS NN Z: J, PP Vp RR PP Z:
J, VB Vp Db Z: Vp VB PW NN Z:
Db PP Db VB Vf RR PD NN RR NN Z:
J^ PQ VB RR PP AA Z:
VB RR PP AA NN Z:
Vi P7 AA Z:
