J, VB Vp NN AA J^ AA NN Z:
Vp VB Db NN RR AA NN J^ Db VB P7 Vp NN PL Z:
NN J^ NN VB Dg Z: J^ RR NN VB Vf AA NN Z:
Vp VB AA NN Z: J, P7 Vp NN Z:
PZ AA NN VB AA AA NN Z:
Db Dg VB Vp RR NN Z: J^ Db VB Vp NN Z: PQ VB AA RR PH Z:
J, VB Vp P4 P7 PH VB Z: Dg VB Z: J^ Db VB NN Z:
Vp VB P7 NN J, PD NN PL Z:
RV NN Db VB P7 Vp AA AA NN Z:
J^ Db VB NN RR PD Z:
PD P7 PH Db VB Z:
AA NN Db VB Dg Z: J, P4 NN VB AA J^ TT Z:
J, P7 VB RR NN Z: Vp Vc Vf PZ AA Z:
