PP VB Dg J^ VB AA NN RR NN Z: PP VB NN AA NN C= NN RR C= AC C= J^ RR NN VB Z:
NN RR C= J^ X@ NN NN C= J, VB AA NN Z:
RR NN RR C= Z: C= PP VB P7 RR NN AA NN J^ NN VB VB J^ VB PS AA NN RR C= Z: PP VB AC NN Z: PP VB RR NN RR NN RR C= Z:
NN VB RR C= J^ AC RR C= Z:
X@ Db VB Db VB NN Z: RR C= VB RR NN RR NN NN J^ RR NN Db VB RR PS NN NN Z: J^ RR C= VB NN RR PS NN Z:
NN
