NN Z: C= Z: C= Z: C=
TT Z: NN Z:
Vp VB PH Z: J, VB Vf RR NN Z:
RR PD VB AA NN Z: VB PH PL Z: PQ VB RR NN Z:
VB P7 Vf Db RV NN RV C= NN RR AA NN Z: VB Z: J, PD NN Db VB Z:
VB P7 NN NN Z: PS AA NN J^ NN Z: VB Vf NN J^ Vf RR AA NN Z:
Vi PH Z: PQ RR PD Vp Z:
NN Z:
NN Z:
