J, Vp VB AA Z: Dg VB Vp NN Z:
PS AA NN VB NN NN Z:
AA NN VB Vp Dg J, Cv Z:
RR PH Z: J, Cr NN Vp AA Z:
NN RR AA NN Vp Db AA Z:
Vp P7 PH Z: J, Db Dg VB NN Z:
RR NN Z: Vp VB Db AA NN Z:
J, Z: Vp Vc Vf Dg Z:
Db Db Dg PW VB Z: J^ VB Dg NN Z:
J, VB Vf NN Z: VB PL NN Z: P4 PH VB Z:
VB Z: J, PD VB Vf RR NN Z:
