TT NN
VB RR NN Z:
Db VB Cl NN Z:
Cr VB NN Z:
NN VB RR NN Z:
RR AA NN Z:
VB PH C= Z:
PP VB Db NN Z:
VB NN Z:
VB AA NN J^ VB AA Z:
PP VB AA J, NN Z:
VB AC NN J^ NN Z:
AA NN VB Db RR NN Z:
PP VB PS NN J, VB AA X@ J^ TT RR AA Z:
PS NN
