PD Vp NN VB P7 NN J^ NN Z:
J^ NN Vp AA J^ NN AA Z:
Vp RR NN J^ Db Vp NN NN RR PH NN Db Z:
PD Vp AA AA NN Z:
J, VB Vp NN Z: Db Vp Db TT C= NN Z:
PD NN VB AA J^ NN VB AA J^ AA Z:
J, VB RR NN Z: VB Db Vf Db Z:
VB P7 RR PS NN Z:
