TT Z: NN Z:
VB RR PS NN Z:
VB AC J, PL VB RR NN Z:
Db Dg VB P7 Vp Z: J^ J^ Vp Vc PH Vf RR NN Z: NN Z: Z:
VB PD RR NN NN AA NN Z: NN J^ NN RR C= Z:
Vi PH J^ Vi PH Db Vc P7 PD PD Vp Z: J^ PP VB NN Z:
Db Z: Vp Vc Dg Vf RR NN Z:
RR AU Z: RR NN Z: VB AA NN Z:
Vp Vc P7 Db Vf RR C= J^ Vf P7 Z:
Db P7 RR PP Dg Db VB Z:
Vi AA NN Z:
NN
