Db Db VB AA NN Z:
Db Db VB NN Z:
Db VB NN Z:
RR NN VB AA NN Z:
Db VB NN Z:
RR NN VB NN Z: J, VB AA Z:
Db VB NN J^ Db VB NN Z:
RR NN VB AA NN Z:
Db Db VB AA NN Z:
RR NN VB NN Z:
NN P7 AC VB RR NN Z:
Db NN VB RR NN J^ VB Z:
