Db VB Vp Dg Db Z: RR C= NN Z:
Db VB Vp NN J^ RR Vp VB RR NN J^ Vp VB NN RR NN Z: RR NN VB Vp NN Z: Vp VB NN Z: J^ Db Vp VB RR NN Z:
NN Vp Ca Db J^ Vp VB AA Z:
RR Cl NN VB Vp Db J^ Vp VB Vf NN RR NN Z:
Db VB Vp Db RR NN J^ RR C= Vp VB Vf Z:
Vp AA NN Z: J^ Vp VB Db AA J, PD VB Db Z:
Db VB Vp RR PS NN RR NN Vp Db Db Z: TT Z: Z:
NN
