Z: P4 VB AA J^ AA Z:
Vp VB Z: J, NN VB AA J^ Db VB AA Z:
J^ PD VB NN Z:
VB AA Z:
J, J, VB Vp Db NN VB Db Db AA J, PS NN Z:
TT Z: PS NN VB AA J, PH Z:
NN P7 Vp Z: PQ VB Vp Z:
Vp VB Z: J, Cl X@ AA NN J^ Db AA NN J^ Cl J* NN Z:
J^ Vp VB Db C= NN Z:
PD VB Z: J^ PS NN VB AA J^ NN Z:
Db P7 Vp VB Z:
Vp VB Dg Z:
Db VB Vp Z: J, VB Vp Z:
J^ NN VB Dg Z:
PD VB NN Z:
Vp VB AA NN Z:
J^ PQ PP Z:
PQ VB RR PP AA Z:
PS NN
