Db P7 VB Z:
VB P7 Dg Z:
VB AA J^ AA AA NN Z:
RR NN RR NN RR C= Z: C= VB Vf NN RV NN Z:
RR NN Db P7 VB Vf NN Z:
RR NN Db P7 VB Vf RR NN Z:
RV NN VB Vf Vf AA NN Z:
RR NN VB RR NN RR NN Z: Db VB Vf NN J^ Vf NN RR NN Z:
RR NN VB RR NN RR NN Z:
RR NN Db VB Vf NN Z: J^ J^ VB Vf J^ Vf Z:
RR NN Db VB RR NN RR NN NN Z:
RR NN Db VB Vf NN Z:
Vi P7 Dg Z:
NN
