AA NN Z:
VB NN RR AA J^ AA NN Z:
Db VB Z: VB VB RR NN Db Db NN Z: J^ J^ VB Vs Z:
Db NN Z:
J, NN VB C= Z: Vp VB RR AA NN Z:
Vp VB RR AA NN Z:
Vp VB Db RR NN Z:
NN VB Db AA NN Z:
Vp VB RR NN RR NN NN Z:
NN RR C= Z: NN RR C= Z: VB PD AA NN Z:
J, VB Db Dg Z: VB P7 RR NN Z:
Db VB RR NN
PS NN
C=
