TT NN Z:
RR J^ Db Vc Vp Vf RR Cl RR AU NN Z: X@ NN Z:
VB J, Db VB RR NN RR PZ AA NN Z:
NN VB AA NN J^ Db VB Dg NN Z:
PD VB RR NN Z: VB J, PD VB AA J^ Vf Z:
J^ Db PD VB TT PL Z:
PP VB PQ PH VB VB Vf VB RR AA NN PD VB AA Z:
VB RR PH Z:
