NN Z: Vp VB RR C= Z: Vp AA NN Z:
NN Z: Vp NN Z: J^ Db RR VB NN RR C= Z:
NN Z: J^ Db VB Vp RR C=
C= Z: J^ Db TT NN NN VB Vp NN
NN Z: RR C= Vp VB RR NN
NN Z: RR C= Vp VB RR NN Z:
NN Z: RR C= Z: Vp RR NN Z:
NN Z: Db VB Vp AA Z: VB PZ RR NN Z:
