AA NN Vp VB NN Z:
Vp VB Ca P8 NN J^ NN Z:
Vp NN RR J^ J^ VB J^ Db Dg AA NN Z:
Vp TT C= NN Z:
Vp VB Dg AA NN Z: Db PD Vp NN Z:
Vp VB P7 Z: Vp Z: Vp VB TT RV Cl NN NN Z:
X@ Vp Db Z:
PP VB P7 Vp NN Z: PD Vp TT C= NN Z:
Vp VB Db AA J, J, P7 Vp Db TT Vp PH NN Z:
J^ Db Vp AC J, PL Z: PK VB Vp Z: Vp PD NN Z:
Db P7 VB RR AA NN Z:
