AA NN RR NN RR NN VB NN RR C= RR C= Z: Db AA VB RR Db Z: RR NN NN NN RR C= Z: RR NN Db VB Db Z: VB P7 RR NN Z: RV NN VB AA NN TT RR C= Z:
Dg Z: Dg RR NN NN RR NN RR NN Z:
RR NN RR C= RR C= VB NN Z:
RR NN J^ NN TT VB Z:
RR AA NN NN RR NN NN Z: RR Db VB Vf NN RR C= Z:
NN
