PS AA NN VB X@ Z:
AA NN Z: PS AA NN VB X@ Db Z:
VB AA NN RR PS NN RR NN Z:
PS NN VB Db AA J, VB AC X@ NN Z:
AA NN Z: PD VB NN RR NN Z: AA NN VB AA NN Z:
RR NN Z: NN VB RR NN RR PS NN Z:
PS NN VB P7 RR NN J, P7 VB J, PP VB AA Z:
