PS NN VB P7 NN Z:
Vp P7 RR P5 RR NN C= Z:
Vp Db RV NN Z: J^ Vp NN RR NN Z:
NN VB PS AA NN Z:
VB NN RR NN NN J^ AA NN Z:
VB AA NN RR NN Z: AA NN Z: Db AA NN Z:
Db AA J^ J, VB NN Z: Db VB PH Z:
Db VB AA NN J^ AC Vf P7 RR AA NN Z:
RR NN J, VB NN VB VB Vf RR NN J^ RR NN J^ Vf RR AA NN Z:
NN VB NN C= Z: C= Z: TT TT VB PH Vf Z:
TT RR NN J, VB Db Z:
VB Db PD VB Dg J^ NN VB PS AA NN Z:
