PP P7 VB J, NN VB AA J^ RR NN NN VB AA J, NN P7 NN VB J^ Db P7 VB AA NN Z: AA NN Z: AA NN Z:
J, PD NN J^ PD NN P7 VB Db Vf J^ Vf RR AA NN Z:
AA NN VB P8 NN Vf AA NN J^ J, NN VB Dg AA Z:
Dg P7 VB Vf Z: J^ Vf J^ J, NN P7 VB Db P7 TT NN J^ NN PW TT VB J^ Db PD VB J, Z:
PP Dg VB RR NN J, NN VB AA Z: J^ VB P7 Vf NN RR NN RR AA NN Z: P7 VB RV PD Dg VB J^ VB PD AA Z: PP P7 VB Vf Db Vc Vp NN J, P7 NN Vp NN J^ NN Z: VB P7 J, Vc Vp NN NN Z:
