VB RR NN Z:
VB NN RR NN RR NN Z:
VB RR Cn NN Z:
VB Dg J^ AC VB RR AA NN Z:
RR NN VB Z: NN Cl Z: Z:
RR NN RR Cn NN VB P7 RR NN Z:
RR NN NN AA NN Z:
RR NN VB RR NN RR NN Z:
RR NN VB Z:
RR NN J^ NN VB Dg J^ VB Vf PQ VB Z:
