PS AA NN VB PS NN NN J, VB C= Z: X@ Z: Dg NN J, NN Z:
AA NN Z: AA NN VB Db RR NN NN J, PS NN VB AA Z:
VB P7 RR NN J^ RR NN X@ VB Dg Z: RR NN J^ NN Z:
PP J^ PS NN VB AA NN RR NN Z:
PD VB NN RR NN Z:
AA NN VB VB AA NN RR NN Z:
NN Vp AA J^ AA J^ Vp Vf Z:
PD Vp Dg Db J^ Dg J, Db Vp AA NN Z: PS NN NN P4 VB RR NN Z:
NN Z: P4 NN Vp Db Dg Z: Vp PP AA NN Z: AA NN RR P4 PP J^ NN Vp C= NN Z: J^ Vp RV NN Z:
AA NN Z: VB PD AA NN J^ VB RR PH Z: AA NN RR NN J, VB Cl NN RR Cl NN Z:
