PP J^ NN
VB NN AC VB NN Z: P4 VB RR NN Z:
Db Z: Db VB PZ NN Z:
PS AA NN P7 VB Z: AA NN Z: Z:
AA Z: VB Z: J, PD VB NN AA NN Z: J^ RR PH PD VB Db AA Z:
J, PD NN VB J^ RR PD NN Z:
Db Z: Dg NN Z: P4 NN Vp RR C= NN Z:
Db Db VB Z:
NN PH VB VB Z: AA Z:
