VB X@ NN Z:
RR NN Z: NN C= Z: C= VB Vf NN Z: PD VB AA Z:
RR NN C= P7 VB Vf RR NN Z:
RR NN C= P7 VB Vf RR NN Z: PD VB AA Z:
RV NN C= VB Vf AA NN Z:
RV NN C= VB Vf RR NN RR NN Z:
RR NN C= Z: C= VB RR NN Z: RR NN VB Vf NN Z:
RR NN C= VB Vf RR NN RR NN NN J^ RR NN C= VB Vf NN Z:
NN
