TT Z: NN Z:
Db P7 VB Z:
Vp P7 Z: J, VB Vf RR NN Z:
VB PD NN Z:
VB P7 RR PH Z:
Db Db VB RR PZ AA NN J^ VB RR PP AA X@ RR NN Z:
VB Z: J, Db VB NN RR AA NN Z: J^ Vi Dg NN Db VB Z: J, PP PH Vp Z:
VB Z: J, VB P7 RR NN J^ Db VB RR PZ NN J^ NN Z:
Db VB Vf RR AA NN Z:
VB Db NN NN Z: NN J^ Ca AA NN Z:
Db P7 VB Z: J^ PP Db VB Vf NN Z:
J^ PQ VB Vf Dg VB Dg Z: NN Z:
Db TT Z:
Vi P7 Z:
NN Z:
