TT NN Z:
Db P7 VB Z:
PQ VB Vf RR NN Db Z:
PP VB Vp NN RR NN Z:
Vp VB NN RR NN RR NN Z:
Vp VB P7 RR AA AA NN Z:
Vp VB RR X@ Z: Vp VB RR NN Z:
Vp VB NN RR NN RR X@ Z:
Vp VB NN RR NN Z:
Vp AA NN J^ NN Db Z:
Vp Db AA NN Z:
VB RR NN Z:
TT Z:
NN Z:
