VB P7 NN Dg Z: J^ Vp VB P7 Db Dg AA NN Z:
J, J, P7 VB Z: VB AA NN Z:
J, P7 VB TT Db VB AA NN J^ VB Vf AA Z:
J, VB PD Db Z: VB Db PL Z: RR PQ VB P7 Vp Z:
J, AA VB Vp Dg NN RR AA NN NN Z:
J^ Db VB P7 Vp RR NN AA Z: Db AA J^ AA NN Z: NN Z: NN Z:
Vp PD J^ AU Z: NN NN Z: AA Z: Vp PD J^ AA NN AA NN Z: Vi Vp PD J^ NN Cl AA NN NN NN Z:
TT P7 VB NN Dg J^ VB PD RR PH AA NN Z: J^ J^ RR NN Dg VB Dg Cl J^ Cl NN RR NN Z:
J^ Z: Dg Z: J, P7 RR NN VB Dg NN RR NN Z: VB PL Z: PQ P7 VB PS NN Z: J^ NN Z:
J^ J, VB RR PD NN Z: RR P4 Db VB NN Z: Db PP VB Vf PL Db Dg Z: Db Vc PD Vp Z:
