NN Db VB Z: VB NN J^ VB NN Z:
VB NN J^ NN Z: J, NN VB Db AA Z:
Db NN VB Db RR NN Db VB RR NN J^ VB Z:
NN VB RR C= NN Z:
Db NN VB RR NN Z:
Db NN VB NN Z:
Db NN VB RR NN Z:
RR C= NN VB Db Db J^ VB AA NN Z:
