TT Z: NN Z:
Db P7 VB Z:
PQ Vp RR NN Z:
RR NN PP J^ PS NN NN Vp RR NN Z:
Vp VB NN RR NN AA RR NN Z: J, PD VB PS AA NN RR AA NN Z:
PD NN Vp AA NN RR NN RR PH Z:
Vp VB P7 RR NN J^ RR NN Z:
PD Vp Db AA Z:
Vi PZ RR P6 Z:
VB PH AC Z:
NN Z:
