AA NN Z:
Db P7 VB Z:
Vp VB PH Dg Z:
J, Z: VB Vp RR NN RR NN Z:
Vp VB NN Z: J^ J^ Vp VB NN
RR NN VB NN Db NN Z: J, Z: Vf PP AA NN Z:
J^ VB Vp RR NN Z:
TT Z: Vp VB Db NN Z:
Db Z: Vp VB TT RR NN RR NN Z: J^ VB RR NN Z:
J^ Z: VB RR NN J^ VB Vf RR AA NN Z:
J, Z: VB AC AA NN Z:
Vi P7 AA
NN
