TT NN Z:
Db P7 VB Z:
VB J, Dg Z: Db PP VB Db Dg Z:
Vp VB PH Vf NN J, AA NN P7 Vp X@ AA NN Z:
Vp VB RR NN Z:
Vp VB NN Z: Vi RV TT VB Db NN Z: Z:
PP VB Vp RR NN RR NN Z:
Db Vp Db AA NN J, VB Db Vp Z:
VB P7 NN Z: VB NN J^ VB P7 AA NN Z: J, PP Z: Z: Z:
Db PP VB PH Z: Z: VB PH Z: Vp VB Z: VB Vf NN RR NN Z: Z:
Db VB Vp RR NN J^ Vp NN Z:
VB NN Z:
PP VB Db Db Z:
VB Vf Db J^ TT AA J^ PP VB AA NN
PS NN NN
