VB Db PD Vp Dg Z: J^ RR AA NN Db AA NN Co Dg VB Z:
PD VB Db AA RR PS NN Z:
VB Z: J, Db PD Dg VB Z:
PZ VB NN Z: J, PP Vf VB Z:
VB NN Z: Dg AA NN Z: J, AA NN Z: Z:
PP RR PD Db Db VB Z: RR NN VB NN Z: Db PD Z: AA Z: NN VB Dg Vf Z:
VB AA NN Z: J^ Cl RR P5 VB PP Vf Z:
NN PS NN Vp AA Z: Vp NN Z:
Vp AA Cn NN P8 NN Z:
J^ J, PH PD PS NN Vp Z: Vp RR PD Db AA Z: J, PD Vp Vf J^ Vp Dg Z:
J, PD NN Vp Z: Db Vc P7 Db Vp P8 NN Db C= NN Db Z:
J, RR PZ NN P7 NN Vf VB Z: Db Db Z: J, NN Vp NN Z:
J^ RR AA NN TT NN VB Dg Z: J, Vc Vp J^ PD VB Dg Z:
J^ PW RR PD VB Z: VB PD RR PS NN Z:
