NN Z: P4 PH RR NN Dg Vp Z:
J, VB Db Z: VB Dg NN RR NN Z:
Db VB Vp Db RR NN J^ Db VB P7 Vp RR AA NN Z:
J, VB Vp RR AA NN Z: Vp VB Db RV NN RR PS AA NN Z:
Db Vp RV PP Vf Z:
PP VB Vp AA Z:
RR NN VB P7 Vp PL Db Z:
PS NN Vp NN RR PS NN Z:
RR PS AA NN Z: Vp VB P8 NN Z: Dg Db Z:
VB AA Z: AA J^ AA Z:
J, VB Vp RV NN Z: Vp PH RR NN Z:
Vp PH PZ NN Z: J^ J, VB P7 Vf Vp Z:
Vp VB PP Z: J^ Db VB PP Vp Z:
J, VB P7 Vp Db Z: Vp VB Vf PD NN Z:
PD P7 PH Vp Dg NN Z: J^ Db VB Vp PD NN Co Z: J, VB Vp NN Z:
RR Ca NN VB AA J^ Vp AA NN Z:
RR AA NN Z: Vp VB P8 NN J^ Vp VB RV NN Dg Z:
PS NN Db Vp NN RR PS NN Z:
Db Dg VB Db PH Vp Z:
Db Z: Vp Vc Z: J, VB P7 Vp AA NN Z:
Z: VB Z: NN NN Z: Z:
Vp Vc Vf RR PP RV P8 NN J^ NN RR NN Z:
VB PP Dg RR NN Z:
VB PH Z:
Dg VB Z: Z:
