TT NN
Db P7 VB Z:
VB P7 Dg Z:
AA NN VB Vp NN RR NN Z:
Db Vp Z: PP RR NN Cl NN Z:
Vp VB RR NN Z:
NN VB AA J^ AA Z:
NN Vp NN J^ NN Z:
AA NN VB Vp J^ Vp Z:
Db VB NN AA AA NN Z:
PS NN VB Vf J^ PP J^ NN VB Vf Z:
J^ J^ VB Vp Z:
Db Vp Dg NN J^ AA NN Z: Z: RR NN Db VB Vp RR NN Z:
Db Vp Db AA NN Z:
TT NN Z:
