Db VB Vf PS NN RV C= NN Z:
AA NN VB P8 NN J^ Db NN Z:
NN Z: PD PP VB NN Z:
VB P7 Z: J, NN VB Db AA NN RR NN Z:
Db RR Dg Z:
VB P7 Z: J, VB AA NN Z:
VB Vf NN NN J^ VB Vf NN Z:
J^ Db VB Vf RR NN J, NN Z:
Db VB PD NN Z:
J, PD VB RR Dg AA Z:
NN RR NN VB Db AA RR PH Z:
PS NN VB J, NN Z: Dg VB PH RR PD Z:
NN RR NN VB Vf Dg Z:
VB Dg Vf J^ Db VB RR NN J^ VB P7 Vf Z:
PS NN VB VB J^ Db Db VB Vf Z:
VB P7 J, Dg VB VB PS AA NN Z:
J, Db VB AA NN J^ VB Dg Vf Z:
VB AA NN Z:
J^ RR C= NN PS NN VB AA Z: J, VB Vf NN Z:
