TT NN Z:
Db P7 VB Z:
PS NN Z: NN Vp NN AA Z:
VB Ca AC J, VB Vp NN RR NN RR TT Vf Db RR NN J^ P7 Vf RR NN J^ RR AA NN AA NN Z:
PD NN Z: Db VB Vp J^ NN Vp TT AA Z: Db Db VB PD AA NN RR NN Z:
J^ PD AA NN Vp AA J^ Db AA Z:
VB Vf Db RR PZ AA NN PD NN J^ VB TT RR NN Db RR NN Z:
VB RR NN Z:
NN
