Db VB NN J^ VB NN Z:
Db VB NN Z: Db VB NN Z:
Db VB NN Z: Db NN VB NN Z: RR NN VB NN Z:
RR NN VB NN Z:
Db VB NN J^ RR NN VB NN Z:
Db VB NN J^ PP VB NN Z:
NN VB NN Z:
Dg VB NN Z:
RR NN VB NN Z:
NN P7 Vf RR NN Z:
NN Vi Z:
