PS NN Vp RR NN RR Ca NN Z:
VB NN NN RR NN Z: NN VB RR NN Z: AA NN VB Db RR NN Z:
J^ Z: TT Z: NN VB RR PP Z:
PS NN VB RR NN RR NN Z:
VB RR PP RR NN TT AA Cr NN Z:
Db PS NN VB Z: J, NN Vp Db AA NN RR NN J^ Db RR NN J, Vp PL Db J^ Vp RR PS AA NN RR NN Z:
VB P7 Z: J, NN Vp RR NN Z: VB AA J, PS NN RR NN Z: P4 VB AA NN Z: Vp Vc PZ NN Z: NN J^ NN Db RR NN Z:
VB PD NN Z: NN VB Z:
J^ PS NN AA VB RR PD Z:
TT NN VB RR PP RR NN Z: Db NN VB X@ Z: J, NN VB Dg NN Vf RR P5 Z:
J^ PP Db VB Db AA Z:
AA NN Db Z: PD VB PS NN RR AA Cn NN Z:
