TT NN Z:
Db P7 VB Z:
VB P7 Db Dg Z: J, VB AA NN Z:
VB Db AA J^ AA Z:
Db VB NN Z: NN Z: AA NN Z:
PS AA NN VB RR NN C= Z:
J^ RR VB AA NN Z:
PP Dg VB Db Z:
J^ Db NN VB Dg PS NN Z:
NN Z:
VB Z: J, PD VB AA J^ AA NN Z: J, Z:
J^ PQ VB Z:
J^ P4 VB PS NN Z:
NN NN
