PS AA NN Vp AA J^ NN Z:
Vp VB PL NN RR NN Z:
Vp NN Z:
NN RR NN Z:
Db VB Vp AA NN Z:
Vp VB RR NN J^ Vp VB RR AA NN Z:
Db VB Vp NN Z:
J, VB P7 Vp AA NN Z: P4 Vp AA RV NN NN Z:
Vp AA J^ AA Z:
Vp VB J^ VB Vp TT NN Z:
Db PD AA NN Vp NN RR PH Z:
Vp VB RR NN Z:
Db VB Vp AA NN Z:
RR C= NN Z: PP Vp NN RR PS NN Z:
PD Vp NN AA Z:
