NN VB AA Z: AA Z: J^ J^ VB Db Db Z:
VB TT NN Z: Z: C= Z: RR NN PP VB RR NN AA NN Z: Z: C= Z:
NN AC VB RR NN AA NN Z: C= Z: Z:
RR NN PS NN P7 VB RR NN Z: Db Db VB Db NN P7 VB Z: NN X@ AA X@ Z: Z: C= Z: Z:
J^ Db VB NN Z: Z: C= Z:
