NN Z:
Db P7 VB Z:
PP VB Db Dg Z:
Db PP VB Dg NN RR NN Z:
PS NN VB Db NN J^ NN Z: J^ Db NN VB RR NN Z:
PP VB J^ VB NN RR NN Z:
PD VB Dg NN RR PH Z:
J^ Db VB Vp NN RR PP Z:
VB J, Z: PD VB Dg NN Z:
Vi P7 Dg Z:
NN Z:
