PS Dg AA AA NN Vp NN RR NN Db Db VB Vp NN J^ Vp VB Vf RR NN Z:
PD Vp RR C= NN Z:
PZ Vp J, Vp RR NN RR NN Z:
Vp VB Vf RR AA NN RV NN J^ Vf P7 RR AA NN Z:
TT VB Vp Db NN Z:
Db PS NN Vp Z: J, VB Vf RR NN J^ RR NN RR NN Z:
Vp Z: J, VB AA J^ PD VB AA Z:
TT J, P7 Db Vp PL RR PD Vp J^ Db VB Vp RR NN Z:
J, Db VB Vp Z: Vp P7 AA Z: J, PD VB Db AA J^ AA Db VB Vp Z:
Db Vp PD AA J^ AA Z:
AA NN Vp PD J, AA NN Z: Dg AA Z:
RR NN RR NN Vp Z: J, VB Vf RR AA NN J^ VB NN Z: AA NN Z: Dg NN Z:
TT AA NN VB Vp RR NN Z:
Db VB Vp NN AA AA NN RR AA NN Z:
PD NN VB P7 Vp Vf Z:
Vp VB Vf PD NN Z:
PZ Vp Z: J, VB Vf Db Z: PZ Vp Z: PZ AA Vp Vf Db Db Z:
AA NN Z:
TT VB Vp Db Z:
Db Db P7 VB RR PD NN Z: VB P7 Z:
Vp PD PS Cr NN RR NN J^ RR NN Z:
RR PD VB P7 Vp Dg NN Z: Db VB PZ NN RR NN Z: Dg Db VB RR AA NN Z:
