TT NN Z:
Db VB RR NN Cl NN J^ AA NN VB Vp AA Vf Z:
VB Db AA J^ VB Db AA Z:
Db VB NN Z: NN Z: NN J^ NN Z:
RR NN VB Db RV NN NN Z: J^ Dg NN VB NN NN NN Z:
AA NN VB NN RR NN RR NN Z:
Db Db VB RR NN RR NN NN Z: VB P7 RR PD Z:
VB P7 Dg Z:
NN Z:
