RR NN Z: C= Z: C=
TT NN Z:
Db P7 VB Z:
PQ VB RR PP AA Z:
VB AA NN Z:
Vp VB NN Z:
RR PP VB AA NN Z: PQ P7 PP Vp Z:
Vp VB NN Z: J, VB Db AA Z:
VB Vf Dg RR NN Z: J, PP VB RR NN C= Z:
Vp VB Cl Vp VB Vf NN J^ AA NN Z:
Vp VB P7 RR Cl NN Z:
Vp PL PQ Vp VB P7 Z: J, VB Vf NN Z: J, P7 VB Z:
PL VB AA J^ PD Dg VB Z:
J^ PQ PD Z:
Dg VB RR NN TT Z:
VB P7 Z:
Db Z:
NN
