Vp VB Cl AA NN RR NN RR NN Z:
NN Z: RV P4 VB Vp Z: Vp AA Z: Db AA Z: J^ Db Db AA Z:
VB AA Vf Z: J, RR NN Db Vp AA NN Z:
NN NN Z: NN NN Z: NN J^ AA NN Z:
Cl NN NN P7 Vp RR NN Z:
RR NN NN NN Vp AA J^ NN RR PH Vp AA Z:
PP VB Db Vp RR NN Z: Vp VB P7 J^ NN P7 AA NN Z:
Vp VB P7 J, NN Z:
Db NN NN RR NN AA NN Z:
J, VB PP Vp Z: Vp VB Db NN Z:
PD NN NN P7 Db Vp Z: NN VB P7 Vp Vf RR NN Z:
J, VB Vp RR NN J^ Vp VB P8 NN Z:
NN PH Vp Z: J, NN NN Z: J, VB AA NN Z:
Db VB P7 Vp Vf Z:
