TT NN Z:
RR NN RR NN VB RV NN Z:
NN VB RR C= J^ VB Db RR C= Z:
VB Z: J, VB NN Z:
RR NN Db VB Vf NN RR C= Z: RR NN P7 VB Vf RR NN RV C= Z:
RV NN VB Vf J^ Vf AA X@ RR C= VB RR NN RR NN Z:
RR NN RR C= RR C= VB RR NN Z:
RR NN Db VB Vf NN J^ RR C= VB RR NN RR NN NN Z:
RR NN TT VB Vf NN RR C= Z:
NN
