PS AA NN VB NN Z:
AA NN P7 VB AA NN RR PS NN Z:
PP VB NN J^ VB NN Z:
VB P7 RR NN J^ NN J^ VB NN Z:
Db J^ VB AA Z:
RR NN VB RR NN RR NN J, PP VB NN J^ VB Vf Z:
AA NN Db VB J^ VB PD AA J^ AA NN Z:
Db PD VB AA NN Db NN VB Vf NN Z:
