PS NN RR AA NN Vp Db AA Z:
VB P7 NN Z:
VB Db Z: J^ RR NN VB AA Z: J, VB AA Z:
NN Vp Db AA Z:
J^ NN P7 Db Vp Z:
J, VB AA Z:
TT PD J^ Vp NN Z:
J, NN Vp Z: TT Z: Z: NN RR P5 Vp Z:
RV NN Vp Cl NN Z: P4 Dg P7 VB RR NN J^ Vp PP Z:
PP Dg Vp NN Z:
VB P7 NN Z:
NN Dg Vp Vf Z: Vi PD Z: Z:
PD Vp TT AA NN RR NN Z:
NN RR P5 Vp NN Z:
TT J^ NN Db Vp RR AA NN RR NN C= NN Z:
NN Vp NN Z: J, Vp RR P5 NN Z:
