Dg VB Vp RR AA NN Z: J, Db Vp Vf PZ NN Z:
Vp VB Vf RR NN Z: J^ Vp VB PW X@ Z: J, NN VB NN NN RR NN Z: Db VB Z: AA J, Z: NN RR PZ AA NN Z:
Vp VB Db Dg NN Z: X@ Z:
Db VB AA NN NN Z:
J^ PD NN VB Dg RR NN Z: J^ J^ Vc Vp Vf PS NN Z: J, P7 Vp Db Z:
Db Cv Z: Vi Z:
RR PD J, P7 VB Z: VB J^ RR PS AA NN Z:
PP P7 VB NN Z:
Db AA NN Z:
Db TT Z:
VB RR PS NN Z:
PS NN Z: NN Z:
Z: NN Z:
Db PP VB J^ Vp VB PQ PD VB Vf P7 Z:
NN Z: PD NN Z:
TT NN Z:
