C= Z:
Db VB RR P8 AA NN Z: P4 P7 VB NN Z:
PD VB AA NN Z: VB NN NN Z: NN AA NN Z:
VB RR P5 Db AA NN Z: NN Vp PH Db NN RR NN Z:
C= Z:
J, VB Vp AA NN Z: Vp VB RR AA NN NN NN Z:
Vp VB RR NN AA AA NN Z: Vp PP J^ Db VB Vp RR NN J^ Vp Z:
RR NN Dg Vp PZ NN Z: P4 Vp NN J^ Vp Vf RR NN Z:
NN Dg Vp NN Z: J^ PH Vp RR X@ AA NN Z:
Db NN Vp PH NN RR NN Z:
C= Z:
RR NN P7 VB AA NN Z:
PS AA NN Vp RR NN C= RR NN RV NN NN RR NN NN Z:
Vp J^ Vp VB Dg AA NN Z:
AA NN VB NN NN C= Z:
