PS AA AA
VB Z: TT PD NN VB P7 AA J, TT AA NN RR NN VB AC Vs Z:
VB P7 Dg J, VB Dg Z: J^ RR PD AC VB RR NN Z:
RR Cl NN RV NN VB Vp RV AA AA NN Z:
NN Vp Cn NN Z:
AA NN VB P7 Vp Z: Vp J^ Vp NN Z:
Vp VB P7 Dg AA NN Z: Vp VB RR NN RR AA NN Z:
Db P7 Vp RR NN Z: J, Vp J^ Vp Z:
PL PQ VB Dg Dg VB Z: J^ Db Vp J^ PD NN Z:
Db RR PD Vp AA NN Z:
