Vp VB Dg RR NN Z:
J^ VB P7 Vp Vf RR NN Z:
Dg VB Vp RR AA NN Z:
Vp VB AA NN Z:
J^ NN Vp Db AA Z:
RR NN RR NN VB NN Z: J^ VB PH Vp Z:
Db VB Vp Vf AA NN RR NN Z:
PS NN VB C= Z: C= Z:
RR PP PD VB Z:
PS NN P7 RR PD Db Vp Z:
PS NN VB AA NN Z:
Db VB NN Z:
J, VB NN Z: Vi Db Z:
RR NN NN
