J^ Db VB P7 Vp Z:
VB Z: J, PP VB NN J^ J^ RR PH AA Vi VB AA NN Z:
J^ PS NN P7 Vp NN RR NN Z:
Vp NN Z: J, Vp Db AA NN Z:
PP P7 Db AC Vf Z: J^ NN Vp Vf PS NN Z:
VB PH Vf Z:
PD NN Vp Db AA J^ AA Z:
J, Vp J, NN Vp NN Z: Db Vp NN J^ Db PP Vp PZ AA Db Z:
Db VB Vf Z: J, VB Vp Db AA RR NN Z:
J, VB Vp NN Vp AA NN Z:
Db NN PH Vf J, VB NN RR NN RV PP Z:
Vi P7 Dg Z:
PS NN
