RR Cn NN VB Vp NN J^ Vp VB Db AC J^ Db VB Vf J, PS NN PP Vp VB Vf VB P7 Vf J^ Db PS NN PP Vp Z:
J^ J, VB Vp RR NN VB Vp NN Z:
Db AA NN VB NN J^ Db AC P7 VB RR NN NN Z:
J^ NN VB Db VB Dg VB RR RR NN PD VB Db AA J^ Db VB AC Vf Db VB Vf J, Db VB NN J^ PP VB AC NN Z:
J, NN RR NN RR X@ RR C= VB Z:
J^ VB AA NN Z:
