TT NN Z: Db P7 VB Z:
VB RR NN Db J^ VB RR NN Z:
VB NN NN RR NN Db Z:
NN VB C= NN J^ VB C= NN Z:
VB NN Z: Dg Z:
RR NN J^ NN Db VB Dg Z:
J^ PQ VB Db J^ Db Z:
RR NN P7 VB RR NN RV C= NN Z:
RV NN VB AA NN RR C= NN Z: RV NN RR C= NN VB RR NN RR NN Z:
RR NN VB C= RR C= NN Z:
RR NN VB RR NN RR NN NN RV C= NN Z:
Db RR NN VB NN RR C= NN Z:
VB Z: VB AA NN Z:
PS NN
