Db P7 VB Z:
PP VB Dg Z:
Db VB RR NN VB NN Z:
AA NN Db RR Cn NN Db RV NN Z:
VB RR Cl NN RR NN J^ NN VB NN Z:
RR NN Db VB RR Db Z:
VB NN Z: RR Cn NN P7 VB RR NN Z:
VB NN Z: RR NN VB RR NN RR NN NN J^ VB NN Z:
AA NN Db VB RR NN Z: VB AA NN Z: Z: NN
