AA NN VB RR AA AA NN AA NN Z:
RR NN VB RR C= NN NN Z:
PS AA NN Z: NN Z: VB Vs AA NN NN RR AA NN Z: P4 VB PS AA NN Z:
NN NN P7 VB J, NN RV NN Z: Db RV NN Z: NN Z: NN J^ NN Z: Vp Dg Z: J^ Db Dg VB J, NN Vp Db AA J, RR NN Z:
