Vp VB P7 RR AA NN Z:
Vp VB Vs NN X@ Z: J^ Vp Vc AA NN Z:
AA NN Vp PP AA NN RR NN J^ PD NN Vp Dg RR NN Z: J^ VB NN Z:
Vp VB PD NN J^ Vp VB Dg Vf RR NN Z:
J, VB P7 Vp Vf NN PD NN Z: Dg Vp VB Db Cv NN Z:
Vp PP NN RR NN Z: J^ VB Dg NN J^ Vp PD RR AA NN Z:
RR NN VB P7 Vp Z:
NN Z: Vp Vc PH Vf RR NN RR NN J^ Vf RR PD AA NN
RR NN Z:
NN
