PQ VB Vf AA NN Z:
VB VB VB Vf NN AA NN Z:
RR NN Db RR C= RR C= VB NN Z:
RR NN RR NN RR NN VB NN RR C= RR C= Z:
Db VB NN RR Db J^ Db RR NN Z: RR RR C= VB NN Z:
RR NN RR C= VB P7 RR NN Z:
RV NN RR C= VB AA NN Z:
NN RR C= VB VB Vp RR NN RR NN Z: VB NN Z:
RR NN RR C= RR C= VB
TT NN Z: PQ VB Vf AA NN Z:
VB VB Vf NN RR PW Z:
RR NN RR NN RR Db VB VB Vf NN Z:
NN VB Vf RV NN RR C= RR C= Z:
Db VB VB Vf NN RR NN J^ NN Z: AA NN NN RR C= VB VB Vf NN Z:
RR NN RR C= VB VB P7 Vf RR NN Z:
RV NN RR C= VB VB Vf AA NN Z:
RR NN RR C= RR NN RR PS NN Z: NN Z:
VB NN Z:
RR NN RR C= RR C= RR NN Z:
J^ PD VB Db J, VB VB Vf Dg NN RR NN J^ NN RR Db Z:
RR NN Db Z: C= Db Z: C= Z: VB VB Vf NN Z:
TT Z: VB VB Vf NN RR PD J^ NN VB Dg Z:
Vi P7 AA Z:
NN
