Z: J, J, VB Vp Vf PZ AA NN Z:
Vp VB Vf RR NN Z: J^ J^ VB P7 Vp RR NN AA NN Z:
Vp PP Cl NN Z: P4 P7 PP Db Vp Z:
PD Vp NN X@ Z: Vp NN Z: J^ TT Vp Dg RR NN Z:
J^ Db VB Vp AA NN Z: RR NN NN Z: NN Z: RR NN Z: AA Z:
J^ NN VB Db AA Z:
Db VB P7 Vp Db Z:
Db VB Vf AA NN Z: J, NN Db Vp Db AA Z:
C= Z: C= Z: C= Z:
PS NN Z: NN
Z: NN Z:
VB RR PS NN Z:
RR Z: NN Z:
Vp VB NN NN Z: Vf P7 Z: Z: Vi Z:
