AA NN
NN PD RR NN Z:
Db VB Vp Db AA NN Z:
Cv VB Vp RR Cn NN NN Z:
Vp VB Vf Z: J^ Vp J, RR Cl Cr VB Vp NN J^ Vp VB RV AO NN NN Z:
Db VB Vp Vf RR NN J^ Vp VB Db TT NN Z:
Vp VB NN Db Vp NN Z: J^ VB Vp NN J^ RR Cn NN VB Vp Z:
NN VB Vp Dg Vf Z: J^ RV VB Vp P7 Vf P7 RR NN Z:
Db VB P7 Vp Z: Vp VB RR NN RR NN Z:
Vp VB RR Cn NN Z: J^ NN Vp Vf RR Cn NN Z: J^ VB Vp Vf Z:
Db NN Vp Z: Vp VB RR NN RR Cn Cl NN J^ Vp Z:
RR Cl NN NN Vp VB NN J^ Vp VB RR NN RR NN Z:
VB RR PS NN Z:
PS NN NN Z:
