TT NN Z:
Db P7 VB Z:
VB Z: J, Vp VB RR AA NN RR NN Z:
Vp PD Db AA Z:
AA NN VB Vp RR C= NN Z:
Vp VB P7 Z: Vp VB J^ Vp VB Vf NN Z:
Vp Db AA NN Z: J^ J^ VB Vp RR P5 Dg Z:
AA NN VB Vp AA NN RR NN Z:
Db PH Vp Z:
Db VB P7 Vp RR NN Z: J^ Vp VB P7 RR AA NN Z:
RR C= VB Vp RR NN Z:
Vp VB P7 RR AA AA NN Z:
Db Z: Db Dg Z: Db VB Vp NN Z:
Db VB Vp RR NN Z: Vp VB NN J^ Vp VB RR NN Z:
Vp PD Db AA NN Z:
VB PH Z: J, Vp PH Vf RR NN Z:
PS NN Z:
