PS AA NN VB Z: AA NN Z: RR NN Z:
AA Z: AA NN Z: VB RR AA NN J^ NN Z:
PS NN VB NN Z:
NN PS NN VB RR AA NN J^ NN Z:
VB P7 Dg J^ VB Dg Z:
RR NN VB AA NN Z: Vs Z: Z:
PS NN J^ PS NN J^ PP VB Z: Vs Z: RR Z: AA NN Z: AA NN RR C= Z:
NN PS NN P7 Db VB Db PS NN Z: PP VB NN PS NN Z: Z:
Z: AA NN Z: VB AA NN Z:
VB NN Z:
J^ VB PD Db AA NN Z: Z:
