J, VB PD NN Vp Z: Vp J, PD NN Db VB Z:
Db VB Vp J, AA NN VB AA Z: J^ Db VB RR P5 NN Vp Z:
Db Z: PW NN VB Db RR NN Db Vp Z:
J^ Db VB PD J, VB RR NN TT Cl NN Z: PE VB Ca Z:
RR NN Z: Db VB Z: VB PD Db Z: NN P7 RR NN VB Db Dg Z: Dg RR AA NN J^ AA NN Z:
J^ J, VB AA NN Z: P4 P7 VB RR NN NN RR NN Z:
PP P7 Dg VB Z: J, RR NN RR AA NN Z: AA NN VB Db AA J^ AA Z: J^ J, P7 NN Vp Z: PW AA NN VB Z:
VB PD RR AA NN Z:
