Db P7 VB Z:
PP VB P7 Db Dg Z:
RR NN RR NN Z: VB Vf Vf NN Z:
RR X@ NN Z:
RR NN Db VB P7 Vf RR NN Z:
RV NN RR C= NN VB Vf AA NN Z:
RV NN RR C= NN VB RR NN VB NN Z:
RR NN Db VB Vf NN Z:
RR NN Db VB RR NN RR NN NN Z:
RR NN Db VB Vf NN Z:
NN Z:
