PS NN P7 VB NN Z:
VB PH C= NN Z:
VB PS AA NN Z:
Vp VB RR Cl NN Z:
VB Db AA J^ VB C= NN Z:
Db AA J, PS NN Z:
PS NN VB Db AA Z:
J, J, Vp AA Vp NN Z:
J^ PS NN VB Vf J, PS NN Z:
J, VB Vp RR AA NN Z: Vp AA RV PL Z:
PD Vp NN Z: J^ Db Z:
J, VB Vp RR AA AA NN Z:
RR P5 VB Db Vp Z:
VB J, Db PD Db VB NN Z:
