PS AA NN VB AA AA NN Z:
J, PD NN Z:
VB AA NN Z:
VB Db AA Z:
PP Dg VB RR NN Db Z: VB P7 RR NN Z:
J, RR NN VB AA NN Z:
Db VB AA NN Z:
TT RR Cl J^ Cl NN VB RR NN Z:
PD VB Db AA Z: VB RR NN Z:
VB PQ VB Vf J^ PQ P7 VB Z: NN VB RR NN NN Z:
VB P7 RR AA AA NN Z:
