TT NN Db P7 VB Z:
VB J, PL RR NN Z:
Vp Vc Vf PP VB P7 RR C= NN RR AU NN Z:
VB RR AU NN Db VB RR AA NN Z:
VB Db Vf RR X@ NN J^ Db Db VB Z:
J^ VB VB Vf RR PZ NN RR NN J^ RR NN Z:
VB J, PP P7 VB RR NN Z:
VB P7 RR PP Z:
