RR
X@ P7 VB PS NN Z: Z: NN Db VB RR NN RR NN Z: J^ J, PP VB Db AA Z: J^ VB VB Vf Vf NN RR NN Z: RR NN Db VB RR NN J^ VB NN J^ RR NN VB Vf P7 RR NN J, VB NN RR NN Z: J^ J, VB PS RR PH VB PH Z: PD VB PL PS NN Db TT VB P7 RR NN Z:
TT NN Z: Db P7 VB Z:
AA NN VB NN RR C= Z: C= Z: RR NN VB NN C= Z: RR NN VB P7 RR NN Z: RR NN VB AA NN RR C= Z:
RR NN VB RR NN RR NN Z:
RR NN VB RR NN RR NN Z:
RR NN VB RR NN RR NN NN Z:
RR NN VB Vf NN RR NN Z:
Vi P7 Dg Z:
NN
