C= Z: C= Z: NN
TT NN Z:
Db P7 VB Z:
PQ AA Z:
PP VB P7 Dg Z:
Db VB NN J^ Db Dg Z:
AA NN VB RR NN J^ RR NN VB Vf Vs Z:
PP VB Db AA J, Z: RR NN VB RR NN Z:
Db Z: AA NN P7 VB RR NN Z: Db VB Db Z: VB Vf J^ Db VB Vf RR NN Z:
VB Vf AA AA NN J^ VB AA NN Z:
RR NN VB RR NN RR AA NN Z:
RR NN J^ RR NN VB RR NN RR AA RV J^ RR NN VB RR AU NN Z: VB Db AA Z:
VB Z: J, VB Dg J^ TT VB VB Z:
Db Z: VB RR PP Z:
Db P7 Vi Dg Z:
PS NN
