Vp VB RR AA NN J^ Vp VB RR PZ NN Z:
J^ Vp VB Z:
VB NN Z: C= Z: C= Dg AA Z:
J^ VB PD Dg RR NN J^ VB Vf NN RR NN J^ Vp VB P7 Dg J* Z:
Db Db VB P7 Vp Z:
NN VB AA Z: AA NN Vp VB TT C= NN Z:
J^ Db PL VB NN Z: Vp VB PH Vf RR NN Z:
VB J^ VB PP Z:
PS NN
