TT NN Z:
Db P7 VB Z:
Db P7 VB Dg Z:
VB NN RV NN Z:
AA NN VB RR NN J^ VB P7 Dg RR C= RR C= Z:
RR NN Db VB Vf NN Z:
RR NN RR C= VB P7 Vf RR NN Z:
RV NN VB Vf AA NN Z:
RR NN Db VB RR NN RR NN Z:
RR NN Db VB RR NN Z:
RR NN VB NN Db Z: J^ VB Dg Z:
RR NN VB RR NN RR NN NN J^ RR NN Db VB Vf NN Z:
VB P7 RR PS NN Z:
