Vp VB NN RR AA AA NN Z:
PP VB Z: J, VB AC AA NN Z:
Db P7 Vp PP Z:
J^ TT Vp AA NN Z:
Vp P7 Z: J, Vp VB AA Z:
J^ Db NN Vp J, VB PZ AA Z:
PD Vp AA NN Z:
VB Vf Z: J, NN Vp Db Dg Z:
Vp VB Cl AA NN Z:
Vp VB P7 RR AA NN NN Z:
J, Vp VB Vf Z: Vp J, TT VB NN Z:
J^ Vp VB NN Z:
