Db P7 VB Z: PP VB Dg Z: VB RR NN Z: Vp AA Db Z: RR C= NN Vp Z: RR C= NN Vp NN Z: RR C= NN Vp Z: RR C= NN NN Z: RR C= NN Db NN RR NN Z: RR C= NN RR NN Z: RR C= NN Vp Z: RR C= NN Db NN RR NN Z:
Db Db Dg Z:
NN
