NN Z: TT P4 Db VB
NN Z: RR P4 Db VB Z: Dg VB PS NN Z: NN J^ Db PP Z:
TT RR Db Z: Vp Z:
Db VB Z:
Db NN AA Z:
Db VB PW VB NN J^ Db VB Db Z:
PD Vp PP Z: RR P5 J, Z:
PP VB RR PP Z: J^ Vp Z:
Z: VB P8 NN Z: VB RR P6 Z: Z: J, VB Z: VB Z: J, Z: Z: NN Vf TT RR PH Z: VB Vf PZ AA RR P6 Z:
VB Vf Db Z: PL VB AA NN RR AA NN Z:
