Db P7 VB Z:
VB P7 Dg Z:
Db VB RR AA NN NN Z: Dg VB AA Z:
RR NN RR NN Db VB Vf RR NN Vf NN Z:
RR NN Db P7 VB RR NN J^ Db VB NN Z:
RR NN Db P7 VB RR NN J^ VB RR NN RR C= NN Z:
RR NN VB Vf AA NN Z:
J^ RR NN VB NN VB RR NN RR NN RR AA NN Z:
RR NN VB Vf RR NN Z:
J^ RR NN VB Dg Db Z:
Db VB RR NN RR NN NN J^ VB NN Z:
P4 VB PS NN Z:
VB AA Z:
NN
