PS AA NN Vp VB P7 Z: RR NN AA NN VB Dg RR NN Z:
PD NN VB C= Z: C= Z:
AA NN VB Vp RR NN Z:
NN Vp AA NN J, PP Z:
J^ PP Db AA Z:
PP VB Vp NN J^ NN RR NN RR NN Z:
Vp VB AA NN Z:
Db Vp VB Z: Vp VB Db NN Z:
Vp VB RR P8 NN Z:
Db VB P7 Vp NN Z:
Db VB Vp VB NN Z:
