AA NN P7 VB RR NN NN Z: J^ VB RR P6 Cl NN J^ PD VB NN Z: NN Z: NN J^ NN Z:
RR NN VB NN NN Dg J, Cn NN NN J, PD VB AA NN Z:
NN AA NN VB NN NN Z:
AA AA NN VB Vf RR NN Z: P4 VB AA NN AA NN Z:
AU NN Z: NN Z: AA NN Vp Db PL NN J^ RR NN VB NN Z: P4 VB VB TT RR NN Z:
PD VB Z: J, PD VB AA Z: J, VB PD Db Z: J, RR PS NN NN VB Vf RR P6 NN J^ AA NN Z: RV P4 VB Vf J^ Vf NN NN Z:
