Db PH Db Vp Z:
NN Vp AA Z:
PS NN Vp PZ AA Z: Vp P7 AA NN J^ AA NN Z:
PP VB P7 Vp AA NN J^ AA NN Z:
Vp VB Db AA Z:
J^ Db Vp RR NN Vf Z:
TT Z: Vp VB PW NN RR NN J^ Vp VB NN Z:
J^ Db Vp RR AA NN Z:
Vp VB J^ VB Vp RR AA Z:
PS NN J, PP NN Z: Vp Vf NN Z: Vf P7 Z: Z:
PD VB PS AA NN Z:
VB RR P8 NN Z:
NN
