PS NN Vp AA Z:
J^ VB AA NN VB Vf Db Z: J, NN Vp J^ Vp AA NN Z:
PP P7 VB Z: J, Dg AA NN RR PD Z: J, NN P7 VB Vf Dg Z: Dg Z:
NN VB Vf NN PL Z: VB Vf NN Z: J, NN Dg PD Vp J^ Vp Z:
NN AG Ca NN RR NN Z: VB NN Vp NN Z:
Cr NN PD Z: J, NN VB Vf Dg Z: VB NN Z:
NN NN J^ AA NN RR NN NN Db AA Z:
J^ J^ NN VB PL Z: J, Vp J, PZ NN Z: J^ NN Z: J^ Db PD Z: J, VB Db NN Z: VB Vf Z: Vf NN Z: Vf NN J^ Z: Z: Z:
VB P8 NN RR PD Z: J, Vp PH Vf NN Z:
RR PD PS NN VB Db AA Z:
