VB Vp Db Vp Z:
RR PP VB AC Z:
Db VB PZ AA NN VB Db NN RR PP Vp VB Vp NN Z: J^ Vp NN Z:
Db VB Vp RR PS NN RR Z:
NN PQ VB NN Z: Vf P7 Z: Vf Z: Vf P7 Z: AA NN Z: NN Z: Vf P7 Z:
Db Db VB Z:
Dg VB AA Z:
VB Dg Vf Z:
VB PD NN VB Vf NN Z:
J^ Db PH NN Z:
Vf Z: VB Z:
Vi P7 Dg Z:
NN
