PS AA NN VB PS NN Z:
RR AA NN Cr NN VB Vp NN J, Db VB Db Vp Z:
Db VB Vp RR NN RR NN Z:
Db PH Vp NN Z: J, P7 VB Vf Z:
Vp VB NN Z:
Vp VB P7 RR Cl NN J^ Vp VB Vf Z:
Db Vp NN Z:
Vp VB PD NN Z: Db VB Db Vp Z:
J^ PD VB NN Z:
Db VB Vp NN Z:
J^ Db NN TT Vs Z: J^ Db Z: Z:
Db X@ VB PD NN Z:
VB J, PD NN Vp AA NN RR PS NN Z:
