VB Dg Z:
NN VB Vp RR C= NN Z:
Vp VB NN Z:
AA NN Z:
VB Vf NN Z:
Db VB Vp RR NN Z:
VB J^ Db AC NN Z:
VB P7 RR C= NN Db Z:
Db Db VB NN RR NN RR NN Z:
VB Vf AA AA NN Z:
RR NN VB RR NN Z:
VB Vf NN J^ VB Vf Z:
PQ VB Vf TT Db Z:
VB Vf Db Z:
PD VB NN Z:
VB RR PS NN Z:
NN
