RR NN C=
AA NN Z:
Db VB Vp RR NN J^ VB VB VB PP PQ Vp Z: J, Vp Db Z:
RR C= NN Db VB Vp Z: Vp P7 Z:
Db RR C= VB Vp Vf NN Z: NN Z: PD Vp AA Z:
TT RR C= VB Vp RR NN Z:
NN VB Vp Db RR C= Z: J^ C= Vp VB RR NN J^ Vp VB RR NN Z:
RR C= Db VB Vp RR NN Z:
RR NN VB Vp RR NN Z: Db Vp AA Z:
RR C= NN VB Vp RR NN J^ Vp NN Z: Vp Db AA NN Z: TT Vp PL RR PP Z:
VB P7 RR PS NN Z:
PS NN
