PS AA NN VB NN J, VB RR NN J^ NN J^ VB AA NN J^ VB AA NN J^ NN Db J^ NN RR PH VB NN J^ PL VB RR NN J^ VB NN J^ VB AA J^ NN Z:
VB NN AC NN J^ VB J^ VB AA NN J^ VB Dg NN J, PP NN J^ VB Db VB P7 RR NN Z:
NN
