TT NN Z:
VB NN Z:
VB NN Z: J, VB Vf RR NN Z:
Vi Z:
VB P7 RR NN C= NN Db RR AA NN Z:
VB P7 PH PD Z:
Z: C= Z: C= Z:
Vi RR AA AA NN RR NN Z:
J^ Db VB RR NN NN Z:
RR NN VB Vf AA NN NN J^ AA NN Z:
VB PD AA NN Z:
VB P7 RR PS NN Z:
Vi PH Z:
AA NN Z:
NN Z:
C=
