PS AA NN VB NN Z:
AA NN C= NN P7 VB RR NN J^ Db VB Vf NN AA NN Z:
NN VB RR NN RR NN Z:
RR NN VB Dg J, AA VB Vf PZ NN RR P8 NN Z:
Dg PD VB Db NN NN Z:
Db VB Dg J, J, C= NN J, VB P8 NN Z: Db VB Vf PZ NN Z:
J, RR PH PD VB Db Dg NN Z:
