RR NN RR NN Z: RR C= RR C= VB NN RV NN Z:
RR NN Db VB Dg J^ RR C= RR NN NN RR NN RR NN NN J^ RR NN Db VB NN Z:
RR NN Db VB NN J^ RR NN P7 VB RR NN Z:
NN Db VB AA NN Z: RR NN Db VB RR NN RR NN Z: RR NN Db VB RR NN Z:
NN Z:
