PD VB AA AA NN Z: Db P7 VB Dg Z:
PD NN P7 VB Z: RR NN Z: Z:
Vp VB NN J^ J, Vp AA RR NN NN Vp NN Z:
Vp VB TT AA NN J^ PS NN NN Vp AC PZ AA Z: J^ J^ Vp AA NN Z:
Vp VB Dg NN Z:
Db VB Vp Z: J, VB Vp Vf Db P7 NN Z:
NN Vp TT C= NN J^ Vp VB Db NN J^ Vp Vf PZ NN Z:
PD Vp NN Z:
VB Z: J, PD VB AA J^ Db PD VB PW AA Db Z:
Vi P7 Dg
NN
