PS AA NN VB RR NN Z:
J, NN RR NN Z:
VB Db Db Z:
VB P7 RR NN Z:
PD VB AA J^ AA NN Z:
VB AA NN Z: PD VB NN RR NN J^ NN J, NN Z:
J^ Db Z: VB NN RR NN Z:
NN VB Vp AA NN J^ PD Vp AA Vf RR NN Z:
Dg VB Vp RR NN RR NN Z:
PD Vp AA Z:
RR NN Z: RR C= NN Z: Db VB RR NN RR NN Z:
AC VB RR NN RR NN J, P7 VB NN Z:
