AA NN VB PZ AA RV X@ P8 NN Z:
J^ Db RR P5 VB Z: Z: Z:
Vp P7 PD RR Ca NN Z:
Vp VB P7 RR NN Z: J, VB Vf NN RR NN Z:
PL VB Vp RR NN Z: AA NN Z: NN J^ AA NN Z:
Db J, Vp VB RR NN RR NN Z:
Dg Z: RR NN VB Vp Z: P4 VB Db NN Z:
J, Vp NN NN Z: Vp Dg Vf AA NN Z:
Db Db Z: RR NN Z: VB Vp RR NN Vf PL Z:
NN Vp AA Z:
PS AA NN AA PP TT Vp Z:
RR NN NN Vp Dg Z:
J, Vp Db VB Vp PH NN Db Z:
NN P7 PP Vp Z: J, NN Z:
Vp VB AA NN J^ NN Vs VB P7 Vp RR NN J^ NN Z:
VB Db VB Z: VB Db VB Z:
