Db P7 VB Z:
PP VB RR NN Z:
PP VB Vf J, RR NN AA Z:
Db VB Vp RR C= NN Z:
Vp VB NN NN J^ Db VB Vp Z:
RV C= NN VB Vp NN NN J^ Vp VB NN Z:
RV C= NN PS NN VB RR NN J^ Db Vp RR NN Z:
PP VB Vf J^ AA NN Vp Z:
Dg Vp Cl NN NN J^ Db VB Vp Z:
AA NN Z:
NN Z:
