PP VB Z: J, NN VB Db AA RR AA NN Z: J^ PQ VB AA Z: PD VB AA Z: J^ J^ TT VB Z: VB Vf Z: RR NN Z:
J, VB AA Z: Db AC Vf NN J^ NN Z: J, VB Vp AA NN Z: P4 VB AA NN Z: Db AA NN J^ AA NN Z: Vp VB Db VB Z: VB NN NN Z: VB AA Z:
J^ Db PP VB Z: J, PD NN Vp NN Z: J^ J^ Vp PW NN RR NN Z: Vp Vf NN NN J^ Vp AA NN J, NN Z:
J, VB Vp Db Vf NN Z: J, VB NN
