PS AA NN VB AA Z: NN Z: Z:
Vp PD RR PH AA NN Z: J, RR PS NN VB VB PH Dg Db Z:
VB PD Db AA NN Z: J^ J, RR PH PP VB Db AA Z:
VB AA RR PD J, VB PD NN NN AA NN Z: PQ VB Db AA Z:
NN J^ RR NN VB RR NN J^ VB P7 RR NN Z: J^ VB P7 J, Vc PD Vp PS AA NN RR AA NN Z:
PP P7 VB J, VB PD AA NN Z: J^ VB P7 PL PD Vf Z:
