TT NN Z:
Db P7 VB Z:
Db VB RR NN Z:
VB NN Z:
VB NN RR NN RR NN Z:
NN VB RR C= NN J^ RR C= NN Z:
RR NN VB NN RR C= NN Z:
RR NN P7 VB RR NN Z:
VB P7 RR PZ AA NN Z:
RV NN VB AA NN Z:
AA NN VB RR NN RR NN Z:
VB RR NN Z: AA NN Z: Z: RR NN VB RR Z: NN Z: Vf Z:
NN VB AA NN Z:
VB RR NN RR NN NN Z:
RR NN VB NN Z:
PD VB PS NN Z:
TT Z:
VB P7 RR PS NN Z:
