RR NN VB AA NN Z: VB RR NN Z:
J^ Db VB NN J^ NN Z:
NN P7 VB RR NN J^ NN VB NN Z:
NN VB RR NN J^ NN VB RR NN Z:
RR NN VB C= NN Z: NN Z: NN Z: NN J^ NN Z: NN J^ NN Z:
Db VB NN Z: J^ RR NN VB NN Z:
RR NN VB AA NN Z:
RR NN VB NN J^ NN Z:
RR NN VB NN J^ NN Z:
