Vp VB P7 PZ AA Z: Vp VB P7 NN Z:
J, Z: NN VB AA NN Z:
PP VB Vf Z:
J^ VB Z:
VB Vf Db Z:
Db NN VB Db AA Z:
VB Vf RR NN Z:
RR NN VB AA Z:
Vp VB AA Z:
Db VB RR PD NN Z:
VB Vf PD Db Z:
VB Z: VB NN Z:
NN PH Z:
Vi P7 AA NN Z:
NN
