AA NN Z:
VB P7 NN Z:
VB PP RR AA NN Z:
VB NN RR PS NN Z:
J^ Vp VB P7 Vf Ca NN Z:
C? VB NN PS NN RR Cl NN Z:
PL NN VB RR NN Z:
Db Dg Vp Vc Vf PS NN Z:
VB Vf RV P8 NN Z:
VB AA NN Z:
J^ NN VB AA Z: AA J^ AA Z:
Vi P7 Z:
J, RR P5 VB NN Z: VB PH Vf RR AA NN Z: VB Vf RR PS NN Z:
RR NN Z: NN Z:
RR NN Z: PS AA NN VB Z:
