RR NN VB NN J^ AA NN Z:
PD VB NN Z: NN J^ PS NN Z:
Db VB NN Z:
Db VB NN J^ VB P7 RR NN Z:
RR NN Db VB NN Z:
RR NN VB NN Z:
VB VB AA NN Z:
Db VB NN Z:
Db VB PS NN Z:
RR NN VB AA NN Z:
NN VB J^ VB NN Z:
RR NN VB NN Z:
NN VB AC NN Z:
Db VB NN Z:
PS NN VB AA J^ AA Z:
