Db VB J^ VB NN RR AA NN
VB Ca NN RR NN RR AA NN Z:
Cr VB NN Z:
NN P7 Db VB NN Z:
RR NN NN Dg VB Z: VB Z: VB NN J^ NN Z: VB P7 RR AA NN Z: VB RR NN Z:
AA NN RR Cl NN Z:
J^ PZ NN VB AC AA NN Z:
NN P7 VB RR AA NN Z: Dg VB Z: VB AA NN RR NN J^ VB Db Db Dg AA J, RR NN Z:
NN Db VB RR AA NN RR X@ J^ AA Z:
PZ NN VB RR NN Vf RR AA NN RR AA AA NN Z:
NN Db VB RR AA NN RR PZ NN J^ RR AA NN Z:
NN VB RR AA NN RR AA NN Z:
RR PZ NN J^ RR NN P8 AA NN Z:
RR AA NN VB Dg NN Z: J, NN J^ NN AA NN Z:
J^ VB RR PD Vf NN Z: J, AA NN VB NN Dg NN Z:
J^ PQ VB Vf AA NN Z:
