NN Z: RV P4 VB Vf Db VB P7 Vp RR NN Z: RV P4 VB Vf Z:
J^ Db VB Db VB Vf Z:
PD Z: Dg Z: VB RR PZ NN Z:
J, Vp Vf AA NN J^ Vf RR Cl NN Z: Vp Vc NN Z:
J, Vp Vf AA NN J^ Dg Vf Z: NN Vc Vp AA NN Z:
Db VB AA Z:
J^ J, Vp Vf AA NN Z: Vp Vc Db Db RR NN Z: J, RR NN VB AA NN Z:
Dg Z: Db Dg VB AA J^ VB Vf NN Z: NN Z:
J, Vp RR NN Z: Vp Vc P7 RV P8 NN RR PZ AA NN RR NN J^ RR NN Z:
J, Vp Vf AA J^ AA NN Z: Vp Vc RR NN Z:
J, Vp Vf RR NN Z: Vp Vc RV NN J^ RR NN Z: J^ Db VB AA NN Z:
J, Vp Vf Dg NN Z: Vp Vc RR NN Z:
RR X@ NN VB Db AA NN RR NN Z:
VB Z: J, AA NN VB RV P8 NN Z:
Db NN NN VB NN Z: NN NN Cl RV NN Z:
