Db VB J^ VB NN AA NN Z:
VB AC Vf Z:
AA NN VB Db Z: J, P7 Vp RR AA NN Z: NN Z: Vp P7 RR AA NN J^ Vp Z: Db VB NN Z:
Db VB RR NN J^ J^ VB Vf Z: J, AA NN VB Db AA NN Z:
Db VB Dg AA J^ AA NN Z: Db NN VB Vf Vf Z:
NN Z: AA NN Z: AA NN Z: AA NN Z: AU NN Z: AA NN J^ Z: NN Z:
J, Dg VB RR PZ NN Z: Db VB Vf RV PL Z: NN Z: NN Z: NN Z: J^ J^ VB PZ AA Z: VB Vf RR AA NN Z:
J, P7 PP Db Vp Z: VB Vf Z: J, Vp Z: Vp J^ Db Db Vp RR PD NN RR NN RR NN Z:
RR AA NN AA NN VB AA NN Z:
Db AG P7 VB Vf Z: NN Z: NN Z: NN Z:
VB Vf Db Db Db J^ NN Z:
Db PL AA NN VB Db AA Z:
VB J, AA NN VB NN Z:
NN VB NN PS Z: PS NN J^ NN Z:
Vp Vc J, NN Vp NN RR NN Z: J, PP NN Vp Vc AA Z:
