Adam vstava v 6.30 .
Potom čte novyni v 6.45 .
V 7.30 jedl na robotu .
Pracoval na Počitačí v 8.30 .
V 12.45 obedval v restaurací v 13.30 pracoval na počitačí a pil kaviny . daval kvetiny v 18.20 .
Potom večeřel s kamaradkoy v restouraci v 19.00 . dival se na film v 20.00 .
V 22.30 nakupoval jidlo .
V 23.00 večeřel .
V 23.30 šel spat .
