Acc.	F-score	Cont.	Kernel	C	Deg.
74.44	21.11	0	0	0.001	
76.6	39.81	0	0	0.01	
77.41	44.59	0	0	0.1	
77.41	44.59	0	0	1.0	
77.41	44.59	0	0	10.0	
77.41	44.59	0	0	100.0	
77.41	44.59	0	0	1000.0	
77.41	44.59	0	0	10000.0	
74.44	21.11	0	1	0.001	1
75.52	41.38	0	1	0.001	2
73.9	44.23	0	1	0.001	3
76.69	40.19	0	1	0.01	1
75.52	41.38	0	1	0.01	2
73.9	44.23	0	1	0.01	3
77.41	44.59	0	1	0.1	1
75.52	41.38	0	1	0.1	2
73.9	44.23	0	1	0.1	3
77.41	44.59	0	1	10000.0	1
75.52	41.38	0	1	10000.0	2
73.81	44.15	0	1	10000.0	3
77.41	44.59	0	1	1000.0	1
75.52	41.38	0	1	1000.0	2
73.9	44.23	0	1	1000.0	3
77.41	44.59	0	1	100.0	1
75.52	41.38	0	1	100.0	2
73.9	44.23	0	1	100.0	3
77.41	44.59	0	1	10.0	1
75.52	41.38	0	1	10.0	2
73.9	44.23	0	1	10.0	3
77.41	44.59	0	1	1.0	1
75.52	41.38	0	1	1.0	2
73.9	44.23	0	1	1.0	3
