VB náš NN NN 
Co VB vlastně NN ? 
NN VB NN , který se VB v NN . 
NN VB NN a NN NN a NN NN . 
Na AA z nás , aniž si to vůbec VB , VB NN AA NN . 
VB Vf vůbec NN NN na NN ? 
VB , nejen na NN , ale i na AA NN NN . 
Vp Vc Vf svou NN na několik NN : NN a NN , NN a NN . 
Když NN VB do NN , VB už AA NN svého AA a AA NN za sebou . 
Velmi často NN VB NN mezi NN a AA NN . 
VB se , že NN v našem NN VB v AA NN NN a NN . 
AA NN VB NN . 
Vp Vc , že NN 21 . NN se VB " AA NN . " 
Bohužel , v AA NN NN VB svého AA NN na NN . 
Nejen VB NN , ale taky VB NN , NN , VB si NN , VB NN , VB si AA NN . 
AA NN nás VB , ale VB . 
VB li Vf , VB my Vf AA NN . 
AA NN Vc Vp Vf bez NN . 
