NN na NN 
VB NN . 
VB NN na AU NN , na AA NN . 
VB na NN NN 3 . 
Ten NN VB AA NN , ale ne VB AC jeho . 
Protože NN VB stále a to VB AA . 
To ne VB , že ne VB AC ticho . 
Ale NN 
VB AC NN , ale ne v AA NN . 
VB a VB , že VB Vf NN , ale VB AA . 
VB Vf , že VB NN na NN aspoň jako NN NN atk . . . . 
VB AA s tým NN . 
VB , že NN VB na AA . 
Když Vp VB do NN Vp VB NN . 
NN VB AA NN a NN . 
A některých NN VB 
AA a ne VB . 
NN NN také ne VB , ale VB . 
VB z NN , protože 
to VB NN . 
Ale nakonec VB , že ticho VB AA NN . 
