NN na NN vs. NN doma 
Od té NN VB Vp do NN , VB na NN . 
NN Na NN VB Cl NN , ale VB příliš AA . 
Ale NN VB AA . 
VB 2 NN , 2 NN , 2 AA NN a NN . 
NN na Cl NN VB NN , NN a NN . 
NN VB , že moji spolubidlici VB NN , tak VB Vf česky . 
Ve NN VB ve AA NN , tam VB 38 VB sáma . 
Vf na NN VB AA NN , ale přesto VB na NN NN do NN blízko NN . 
Tam VB AA AA NN a AA , AA NN . 
NN v NN VB asi tak AA , jako AA NN na NN . 
Ale NN VB AA , tak VB , to Vp Vc AA NN , Vf na NN , ale protože VB NN , VB Vf AA NN . 
Vp VB se z mého AA doma , když VB Vp 18 . 
Od té NN VB sáma , a to se mi VB . 
Ale občas VB to AA , Vf doma a NN VB NN a NN VB NN . 
Ale Cl NN VB - potom se VB , že VB Vf NN . 
