V NN , 16 NN 
Ahoj , NN ! 
VB teď v NN . 
VB se dobře . 
NN VB moc AA , AA NN . 
V NN VB mnoho AA NN , AA NN , AA NN . 
AC VB na NN se své NN . 
AA NN VB Vp na NN po NN . 
Vp VB AA NN . 
To VB NN NN , která se mi moc VB . 
Dolu pod AA NN VB AA NN a. Vp VB také podél NN . 
Vp VB AA AU NN . 
Vždicky tam VB mnoho NN . 
To Vp AA NN . 
VB se na tvůj NN . 
Tvá NN QQQ . 
