1 . 
Když VB Vp AA , Vp VB Vf NN nebo NN . 
Vp VB , že Vf NN a NN VB velmi AA a AA . 
Vp VB NN o NN a NN , o NN a NN . 
Vp VB se AA NN , a proto moc jich Vp . 
Moji NN Vp AC AA NN , a s nimi VB se Vp o NN , o NN , o NN , o NN po AA . 
2 . 
Ale když VB Vp Vf do NN , Vp VB svůj NN . 
Vp VB , že abych se dobře Vp , Vp Vc se dobře Vf ve NN . 
Také VB Vp hodně Vf v AA NN . . . Vp se mi NN a AA NN . 
Později VB se Vp , že VB Vf v NN NN a NN . 
3 . 
VB , mi to někdo NN , ale VB , že nikdo mi to Vp . 
Vp VB si NN sama . 
Jednou VB Vp pro NN do NN a Vp VB tam AA NN s AA NN . 
Vp VB si ho a Vp . 
Vp se mi , že NN tam VB o NN , o NN , a NN , o NN . 
4 . 
Teď už VB se Vf NN v NN nebo NN NN NN . 
5 . 
Přesně VB , že Vp Vc Vf v AA NN , kde i , NN . 
Pro mně to nejen NN , ale NN a NN . 
6 . 
VB , že moje NN VB AA , ale AA . 
Ale VB , že všecho VB výborně , protože hodně VB , VB se AA , které VB v NN a moc VB o NN a NN . 
Všechi NN VB Vf krasně , a proto NN a NN vždy VB AA . 
