AA NN , 
NN ti z NN . 
VB tu už třetí NN , ale VB se na svou NN . 
V NN VB Vp v NN . 
To Vp moc AA NN . 
Vp VB z NN , proto NN Vp skoro NN . 
Protože VB Vp NN . 
Vp VB AA NN blízko NN . 
V NN . 
Tam VB se Vp , Vp VB v NN , Vp VB na NN podel NN . 
Odpoledne VB Vp NN . 
Ho Vp VB NN a NN . 
Potom VB Vp kolem do NN . 
NN VB Vp v AA NN . 
1 . NN VB Vp do NN NN . 
Ale VB NN Vp NN . 
To Vp mo AA NN . 
VB se na tvůj NN . 
Tvá QQQ . 
