Moje AA NN . 
VB AA NN . 
VB se QQQ . 
VB ji už 11 NN . 
Vp VB ve NN . 
Ona VB AA NN . 
VB NN , NN a ještě NN . 
QQQ VB moc AA , AA a AA . 
VB AA AA NN a AA NN . 
VB moc AA . 
VB AA , AA , AA , AA ale někdy VB AA . 
AC VB , VB a VB se na NN . 
Jí AA NN VB NN . 
QQQ VB z NN , z QQQ . 
VB na NN . 
VB ji moc . 
