Můj AA NN . 
AA NN . 
VB se NN . 
VB NN . 
Ráno VB , AA si NN , VB NN , VB se rychle , protože VB NN . 
Potom VB na NN NN a NN . 
VB NN od 8.30 do 15:30 . 
VB NN . 
Potom VB Vf do NN . 
VB NN , NN a NN . 
VB NN nebo NN . 
Potom VB domů a VB NN . 
V 22:00 VB NN z NN . 
V 23:00 VB Vf . 
