VB mi NN NN . 
VB mi AA NN v NN . 
Ne VB mi Vp NN ktéry v NN . 
VB AC NN v NN . 
VB AC NN s NN . 
VB AC capučíno protože AA . 
VB AC NN protože VB AA . 
Ne VB mi AA NN . 
AA mi AA NN . 
AA mi česky NN . 
