NN Vp AA NN , a včera Vp pozde . 
Kdy Vp , Vp se . 
Pak Vp do NN . 
Tam Vp NN a NN . 
Potom Vp do NN . 
Do NN Vp NN , a ješte trohu Vp pešky . 
Ve NN Vp NN . 
Dopoledne Vp , Vp a Vp AA NN . 
V 10°° Vp NN . 
NN Vp AA až 20 NN , po NN NN si Vp NN a NN . 
Pak Vp do NN , kde Vp naše NN ( NN ) . 
Tam Vp AA AA NN . 
Pak Vp z NN o NN . 
Kdy Vp se Vf NN se Vp a Vp do NN . 
V NN si Vp NN . 
Vp NN a Vp NN . 
V 14°° NN Vp doma . 
Tam Vp AA NN a Vp NN . 
V 15°° Vp na NN . 
Pak Vp a Vp s NN . 
Potom Vp na NN do NN . 
NN Vp NN do NN . 
Pak Vp do NN . 
A tam Vp NN . 
V 19°° NN NN Vp do NN . 
Kde s NN se Vp na NN . 
Pak Vp do NN . 
Kde NN si Vp AA NN a NN . 
Ji NN si Vp NN a AA NN . 
Pak NN Vp do NN , a pak Vp . 
Kdy Vp , Vp na NN . 
