1 ) AA NN VB , protože VB Vf na NN . 
Tady už 5 NN . 
2 ) VB mně AA NN a NN . 
Oni VB AA . 
3 ) VB česky s NN NN a ještě v NN . 
VB AC NN . 
4 ) nejdřive VB Vp do NN , kde VB se Vp na NN . 
Oni VB moc AA a NN . 
