1 ) Vp VB dlouho o NN , protože AA NN AA NN Vp VB brzo . 
2 ) Vp VB mnoho , protože VB Vf dobre AA . 
3 ) Vp VB se AA NN , protože VB Vf NN AA NN . 
4 ) Vp VB AA NN . 
5 ) Vp VB večeri , protože Vp VB Vf doma . 
6 ) Vp VB na NN do NN . 
7 ) Mojí NN Vp do NN , ale ja VB Vp . 
8 ) Vp VB do NN . 
9 ) Vp VB AA NN , ale Vp jí Vf bez NN . 
10 ) Vp VB mojí NN . 
11 ) Vp VB AA NN . 
12 ) Vp VB se na NN . 
13 ) Vp VB do NN a Vp tam něco . 
14 ) Vp VB Vf na NN , ale ne Vp VB NN . 
