18 . 11 . 2010 , v NN 
AA NN , 
dlouho VB už ti Vp . 
VB , že se VB dobře . 
O NN VB Vp na NN po NN , o tom Vp Vc Vf , protože Vp to moc AA . 
Nejdříve VB Vp na NN . 
Tam VB se Vp na NN a taky na NN . 
Ten NN VB velmi AA . 
Pak VB tam Vp do NN o NN NN . 
Vp to moc AA . 
Pak VB Vp na NN . 
Vp se mi moc to NN . 
VB , že NN VB teď moje AA NN v NN . 
Tam VB Vp NN a my VB Vp hodně NN jako AA NN ! 
A jak se VB ty ? 
Ty už VB na NN ? 
VB se na tvůj NN , 
NN . 
