V NN , 20 . NN 2010 
AA NN , 
AA NN VB Vp na NN po NN . 
VB tady už NN , ale to Vp má první NN po AA NN . 
Nejdříve VB Vp do AA NN , Vp VB na AA NN NN . 
Pak VB Vp na AU NN . 
NN Vp velmi AA a Vp tam hodně NN . 
Potom VB Vp do AA NN . 
Vp se mi moc NN NN NN . 
NN Vp moc AA a já VB Vp NN AA . 
Vp VB domů NN . 
VB , že na AA NN VB spolu . 
VB se na tvůj NN 
NN 
