Moje AA AA 
Moje AA NN Vp v 2009 NN , když VB s NN Vp VB na NN , na NN , Vp VB mnoha NN , NN , NN , NN . 
V NN VB Vp v NN , Vp VB se , Vp VB AA AA NN . 
Pak v NN VB Vp na NN a NN VB NN . 
Vp VB NN NN NN a NN . 
Pak Vp VB se spatky domů . 
To Vp AA NN . 
