1 Včera VB Vp AA NN . 
2 Vp VB na NN s mou NN . 
3 Vp VB mnoho NN protoze Vp NN . 
4 Vp VB v NN protože ne Vp NN v NN . 
5 Večer VB Vp do AA NN s NN . 
6 Vp VB NN pro mou NN . 
7 Vp VB se NN " . 
8 Pak Vp NN a NN v muj NN . 
9 My VB Vp NN , Vp NN a Vp o NN . 
10 Pak moji NN Vp do NN . 
11 Ja VB Vp AA jak NN . 
12 Bohužel VB Vp nečistu . 
13 Vp VB NN 2 NN . 
14 Pak VB Vp jak AA . 
15 Muj NN Vp moc AA . 
