Můj AA NN 
Obyčejně VB v 6.30 NN , VB se , VB se a VB . 
Pak VB do NN . 
NN VB v 8.30 ráno a VB v 15.40 odpoledne . 
VB Cl NN , pak NN a pak ještě Cl NN . 
Na NN VB NN , VB na NN NN , VB AA NN . 
Kdy NN VB , VB AA a VB domů . 
Doma jím , VB AA NN , pak se VB na NN nebo na NN . 
VB Vf v 11 NN . 
