NN 18.10.2010 . 
AA NN , 
VB tobě z NN . 
Ja tady už 3 NN , a VB hodně NN . 
Protože VB NN VB NN , a VB se Vf jí dobře , když VB Vf NN na VŠE . 
Ale kdy VB volno , vždicky VB na NN po Cl . 
Včera Vp VB NN . 
NN Vp NN AA a ja VB Vp na NN AA NN , protože Vp VB Vf trochu pěšky . 
Pak Vp VB asi pět NN a Vp VB do NN . 
VB jak VB on moc AA ! 
Vp NN , Vp NN , a AA . 
Vp VB v tom NN až na 3 NN . 
A zítra ješte VB tam s mou NN NN . 
VB se na tvůj NN . 
Tvuj NN . 
