Co Vp o NN . 
Vp VB se v 10 NN v NN . 
Vp VB se Vf , pak VB Vp NN a NN . 
Potom VB Vp do NN , kde VB Vp , pak VB Vp do NN kde VB Vp . 
Odpoledne VB Vp NN a VB Vp AA NN . 
Večer VB Vp na NN do NN NN . 
Tam VB Vp NN , pak VB Vp do NN , kde VB Vp NN a potom VB Vp do NN . 
Kde VB Vp NN a NN . 
Potom VB Vp do NN , kde VB Vp AA NN a VB se Vp na NN . 
Pozdě VB Vp , a VB Vp s NN . 
NN VB Vp . 
To Vp AA NN . 
