8 . 
NN VB na NN , které VB do NN . 
Protože VB NN , VB Vf NN . 
VB Vf NN v NN . 
VB už Cl NN . 
Když VB NN , VB Vf NN na NN . 
5 . 
NN VB na NN v NN . 
VB blizko NN . 
VB NN NN v NN . 
VB NN v NN . 
