NN Vp na AA NN v NN , protože VB tam velmi AA NN , NN Vp AC Vf . 
AA NN s NN na NN . 
Vp Cl NN , když NN Vp v NN , Vp NN do NN . 
NN Vp " NN ! NN ! " 
( NN VB italsky ) . 
Ale nikomu Vp kromě Vs . Vs Vp do NN a Vp ji . 
NN mu Vp a a spolu Vp AA NN , spolu Vp na mnoha NN , třeba na NN , NN a AA NN po NN . 
A dokonce se Vp do sebe . 
Ale bohužel NN Vp Vf domů po NN . 
Když NN Vp v NN , Často s NN Vp NN . 
NN se Vp Vf česky , protože Vp Vf do NN a spolu Vp s NN . 
12 . NN 30/188 , NN . 
AA NN ! NN , 
VB AC , že VB se , VB z NN . 
VB česky , tak se Vi . 
VB NN , AA NN , ale VB moc AA . 
AC moc VB a VB na NN . 
VB , že VB někdy spolu Vf na NN . 
Tak VB moc AC . 
Tak se Vi ! 
