Proč VB AC NN 
NN se VB v NN NN . 
V jejích NN VB AA NN AA NN . 
NN VB AA svými AA NN . 
Ony VB AA . 
Kromě svých NN , ono VB AA taky VB AA NN : 
AU NN , AA NN , AU NN . 
AA a AA z této NN VB NN NN . 
O NN NN VB mnoho NN . 
AA z nich VB AC s NN NN NN IV . 
VB o tom , jak NN Cl na NN v NN okolo NN NN Vp NN , který se na Cl NN Vp z AA NN do NN . 
Za ním Vp i AU NN , AG NN . 
Hned z NN Vp a NN Vp , že VB AA AA . 
AU NN se VB nejen AA NN , ale i AA NN . 
Vp VB , že v AA NN Vp NN mnoho AA NN . 
Jako : 
VB NN , NN , NN . 
Na NN od AU NN VB AA NN . 
NN těchto NN VB NN a NN , AA NN a NN . 
AA VB NN po AA NN . 
