NN už Vp , že NN VB NN . 
Nejvíc se mu ve NN Vp NN NN . 
AC Vp , jak NN NN Vp o NN , NN , NN . 
Mnoha toho Vp i doma , ale nikdo to Vp Vf tak pěkně , jako NN NN . 
Vp se o NN NN , kterého VB AA NN . 
NN totíž AA NN VB NN NN . 
Když VB AA , tak ten NN se VB , a když se VB zle , tak VB . 
Jednou Vp NN za NN NN a Vp mu , že NN VB , že NN VB Cl NN . 
NN NN se Vp a Vp : 
" To ty asi moc VB . " 
Vp NN AC , Vp ho svým AA NN . 
Když Cl NN NN Vp k AA , Vp si za něj NN NN jeho NN . 
NN se to Vp . 
Vp se a Vp : 
" NN VB AA jako NN , VB NN , ta nam asi hodně VB . " 
Ale brzy se NN NN Vp a Vp s sebou NN . 
Vp Vf , a NN tedy Vp , že NN NN VB tím AA a AA NN na AA NN . 
VB s NN . 
VB jako NN . 
Když NN NN Vp , Vp si NN na NN a NN ho Vp , aby tu NN mu Vp . 
Vp NN NN , že ji za něj VB . 
Vp AU NN a AA Vp NN NN před ním . 
Až Vp do NN , NN se Vp , Vp si NN a Vp se , jak ho NN Vp . 
Vp se před NN NN a Vp na ně . 
NN el totiž , že NN NN tady VB . 
" Tady ne ! 
Vi k těm NN ! " - Vp mu NN NN . 
AU NN NN Vp NN a NN . 
Od NN NN Vp NN NN NN NN . 
NN a AA Vp NN NN a AA NN Vp na NN NN . 
" VB v NN , VB NN , NN a NN , jako já . " - Vp si NN . 
Vp svoje NN na NN . 
Nikdo tehdy Vp , že na AA NN Vp . 
Vp NN a Vp NN , že Vc Vp Vf AA NN a AA NN . 
Když AU NN Vp do NN , Vp samy NN . 
NN NN mu Vp , že NN VB dobře , VB ho k NN . 
