VB mi , abych se Vp . 
Mé NN VB XXX . 
Vp VB se v NN ( NN XXX ) . 
Vp VB v NN 1993 na AA NN NN Kyototachibany . 
Vp VB AA AA NN , NN a NN . 
Od NN 1993 VB Vp ve NN NN . 
První 2 NN VB Vp v NN NN NN . 
Vp VB Vf NN v AA NN . 
AA 3 NN VB Vp v AA NN . 
Vp VB NN , které VB AA pro NN . 
AA NN ve NN VB Vp jako NN NN AA NN . 
Od NN 1999 VB Vp Vf NN na AA NN NN AU . 
Vp VB NN NN 2 NN . 
Potom VB se Vp do NN . 
Ale , hned mi Vp AA NN v AA NN . 
Vp NN , který nejen VB česky i VB NN NN . 
Vp VB v AA NN v NN NN , NN a NN . 
Také VB Vp jako NN . 
Vp VB tam skoro 7 NN . 
VB několik NN , hlavně NN a NN NN také . 
AC VB AA NN . 
VB AA NN , VB po NN i AA NN . 
VB AA . 
VB NN , AA NN i NN . 
NN VB NN . 
NN VB AA . 
NN VB v NN v NN . 
VB sama v NN NN , . 
