NN ! ! ! ! ! 1000000 NN 
Pokud Vc Vp 1000000 NN , tak Vc Vp NN na NN pro AA NN a AA NN . 
Ve druhe NN VB Vf tak . 
Vp VB do putishestuvovat . 
V první NN Vc Vf do NN . 
To VB AA NN a velmi AA NN . 
Pak Vc Vf do NN . 
VB si , že VB velmi AA . 
Moc VB Vf AA NN ve AA NN . 
Vp Vc do NN a Vp Vc AA . 
A AG NN Vc Vp NN ! 
