! NN ! 
Co ja VB Vf , až Vp NN NN ? 
To VB moje AA NN . 
Za AA ja Vc Vp Vf moc hodne NN . 
VB AC AA NN a NN v NN , NN a NN . 
Za druhé Vp Vc NN sve NN . 
Napřiklad , NN nebo NN , protože VB AA NN . 
Za třetí Vp Vc nějaké AA NN . 
Vp Vc Vf NN nebo NN . 
Ale moje samé AA NN VB to NN . 
AG NN ja Vc Vp v některý NN . 
NN . 
Co ja Vc Vp a co Vc nikdy Vp ? 
NN VB se , že NN VB NN . 
Ve AA příletosty VB to NN . 
NN VB NN Vf sebe . 
Můj AA NN VB NN a NN . 
VB to AA NN . 
Ve NN VB se ve AA NN . 
Ja Vc nikdy Vp AA NN . 
VB , že VB to moc AA . 
A AA NN VB mi . 
Mojí AA NN . 
V NN 2009 Vp AA AA NN . 
V AA Vp AA AA NN . 
Vp NN , NN , NN a AA NN . 
V NN NN Vp AA NN NN AA NN . 
A potom Vp AA . 
V NN Vp s me NN . 
Když Vp NN NN , Vp do NN . 
