16 . 08 . 2010 NN do NN - Moc AA , Vp VB NN AA NN a skoro VB vůbec Vp . 
NN v NN Vp v NN , AA , tak VB spolu trochu Vp . 
V NN - VB , VB velmi brzo a VB hodně AA , NN ke NN velmi dlouha . 
NN - NN VB už AA , spolu s NN VB Vp NN a jenom na to Vp nám NN . 
NN - Dnes VB Vp , že VB AA NN . 
Vp tam moc NN , ale taky AA NN - NN , AU NN , NN AA NN s AA NN . 
NN - První NN NN . 
NN NN NN VB z AA NN . 
V 15.30 AA NN NN Vp NN se NN NN NN . 
Velmi AA NN , Vp mě AA NN ke NN AA NN . 
17 . 08 . 2010 Vp VB dost AA NN . 
NN , s kterou VB na NN , velmi špatně se Vp , Vp NN a NN v NN . 
Z toho NN VB Vp NN na NN u NN . 
18 . 08 . 2010 NN NN - Dneska VB se Vp VB se na NN " NN " od NN NN , potom VB Vp s ním NN . 
NN velmi AA , hlavně NN . 
Bohužel NN s NN se mi Vp , NN se Vp jako AA , AA AA NN , jenž vůbec VB Vf . 
VB se Vf veřejně NN . 
19 . 08 . 2010 
NN VB trochu AA , ale Pani NN VB nám AA NN . 
NN Pani NN VB spolu se NN do AU NN . 
NN VB AA NN , nejvíc se mi Vp NN , v kterých Vp na AA NN . 
NN krasně Vp a Vp AA NN . 
Pak VB spolu Vp Vf si NN v AA NN . 
20 . 08 . 2010 
NN - Všude AA NN a AA NN AA NN a NN - NN NN a AA AA NN . 
Vp VB také NN - NN - a NN AA NN - NN NN nebo NN . 
AU NN - NN NN a NN , na NN jse si Vp NN a samozřejmě NN . 
21 . 08 . 2010 
V NN VB Vp NN - AA - do NN NN , NN a NN . 
Pro mě AA Vp AA NN . 
O NN nikdo VB na NN , tak to Vp něco AA - velice AA , VB přesně Vf jak velmi se mi to Vp . 
Vždycky AC VB NN a AA NN a proto NN NN mě Vp . 
Vp VB te nejen NN , ale taky AA NN . 
NN AA NN Vp AA NN . 
AA NN Vp AA NN . 
22 . 08 . 2010 
Vp VB NN , AA NN a vůbec AA AA NN - ta NN NN VB pro mě AA - VB značně meně NN a VB AA NN než v NN NN , ačkoliv všude VB NN a AA NN VB uplně jinak - všude NN . 
AA NN VB si Vp , večer Vp NN . 
23 . 08 . 2010 
NN VB v 11.30 , pote v 17.00 VB do NN na NN , VB AC protože v NN jse Vp před Cl NN , NN s AA NN VB AA než ve NN . 
NN Vp zcela AA , Vp Vc AA . 
NN malo Vp , vi s Vp . 
Dokonce i AA NN . 
Já VB to Vp jako AA NN o AA NN . 
24 . 08 . 2010 
Kromě NN , Pani NN Vp o NN o NN . 
Vp VB , že stejně jako já AC se VB na NN NN NN . 
AA NN , to moje AA NN . 
Večer VB Vp AA NN . 
VB NN k AA NN , ale trochu sí VB Vp . 
Ten NN jse se taky Vp s mojí NN NN z AA NN . 
Vp VB v NN NN , Vp VB si AA NN , Pani NN NN . 
Vp co ještě VB AA v NN . 
VB , že Vp to AA NN , ale Pani NN Vp víc NN - jenom NN . 
25 . 08 . 2010 
Opět NN NN - Vp VB na NN " 3 NN v NN " , NN Vp NN NN NN . 
NN Vp Vs podle AA NN AU NN . 
AA NN Vp AA NN a NN AA AA NN - NN NN . 
Pro mě Vp to velmi AA NN s AA NN . 
NN NN se Vp jako AA NN , ktery Vc Vp Vf mým NN , - AA a AA . 
AA NN VB trochu AA trochu AA , ten Vp AA - Vp AA . 
Co AA Vp tam taky AA NN XXX NN . " 3 NN v NN " Vp na mně velmi AA NN . 
Během AA NN VB Vp NN a Vp VB Vf nějaké NN AA s NN - na NN AA NN . 
Během těch Cl NN VB Vp AA NN NN , AA NN , uplně AA než AA NN . 
AA NN , AA NN , AU NN , AA NN , AA NN , NN , AU NN , AG NN , NN , AU , AA NN , NN , NN a NN , NN , AA a AA NN - všechno to VB AA NN NN . 
Tolik NN VB v NN ještě Vp , tudíž VB to AA NN . 
