Moje NN . 
Moje NN VB NN , NN , NN a NN . 
NN se VB NN . 
VB NN a VB v Bauanquilla . VB AA , AA a VB AA NN . 
VB AC NN a AC VB na NN . 
NN se VB NN . Vp se v NN . VB NN . 
VB AA , AA a vždycky se VB . 
NN se VB NN . ona VB NN na AA NN . 
Ona VB moc AA ale moc AA . 
Ona VB NN . 
NN se VB NN . VB NN na AA NN . 
On VB moc AA a trochu AA . 
Moje NN VB v NN 
