Moje AA AA . 
AA NN , moje NN VB NN na NN . 
Ale v NN VB v NN protože Vp . 
Vp VB do NN . moje NN už VB NN . 
moje NN VB v 17 NN v NN . 
Venku NN Vp AA . 
A potom moje NN VB Vp do NN NN a NN VB mnoho NN . NN VB moc AA a AA . 
Vedle NN VB NN . NN NN VB " NN " NN NN VB AA NN v NN . 
A potom VB a NN VB . 
V NN VB NN na NN a VB NN . 
druhé NN . 
Vp VB AA . ale teď VB AA NN . 
V AA VB AA NN . a NN . 
V NN VB mnoho NN NN VB NN a potom VB Vp NN . 
V NN VB Vp domů . 
