AA NN NN ! 
Jak se VB ? 
VB se dobře . 
Co VB Vp o NN ? 
Ve NN a v NN VB nic Vp , jenom VB Vf a Vp VB NN . 
V NN VB Vp na NN s mým NN na NN a na AA NN . 
V NN VB Vp do NN na NN a taky VB Vp NN . 
V NN VB Vp na NN do NN . 
Protože Vp hezky NN . 
Vi se hezky . 
NN . 
