Můj NN 
můj NN VB AA . 
Jenom 64m² v NN VB NN , NN , AA NN , NN , NN a NN . 
V NN VB NN , NN , NN 2 AA NN . 
V NN VB NN , NN , NN NN , NN , AA NN a AA NN . 
V AA NN VB NN , NN NN , NN , NN , AA NN , NN a NN . 
v NN VB NN , NN NN a NN . 
