Moje NN . 
VB pět NN NN . 
VB Cl NN , Cl AA a Cl AA . 
VB NN a NN . 
NN NN a NN NN ale Cl VB česky . 
Bohužel VB jenom trochu . 
VB v NN protože NN AA . 
Vp AA Cl NN , Cl NN , dve NN , moc NN , Cl NN a Cl NN . 
AA NN . 
VB NN AC ! ! 
