NN 
Vp NN . 
Vp v NN a později v NN . 
Vp Cl NN . 
Vp NN . a NN Její NN VB na NN 50 NN . 
Dneska , její NN VB moc AA . 
Kdo to VB ? 
VB to NN NN . 
VB ? 
Její NN VB taky NN Vs , ale VB to její NN , a VB to NN pro mu 
NN NN se Vp v NN 1885 jako NN . 
V NN , NN a NN NN NN VB moc AA NN " Sedm AA NN " , " AA NN " a " Farm v NN " . 
VB , jestli její NN Vp Vs do NN . 
Cl NN VB AA ( ? ) : " Moje NN " a " NN NN " . 
