AA NN , 
Vp VB NN NN v NN a Vp Vc se Vf s Vámi . 
VB AA , NN , 27/85 , NN , NN . 
V NN se mi VB NN , NN a NN . 
VB AC AA , AA a AA NN . 
AC VB na NN a pěšky . 
Také se mi VB Vf AA NN , už VB Vp v NN , NN , NN , NN , NN , NN . 
VB se o NN a Vp Vc AC , aby NN Vp NN o to také . 
VB dost dobře AA , proto VB pro mě AA , když NN VB Vf dobře AA NN . 
Také VB svůj NN v NN a teď VB tam . 
VB Vás Vf , abyste Vp na můj NN svou NN . 
Také VB svou NN a VB , že VB AA NN a VB Vf s ní své NN . 
S NN NN 
