Jak se VB ? 
VB se dobře . 
VB NN na NN . 
V NN od 9:00 do 13:00 VB NN . 
Večer se VB NN . 
Ve NN vé NN VB NN . a večer se VB na NN . 
Ve NN ve NN dopoledne potom večer VB AA NN . 
Ve NN rano ve NN potom večer v 17:30 jím do NN s NN . 
V NN rano vě NN VB NN potom od 15:00 do 18:00 VB . 
O NN VB ráno AA NN . 
V NN odpoledne NN na NN NN v 13 NN . 
V NN odpoledne v 15 NN VB NN . 
To VB všechy můj NN . 
NN 
