VB ráno v šest NN . 
VB AA NN . 
Pak VB pět NN pěšky do NN . . . 
Dopoledne VB ve NN . 
Moje NN se VB NN . 
NN VB od NN do NN . 
Naš NN se VB NN . 
V NN s NN VB v NN , někdy doma . 
Odpoledne VB AA NN . 
Večer c NN VB NN . 
Pak VB Vf , a VB 9 NN . 
