Ahoj NN . 
Jak se VB ? 
Já se VB dobře . 
VB v NN v AA NN . 
VB v NN na QQQ , NN 2 . 
Můj NN VB AA , ale AA . 
VB v NN a NN VB daleko . 
VB to pět NN pěšky . 
A jaký VB můj NN ? 
Dopoledne VB v NN a VB NN . 
Moje NN se VB NN . 
VB to AA NN NN v NN . 
NN VB od NN do NN . 
Naš NN se VB NN . 
VB NN a VB NN . 
Trochu VB rusky . 
VB AA , AA a moc AA . 
AA NN VB AA a AA NN VB NN , ale ve NN VB NN . 
VB tady NN z NN , z NN . 
Cl NN VB taky z NN jako já . 
VB se NN . 
VB NN . 
On VB docela dobře česky . 
NN VB AA , ale VB AA . 
VB to AA AA NN , ale VB tady AA NN . 
VB tady NN NN a AA AU NN . 
VB AC , že VB tady . 
Vi se moc hezky . 
NN . 
P. NN . 
Tady VB moje AA NN : 
QQQ 
