VB NN AC NN . 
VB ji 56 NN . 
Moje NN VB AA , AA , AA , AA , AA a moc AA . 
VB AA AA NN a AA NN . 
Obvykle VB na sobě NN a NN a VB AC NN a NN . 
VB v NN a VB moc AC NN . 
Moje NN se VB NN a VB hodně AC NN . 
Moje NN VB NN . 
