NN my NN NN " AA NN " . 
VB NN . 
VB NN a potom VB Vf v NN na AU NN . 
VB , ja VB Vf na AU NN . 
V NN , VB do AA , protože moc AC AA ale teď VB hodně NN . 
VB v NN AA NN a moc AC . 
V NN VB hodně NN a NN , a VB AA NN ( nebo AA NN ! ) VB se NN , a VB moc AA . 
Vp VB do NN a Vp VB ! ! ! 
Ona AC NN NN ale ja NN Hip-Hop NN ! 
A AA NN můj ( nebo svůj ? ) NN VB NN a VB ! 
On VB na NN ! a jeho " NN " VB " NN NN " . VB se " NN NN NN " . 
Teď VB NN ale VB Vf ! 
Vp VB v NN " NN " AA NN - NN a NN . 
AA NN ! ! ! ale v NN VB mi " NN " . 
Ano , mněm . 
VB proč ale VB AA . 
Vi se hezky 
tvoje NN . . . . . . 
" Mněm " 
NN 
21.4 . 2009/20.18 
