O NN 
Už VB NN , že VB už NN . 
Ale VB , jakým NN VB zase v NN . 
Tehdy Vp NN na NN . 
NN si VB , že NN VB Cl ze svých NN , protože VB 100 NN a víc než 150 NN a Vp si všichny NN . 
" Ahoj , NN ! 
Co VB tady ? " Vp NN . 
NN Vp , co mu Vp , ale VB Vf . 
Vp mnohokrat , co NN VB , ale nikdy sám Vp . 
" NN se Vp , jestli VB AA a Vp , " VB ti špatně ? 
Vi se mnou , a co se VB ? " 
" NN ... ! " 
" Hav ... to VB AA NN . 
Ale to VB . 
VB k NN . " 
NN se ho Vp , 
" Tak co vám VB ? " 
" Ha . . . NN " . 
" VB ? " 
" NN , NN , NN NN ... " 
" To VB ale AA . 
NN VB ani Vf ! " 
Vůbec VB , co se Vp . " 
NN Vp o něho AA NN a Vp všechny NN z AA NN . 
Ale nikdo Vp , co VB NN . 
NN Vp velmi AA , protože už Vp svobodně Vf Cl NN ani Vf NN . 
Vp Vf AA NN před NN . 
Ale VB Vf , co VB NN . 
Protože NN Vp AA , ale jenom Vp dříve NN . 
Cl NN Vp do AU NN nejaký NN . 
Jakmile Vp NN , Vp tu NN . 
Pak se ho Vp , " VB se Vf zas v NN ? " 
NN NN . 
" Tak VB ještě jednou Vf AA NN , Miraculosa magica . 
Ale VB to AA NN , a proto VB AA Vf . 
Tady VB NN a VB ti to . 
Vi ho na NN a Vi až do NN . 
Pak VB a VB to Vf . " 
NN Vp moc AC a tak Vp . 
Vp se nato , že VB Miraculosa magica . 
NN se pomalu Vp Vf a pomalu Vp AA na AA NN . 
Už VB Vf Cl NN ani Vf NN . 
AA NN se mu také Vp . 
NN se Vp také mentálně NN . 
Vp Vf AA NN , přestože Vp NN . 
Cl NN si Vp NN , že NN VB už perfektně AA a VB AA NN na NN . 
Vp nějakou NN z AA NN . 
NN VB AA a AA . 
NN je Vp do ní . 
Když NN a NN Vp v NN , NN Vp NN , která pěkně VB . 
Vp ji a Vp z ní AA NN . 
AA NN Vp NN , ale místo ní Vp pouze AA NN . 
Vp smutně . 
NN Vp , ale hned Vp na AA NN . 
Rychle ji Vp a Vp ji NN Vf . 
NN se Vp zase v NN . 
Vp velmi AA a Vp , co se Vp . 
NN si Vp , že VB jí Vf NN . 
Vp jí dlouho , co se Vp a že Vp vlastně NN . 
A nekonec Vp , že VB ji opravd AC . 
NN mu Vp , protože Vp krátce ale NN . 
NN a NN Vp NN a Vp NN , aby NN Vp s NN špatně . 
NN . 
