VB AA s AU NN . 
VB AA s NN , protože VB NN v QQQ . 
VB AA NN NN , protože VB Vf rychle na AA NN . 
VB AA s NN v AA NN . 
VB taky AA s AA NN v NN . 
AA NN VB Vf se , Vf a Vf . 
AA NN VB Vf a Vf . 
V NN VB Vf . 
VB NN , VB Vf NN na NN . 
VB NN , VB Vi se , kolík VB NN . 
Já VB Vf a VB Vf NN . 
VB moc česky . 
VB NN ( ? ) . 
AA NN VB Vf NN AA NN . 
VB Vf NN a Vf . 
