1 ) V NN VB Vp nic protože VB Vp AA . 
2 ) Ve NN Vp VB do NN s NN . 
3 ) V NN Vp VB do NN protože Vp VB se Vf AA NN NN NN . 
4 ) AA NN VB Vp NN proto VB Vp Vf do NN . 
5 ) Vp VB AA NN protože VB Vp Vf do NN . 
6 ) V NN VB Vp AA ale bohužel nikdo Vp . 
7 ) V NN VB Vp na NN . 
8 ) VB AC NN proto VB Vp NN AA NN . 
9 ) Vp VB AA NN a to Vp dobře . 
10 ) V NN VB Vp pozdě protože v NN VB Vp na NN . 
