O NN , Ja VB Vp " Na NN " , v můj NN . 
" Na NN " VB dobře . 
Vp VB do AA NN . 
" NN VB tretí " Na NN " . Vp NN a NN o NN , a AA NN VB dost dobře ! 
V NN , VB Vp AA NN . 
To Vp dobře . 
Vp VB AA NN . 
