Včera VB Vp v NN . 
Pak VB Vp NN do NN . Vp VB na NN . 
Na " NN " . 
Když VB Vp v NN Vp moc mály NN . Vp VB se na NN a Vp VB NN . 
Pak Vp ko mě NN , a Vp se NN . 
Vp VB mu opencard . 
Vp se na neho . a Vp mě ho . 
