VB AA NN . 
VB se mi všechny NN NN kdybych VB AA NN . 
VB NN . 
Vp VB NN 3 NN . 
Moc Vp VB NN protože Vp AA NN . 
Tam Vp moc AA . 
Vp v NN , v NN a v NN v 18:00 . 
V NN s NN Vp spolu na NN . 
Vp NN AA NN . 
A to je Vp moc AA . 
VB moc mnoho NN NN kterem VB AA NN Napřiklad : 
NN , NN , NN . 
VB NN . 
Ja za NN ! 
