AA NN Vp AA . 
Vp VB se k NN v NN . 
Tam VB se Vp . Ve NN Vp VB se do NN a taky na NN . 
Vp VB se do NN s NN . 
NN Vp NN , VB se mi tam . ( ) Ja a moji NN Vp do AA NN . 
Oni VB AA . 
Taky Vp NN z NN a ja Vp AC je Vf protože Vp jich už Cl NN . 
