Já a moje NN . 
VB NN . 
VB AA NN . 
Má NN VB v NN , V NN . 
VB NN se VB NN , VB NN . 
VB NN taky se VB NN , VB AA a moc AA , ale trochu AA . 
VB NN VB AA , AA , ale trochu AA . 
VB AA NN se VB NN , VB AA , AA , VB v NN . 
VB AA NN se VB NN , VB AA , AA , AA , ale trochu AA , VB ve NN , VB AC Vf v NN na NN . 
