Ahoj NN ! 
VB Tě z NN . 
VB moc AA , že VB do AA NN . 
Tak dlouho VB tě Vp . 
Vp Vc Vf AA NN , které VB NN NN . 
Vp VB , že tam VB hodně NN , NN , AA a AA NN , AA NN . 
Zvláště , Vc Vp Vf AA NN , které VB NN AA NN . 
Na AA NN , NN AA NN , a AA AA NN . 
VB , že uprostřed AA NN VB NN NN NN . 
Vp Vc se Vf vedle NN . 
Také Vc Vp Vf AA NN a Vf se na NN AA NN , o které VB mi už hodně NN . 
Kromě toho Vc Vp Vf AA NN a NN . 
VB , že AA NN VB mi Vf . 
VB se na Tvou NN . 
S NN Tvoje NN . 
