Moje AA NN . 
V NN NN VB Vp v NN . 
AA NN Vp na NN se svoje NN NN . 
Vp do NN , potom v NN . 
V NN Vp NN s AA NN . 
Vp NN a NN . 
AA NN Vp v NN k svemu NN NN . 
NN Vp na NN . 
NN VB AA , AA a AA NN . 
V 10 NN od NN Vp VB NN . 
Doma VB Vp v NN , potom Vp VB svoje NN a Vp VB její o dnes . 
V 12 NN VB Vp v svůj NN Vf . 
