Já VB AA NN . 
V NN VB můj NN , VB NN , NN a ja . 
NN VB do AA NN . 
VB ještě NN . 
Ta VB už AA , a VB svuj NN , kde VB se svým NN a NN . 
NN VB ješte AA a VB do NN . 
Ja VB na NN AA AA NN . 
Cl moji NN VB AA . 
Můj NN VB v NN , NN VB NN . 
VB take NN a NN . 
Ti VB na NN , kde VB svůj NN a NN . 
Často k nim VB na NN . 
