Moje AA NN . 
Moje AA NN Vp NN , když mě Vp 18 NN . 
To Vp moc AA a AA NN . 
VB Vp do NN NN a Vp VB AA NN . 
Vp VB do NN v 21ºº NN . 
Vp AA NN . 
Na NN Vp mnoho NN a NN . 
Všechní me NN Vp VB AA NN . 
V 00–00 NN Vp Vf NN . 
Mi NN Vp mě hodné NN . 
Taky Vp AA NN . 
Vp VB moc dlouho . 
NN Vp VB pozdo . 
Ale Vp VB Vf , ješte Vp VB s NN . 
NN a NN Vp mě AA NN . 
Všechno Vp nejlepe . 
