VB NN . 
VB z NN . 
Už meXXXíc VB NN v NN . 
VB NN protož NN Vc Vf se na NN . 
NN VB AA . 
VB v NN . NN NN na NN 6 . 
Náše NN VB AA a AA . 
V NN VB NN , NN , NN , NN , NN , NN , NN . 
NN VB AA NN dopoledne i dopoledne . 
NN VB AA NN . 
VB NN , NN , AA NN , NN . 
NN AA . 
VB se mi tady . 
