NN a NN . 
Kdy mě Vp 8 NN Vp Vp NN NN . 
Vp VB NN . 
Ja moc VB NN . 
NN VB se mnou doma . 
AA NN Vp VB na NN . 
VB se o NN . 
Ja VB Vp a Vp ho . 
NN mi VB . 
Ja často Vp NN , který VB doma . 
Podle mého NN ne AA NN VB VB NN . 
Mnoho NN VB NN . 
Například VB jejích . 
