Vi , abych se Vám Vp , VB se NN , VB mi 16 NN . 
VB v NN , už VB tady 12 NN . 
Vp VB se v NN ale moje NN VB NN a NN . 
NN VB 46 NN a NN 47 . 
VB NN a NN . 
Moje NN se VB NN a VB jí 19 NN , NN se VB NN a VB mu 14 NN , všichny VB do Franzouského NN . 
NN VB tento NN , AC VB na NN , NN VB víc AA VB moc NN a taky NN . 
Ve NN VB AA NN . 
NN a NN VB ve NN , tám VB hodně NN a taky hodně NN . 
VB AC NN , taky VB mě Vf , taky VB AC NN , NN VB 2 NN . 
O NN VB do rakousko u NN a NN , a VB do NN s NN . 
