VB NN , ja VB Ke NN . 
QQQ a ja VB 7 NN v NN a 3 NN v NN . 
Ja VB Vf NN NN na NN . 
Ja VB AC NN : NN NN , hockey , NN . 
Ja VB AC Vf NN NN . 
MXXX NN Vs VB NN v NN VB AA moj NN . 
NN VB NN ja NN v NN ( NN NN v NN . ) 
