VB se NN já VB NN VB v NN , ya VB AC čocolodu , NN - NN , ya VB AC NN já VB , x NN , NN NN 360 , NN , NN , NN , NN , NN , DS NN , GomeCube . 
V muj Vf yá VB NN moje NN , , v kde Vf , yá VB NN , VB v , yá VB Vf NN nebo NN , já VB NN , yá VB AA NN , NN of A Down , Qeen . já VB NN o NN , moje AA NN 4 NN 2 NN a NN , ya VB 2 NN , NN . 
NN , muj 2 NN VB NN . 
Ya VB AA cross , v NN VB do NN VB , NN NN 
