NN 
1 . 
NN v NN : 
AA NN a AA NN AA NN : 
2 . 
AA NN : 
21 NN - NN , NN NN ( Eid-al-Fitr ) , NN NN ( Eid-al-Adha ) 
3 . 
AA NN 
VB NN , AA NN a AA NN VB své AA AA a AA NN . 
Dnes VB Vf o NN v NN . 
VB mnoho NN v NN , včetně AA a AA NN . 
AA NN VB AG : 
1 . NN - AA NN , 2 . 14 NN - NN NN , 3 . 8 . NN - AA NN NN , 4 . 9 . NN - NN NN a NN , 5 . 1 . NN - NN NN , 6 . 1 . NN - NN NN , 7 . 8 . NN - NN NN 
VB Vf v NN o těchto NN , ale Vp VB v NN Vf o AA NN v NN ( nebo AA NN ) . 
AA AA NN VB : 
1 . 21 . NN - NN 2 . 
NN NN / Eid-al-Fitr ) 3 . 
NN NN ( Eid-al-adhá ) 
Podle mého NN tyto NN VB obecně AA NN . 
Vi do NN a Vf . 
Navruz 
Navruz ( také Vp NN , NN a NN ) , AA NN " AA NN " , Vp Vs za více než 2500 NN , možná tak dlouho , jak 5000 NN . 
VB z NN a AA AA s AA Zoroastrian NN , jeho NN VB " AA NN " , protože se v NN AA AA Vp první NN AA NN . 
Dnes NN se VB AA NN 21 . NN , kdy NN VB do NN NN na AA NN . 
Dnes se VB NN velmi pestře a v NN , NN , NN , NN , NN , NN , NN , NN a AA NN NN , jakož i NN v NN , NN a NN a NN a NN v AA NN . 
V AA deseti NN , AA NN Vp NN jako AA NN . 
Jeho NN VB Vs NN v NN a NN , NN a AA AA NN . 
Na NN od AA NN AA NN , NN VB Vs v AA NN v AA NN . 
21 . NN VB NN NN , ale pro AA NN VB AA NN , na NN NN a NN , Vf NN NN a AA NN a VB AA NN v AA AA NN . 
Tradičně VB také NN na " Vf " něčí NN . 
NN , Vf své NN , NN NN a NN , Vi NN , a Vf AA NN , které se VB Vf za NN . 
V NN NN všechny NN - včetně NN NN , pečlivě NN NN a NN NN z AG NN , NN , AA NN nebo AA NN - VB Vf Vs před NN NN AA . 
NN VB na NN , protože si často NN , NN , stejně jako NN od svých AA . 
AA NN VB AA NN NN . 
Z AA NN , NN Vp Vs v AA NN s NN , NN , NN , a AA a AA NN . 
Dnes , NN stále Vf AA NN " sumalyak " , který VB jako NN - AA NN NN a VB Vs z NN a AA NN NN . 
Sumalyak VB AA pomalu NN , někdy s NN NN . 
AA NN VB NN NN , NN , NN a NN . 
Tento NN se VB na NN NN , kdy všechny NN a NN Vf a Vf AA NN na NN . 
V tomto NN NN , mnoho NN se VB AA AA NN , jako VB : 
VB , NN NN , NN a AA . 
Tyto NN NN VB AA NN NN , které VB AA pro AA NN . 
V AA NN , NN VB Vs každoročně na NN NN NN . 
NN NN 
Druhý NN VB Vf , to VB také AA NN NN . 
Tento NN VB AA jako NN Vf , se VB s 9 . NN ( NN ) na AA NN . 
Tento NN VB NN jako NN , která VB 30 NN a VB Vs za NN AA a AA NN . 
NN NN takto : od NN do NN NN VB Vf a Vf , NN a NN , AA od AA NN , NN , se všichni AA VB Vf a pokud AC Vf více AA pro AA . 
NN ul-Fitr VB Cl NN NN v AA NN ( NN v NN ) a VB také AA jako " AA NN " . 
AA NN během tohoto NN VB AA NN ' NN NN ( " AA NN " ) , nebo ' NN NN ( " Happy NN " ) . 
Navíc , AA NN VB své AA NN na AA NN a NN . 
AA NN VB , ' Hayitingiz NN ' , ' Vf NN ' , ' NN NN ' . 
Typicky , NN VB brzy ráno a VB AA NN ( jako NN , že Vp na rychle se v ten NN ) , nejlépe v NN NN , než Vf AA NN NN ( NN ) , která se VB v NN . 
NN VB Vs , aby se Vp do svých AA NN ( AA , pokud VB to AA ) pro tuto NN . 
NN se VB z NN ( Vi ) , NN ( NN ) a pak NN ( NN ' ) , která VB o NN , NN a NN pro všechny AA NN v AA NN . 
To VB pak AA Vf NN , jež VB na Cl NN od sebe , zatímco jejich NN . 
Po NN , NN také Vf své NN , NN a NN 2 , a někteří NN také Vf NN NN ( ziyarat al-qubur ) . 
V tomto NN AA NN VB NN - AA NN NN . 
Vs z NN NN . 
Ale v NN ( NN NN ) , NN Vf NN AA NN . 
AA NN VB ' Bugirsoq ' . 
První NN AA NN " VB AA NN , a všechny AA NN v této AA NN . 
Třetí VB NN NN . 
NN al-Adha ( arabsky : 
XXX ) " NN of Sacrifice " , nebo " AA NN " VB AA NN Vs NN ( včetně NN ) na AA NN na NN NN NN Vf svého NN NN jako NN NN k NN . 
AA NN NN NN VB Cl z AA NN na NN , který VB Vs NN . 
NN tohoto NN VB AA NN , které se VB k NN NN , kteří VB svou NN Vc Vp " NN " svého AA NN , ale jeho NN Vp Vs AA NN , a místo toho mu Vf , AA NN , jako VB : NN , NN atd . 
Vzhledem k tomu pak , všichni NN VB Vf NN v těchto NN . 
NN VB Cl NN a v těchto NN všichni NN Vf tento NN s NN a NN . 
Zejména v těchto AA NN NN VB své NN a NN , stejně jako NN a VB NN . 
První NN NN " NN NN " VB AA NN , a všechny AA NN v této AA NN . 
NN al-Adha VB posledně Cl NN NN VB NN , jejichž NN VB z NN . 
Podobně jako NN al-Fitr , NN al-Adha VB s AA NN VB NN ( khuXXXba ) . 
Po NN NN Vp NN NN . 
Ne AA NN VB Vs bez AA NN v těchto NN . 
V některých NN se NN , které VB AA NN VB Vf na AA NN , které VB Vf NN těm , kteří VB v NN . 
NN al-Adha každoročně VB na 10 . NN NN NN NN ( XXX ) z AA AA NN . 
NN VB Cl nebo více NN v NN na NN . 
NN Al-Adha VB NN poté NN NN NN , AA NN do NN v AA NN NN na AA NN . 
VB se , že VB přibližně 70 NN po NN NN NN . 
NN , NN a NN , se VB , že ve svých AA NN NN pro NN NN NN v NN . 
AA NN více než 5000 NN NN , VB tento NN v AA NN . 
Stejně jako v AA Vf , NN si navzájem Vf Vf ' Hayitingiz NN ' , ' Vf NN ' , ' NN NN ' . 
Kromě toho VB některé NN , které se VB od NN . 
VB se o AA AA NN . 
Například , NN NN ( AG NN ) - VB v AA NN ( asi v NN ) , NN NN - NN NN ( zejména Vp na NN ) , NN AA ( na NN , po NN ) . 
AA NN . 
AA NN VB NN . AA NN VB Vf a Vf . 
AA NN VB velmi AA a AA . 
VB AA NN , AA NN VB NN NN se všemi NN a NN . 
AA AA NN VB AA NN a AA NN . 
Například já . 
Obecně NN , kteří VB ve NN , NN v jejich NN , NN , a někteří VB jako NN . 
Tyto NN Vp z jejich AA NN NN . 
VB od 8:00 do 17:00 , někdy i AA NN . 
Ve NN NN NN VB na AA NN , jako VB AA NN , AA NN . 
VB mnoho NN , NN a NN . 
VB NN dobře . 
VB to NN ve své NN . 
NN NN se Vf , co Vf v NN . 
Tam VB AA NN AA NN VB s NN , zatímco AA Vf . 
Alespoň jednou týdně NN AA NN Vf své NN . 
AA NN VB AA na své NN , spíše než jejich NN . v NN , že VB mnoho NN , zejména NN , se VB jako AA . 
VB NN VB Mahalla . 
Tato NN VB ( AA ) NN NN . 
VB NN Mahalla . 
Obyvkle NN NN VB NN . 
Pokud VB nějaké NN AA s NN nebo NN , které VB v NN Vf NN . 
NN NN , NN v této NN Mahalla , VB jen málo NN a AA NN . 
VB se o AA AA NN . 
Ve svém AA NN , NN bez NN na jejich AA NN . 
Například , že VB v jejich NN , Vi na " Choyxona " , AA NN pro NN Vf a Vf " NN " a Vf NN . 
Někdy VB na NN nebo NN . 
VB málo AA NN , když tvrdě Vf . 
Obecně AA NN AC tvrdě Vf a Vf NN , jen pro své NN a VB AA NN . 
VB " NN " NN pro NN během NN . 
V této NN NN VB Vf a Vf NN při NN na NN a Vf ji na AA NN . 
AA NN VB stále často VB NN . 
NN VB NN NN VB naše AA NN . 
VB to NN VB AA a VB AA NN NN . 
VB se VB na AA NN , jako VB NN , AA NN ... 
Někteří NN VB AA NN , AA AA NN původně AA NN . 
NN NN NN VB NN NN nebo NN , které VB AA a AA AA NN . 
A VB NN pro NN uzbečtina : čtyřicet NN VB dost pro NN . 
