VB NN . 
Ma NN se VB NN . 
Ona VB AA NN , XXX AA , VB AA NN jakí VB velmí AA . 
NN VB AA NN a AA NN . 
Ona VB AA NN , AA NN , . Ona VB AA . 
Ma AA NN . 
NN NN XXX AA , ale AA NN . 
Ona VB velmí AA . 
Ona VB Vf ( tomu ) VB velmi Vf . 
NN VB AA , AA XXX , AA , AA . 
Ona a ji NN , VB AA jako NN NN . 
Ony VB velmi AA NN a vzhledem . 
Oní VB velmi AA . 
NN je VB AA NN . 
