NN NN ! 
NN za tvůj NN . 
AA NN VB Vp NN - Vp VB sve NN QQQ . 
Vp tam jenom moji AA NN a NN . 
A take Vp moje NN NN . 
Vp VB od nich NN - AA NN AA NN . 
Tam VB Vp , Vp , trochu VB Vp a Vp - Vp vesele . 
To Vp AA NN , bohužel VB Vp tady . 
Vi se 
Čau 
07.05.2011 
NN 
