Moje AA AA V NN 2009 VB Vp AA NN . 
Vp VB v NN sama . 
Vp VB NN . 
První NN VB Vp na NN v NN . 
Když VB Vp v NN , NN Vp mi " Ahoj " . 
Ja VB Vp AA , protože ještě VB , ale to Vp moc AA . 
Večer VB Vp Okonomijaki a takojaki . 
To VB AA NN v NN . 
To Vp moc Vp . 
AA NN VB Vp NN , proto VB Vp NN . 
Moje Cl NN VB v NN . 
Vp VB se s NN . 
Vp VB v NN a Vp VB na NN . 
Vp VB na NN , ale ta NN Vp AA , protože NN Vp AA . 
I když NN Vp AA , Vp VB AA NN . 
Ja VB Vp v NN jenom 2 NN , ale ja VB Vp AA . 
To VB moje AA AA . 
