Ahoj NN , Jak se VB ? 
VB se fajn . 
V NN se VB v 20 . 1 . 2011 na AA NN . 
VB tam v 10 NN ráno . 
NN VB AA . 
VB Vf moc . 
VB že VB Vf NN . 
VB v NN , jasně . 
A taky na nějakém NN . 
VB že VB Vf to AC . 
A potom VB v NN na NN . 
VB moc AA . 
VB tam taky NN jako AA . 
A VB že taky VB Vf a Vf NN . 
To VB moc AA a VB NN . 
VB že VB taky Vf . 
Já VB nějaké NN . 
NN , NN 
