NN NN 
Vp Vc Vf jak Vp mé NN . 
To Vp 15 NN v NN v NN . 
Vp tam me NN , VB Vp , Vp , Vp VB se . 
Vp VB hodně NN . 
AA NN Vp NN meho AA NN . 
Pak VB Vp NN a Vp VB NN , NN . 
To Vp AA NN . 
VB na tebe tvůj NN . 
08 . 12 . 2010 
