AA NN , 
Jak se VB ? 
Já VB Vf na NN do NN a VB Vf v NN NN od 16 . NN do 23 . NN . 
VB spolu na NN , protože 16 . NN VB NN . 
VB ti všechno AA k NN . 
VB do NN Vf NN . 
VB se 7 NN večer v NN NN . 
VB se , 
Tvoje NN 
