NN NN 
AA NN , NN . 
Už VB v NN drouhy NN . 
Už VB Vp hodně NN v NN . Vp VB Vf , Vf . 
AA NN VB Vp AA NN , VB se NN . 
VB z NN . VB AA NN , VB AA NN VB AA a AA . 
Vp VB s NN ve AA NN . VB že VB NN , ale , NN , že NN Vp do NN . Vp VB AA . NN , už VB NN . 
Když VB NN VB do NN . VB se na jí , 
vas NN 
