Aahoj NN . 
Jak se VB ? 
VB se dobre . 
Teď VB v NN . 
Moje NN VB AA ale AA , AA . 
Na NN VB daleko , asi 5 NN pěšky . 
Vedle VB NN a NN . 
NN VB blízko , VB NN 20 NN , NN asi 30 NN . 
Vedle VB NN . 
VB NN , nikdy VB NN NN v NN . o NN se VB s NN u moje doma . 
VB čisky NN , protoze teď NN VB NN , NN , dlouho VB . VB NN . VB spolo NN . VB do moje NN . NN VB . 
Aahoj 
