jak se VB ? 
VB se dobže ! 
Jak tvuj NN ? 
Ješte VB do NN ? 
Už teď VB v NN a VB NN v AA NN NN . 
VB moc AA NN . 
V NN VB v 9:00 do 13:00 NN a taky v NN , NN , NN A NN . 
V NN v 18:00 VB NN . 
NN v 20:00 VB se na NN a v NN v sedmnáct třicat VB do NN s mou NN NN . 
V NN v 19:00 VB Vf AA NN . 
V NN 13:00 VB NN na NN NN a NN v 15:00 NN . NN v NN a NN VB AA NN . 
Ahoj NN 
