Na NN VB NN . 
NN VB na NN . 
NN se VB na NN a NN VB NN . 
NN VB na NN . 
NN VB nalevo , a vedle VB AA NN . 
Na NN VB NN . 
Napravo VB AA NN a AA NN . 
Na NN VB NN . 
U VB NN a NN . 
Nahoře VB NN , a dole VB NN . 
