VB Ti z NN . 
VB v NN už 2 NN . 
Od NN do NN dopoledne VB NN . 
V NN v 18 NN AC VB NN , v NN v 20 NN se VB na NN . 
AA NN v 19 NN VB AA NN . 
Ve NN VB do NN s NN . 
AA NN od 15 NN do 18 NN VB na AA NN . 
V NN VB NN na NN NN . 
NN NN ji AA NN . 
V NN VB Vf NN ze svou NN . 
VB se na tvuj NN . 
Vi se hezky ! 
Tvá NN . 
