Jak se VB ? 
VB se dobře . 
VB AA ale AA AA NN . 
V NN do NN v 9:00 - 13:00 VB Vf NN ve NN . 
V NN večer se VB Vf NN . 
V NN večer se VB Vf na NN . 
Ve NN VB Vf Vf AA NN . 
V NN VB do NN s NN , potom VB Vf NN a Vf NN v NN . 
V NN VB do NN na NN . 
O NN dopoledne VB Vf NN , a proto VB Vf nebo Vf . 
V NN odpoledne VB na NN na NN NN . 
V NN odpoledne VB Vf NN . 
Vi se hezky ! 
NN 
