NN ! 
Jak se VB ? 
VB se dobře . 
VB Vp AA NN . 
Včera ráno v 8°° VB Vp NN . 
Potom VB Vp NN v 9:30 . 
V 11:00 VB Vp do NN a Vp VB NN . tak doma a Vp VB . 
V 13.30 VB Vp do NN . v 15 : 30 VB Vp NN pro tebe . 
V 18:00 VB se Vp na NN , potom VB Vp do Vf v 21:30 . 
tvůj NN 
