Ahoj . 
Já VB tvůj NN NN . 
O NN VB Vp v 8.00 ráno . 
Potom VB Vp NN v 9.30 . 
V 11.00 VB Vp na NN a v 12.00 NN VB Vp na NN protože VB AA NN vedle svého NN . 
V 15.30 VB Vp NN pro své NN . 
V 18.00 VB se Vp na NN a tam Vp moc AA NN . 
Ten NN se mi moc Vp . 
A pak VB Vp Vf v 21.30 . 
Já VB , VB moc brzy , ale VB Vp Vf do NN a proto VB Vp Vf Vf před 22.00 ! 
Čau NN . 
NN . 
