Vp VB v 10 NN ráno . 
Nejdřív VB Vp NN v 11:30 ráno a potom VB Vp potom VB Vp AA NN na všechno , na NN , NN , NN , NN . 
Potom v 14 NN odpoledne VB Vp ven protoze VB Vp AA NN . 
V 17 NN VB se Vp na AA NN , a potom v 23 NN VB Vp na NN kde VB Vp Cl NN . 
Po NN VB Vp do NN v 1 NN . 
To Vp moc AA AA . 
