VB tí z NN . 
VB tadý VB AA NN . 
Můj AA NN VB taký od NN do NN VB do NN na NN . 
Od 9:00 do 13 NN VB češky . 
Pak VB do NN na NN . 
V 15:00 se VB . 
V 18:00 VB NN . 
V NN odpoledne s NN se VB na NN . 
Ve NN ve 14 NN VB do NN , večeri VB AA NN . 
V NN večeri VB své NN NN na NN . 
V NN s 15 - 18 NN VB na NN , pak NN NN , NN , VB . 
V NN dopoledne VB AA NN . 
Ve 13:00 NN na NN do NN NN . 
V NN v 15 NN VB NN , večeri s NN VB na NN , a se VB na AA NN . 
