Vi za AA NN - Vp dost NN . 
Všechno v NN . 
VB teď v NN , VB NN ve NN . 
VB NN AA NN ( kromě NN , samozřejmě ) od 9.00 do 13.00 , ale pro mě to VB velmí AA , proto AA NN VB jenom Cl krát ( ) - ve NN v 19.00 . 
V NN v 18.00 NN NN , v NN se VB na NN . 
Dneska VB do NN se svou NN NN . 
Zítra od 15 do 80 VB v NN , Vf NN . 
V NN Vp Vf na NN do NN NN , ale v NN VB NN v 15 NN , proto VB , že VB doma . 
