můj AA NN NN . 
Můj AA NN VB NN , protože moje NN mi VB NN . 
Často VB NN doma , všichni NN k nám na NN , NN VB NN . 
VB AA NN . 
Až do NN , VB si NN , který VB AA pro NN . 
VB NN , VB , i VB . . . 
To VB moc AA . 
To VB AA VB , taky VB VB s NN . 
VB v NN , VB si něco k NN , VB se o všem , co VB NN . 
Tak , to VB moje NN . 
