Můj AA NN VB NN . 
Před NN VB Vp NN , ale VB v NN , NN a NN a NN VB v NN . 
Vp VB AA , protože VB Vf spolu ... , ale AA NN a AA NN Vp na NN . 
Vp VB AA , protože Vp to NN . 
Vp VB Vf moji NN v NN . 
Vp VB se Vf s NN , ale Vp VB . 
NN VB v NN , ale Vp VB . 
