VB NN od NN do NN ve NN . 
VB od 9:00 do 13.00 . 
V NN v 18:00 VB NN . 
V NN ve 20:00 VB se na NN . 
Ve NN v 19:00 VB AA NN . 
Ve NN odpoledne VB do NN s NN . 
AA NN odpoledne VB do NN . 
V NN v 13:00 VB s NN na NN na NN NN . 
Čau 
