Já VB NN . 
Teď VB a VB v NN . 
V 8.00 VB Vp . 
Potom v 9.30 VB Vp NN . 
V 11.00 VB Vp do NN a Vp NN . 
V 12.00 VB Vp . 
V 13.30 VB Vp do NN blízko mého NN . 
V 15.30 VB Vp NN pro tě . 
V 18.00 VB se Vp na NN a Vp . 
Pak VB Vp Vp v 21.30 . 
To VB můj NN . 
