Když mi Vp 20 NN , Vp VB AA NN . VB Vp VB NN . 
Protože Vp hodně NN na NN u NN mně . 
Vp VB AA . 
Oni Vp mně hodně NN . 
Když mi Vp 20 NN , Vp VB AA a AA NN . 
Vp VB AA NN . 
Vp VB ve NN . 
Vp VB 2 AA NN . 
Ale Vp VB NN , Protože Vp hodně NN na NN u mě . 
Oni Vp mně hodně NN . 
Ale můj NN Vp moc AA , Proto VB Vp Vf venku . 
Vp VB vedle NN . Vp VB do Cl AA NN . 
Vp VB NN , Vp VB NN a NN . 
Vp VB o NN , ve které VB Vp . 
To Vp AA NN . 
VB AA NN . 
