Ahoj NN . 
Ja se VB ? 
AA NN VB Vp NN . 
Vp VB z NN na NN v NN " NN " . 
Tam Vp hodně mych NN . 
Od sveho NN NN VB Vp NN . 
V NN VB ochutnXXXli AA NN NN . 
A pak VB Vp NN . 
V tento NN Vp NN . 
VB že to Vp AA NN . tvuj NN . 
