VB Vf NN , protože včera Vp AA NN . 
V 8:00 ráno VB Vp Vf moc , protože Vp AA NN . 
V 9:30 VB Vp NN . 
V 11:00 VB Vp moc a v NN Vp mo NN , VB je . 
V 12:00 VB Vp AA . A když VB Vp ho VB Vp na NN . 
NN VB moc ale v NN Vp moc NN . 
V 15:30 VB Vp NN pro moje NN a potom VB se Vp na NN . 
V 21:30 VB už Vp protože VB Vp moc AA . 
VB že tvoje AA NN Vp taky AA . 
Vi se hezky 
NN 
