Moje AA NN se VB NN . 
VB NN . 
V NN VB Vp ve AA NN . 
Oni VB AA a AA . 
Jeho moc AA , AA a Vf . 
Někdy jeho NN AA . 
Jeho VB AA NN . a NN . 
Teď VB NN v NN NN . 
Který VB do NN . 
VB Vf něj . 
Jeho VB moc AA NN . 
