v NN 04 . 05 . 2011 . 
Ahoj NN ! 
Včera VB Vp NN . 
To Vp moc dobře . 
Vp hodňe NN . 
VB NN , NN pro NN , NN , NN do NN , NN na NN . 
Vp VB AA NN , NN ( AA a taky AA ) . 
Vp VB AA NN . 
Mnoho VB Vp a Vp VB NN . 
Potom VB Vp na NN a Vp VB . 
Srdečně NN . 
NN 
