Ahoj , 
AA NN VB Vp nějaký NN v NN 10 když VB Vp s AA NN . 
VB to 3+1 , VB AA NN , ale VB to daleko od NN . 
Vp VB se tam v NN . 
VB blízko NN , tak VB Vf NN AA NN do NN . 
Ten NN VB AA ( VB NN ) , ale VB to NN protože můj NN mi Vp , NN , a NN ! 
Už je VB a VB , tak určitě VB si Vf . 
Asi on VB co VB " AA . " 
Ach jo . 
VB NN a VB to AA . 
VB Vf v NN tak často VB Vf tam . 
