VB v NN už NN . 
VB NN taky NN . 
VB AA AA AA NN , ktery VB v 9 NN a VB v 13.00 . 
V NN večer VB NN . 
V druhy NN NN večer se VB na NN . 
V NN v sedm NN VB AA NN . 
V NN v 17.30 VB Vp do NN s NN . 
V NN VB Vp do NN pro NN . 
Vp VB NN , NN , NN a NN . 
V NN VB Vp NN na NN NN a někdy odpoledne VB Vp NN . 
Tvuj NN 
