Ahoj , NN . 
V NN , 20 . 02 . 204 VB NN , že VB Vf do NN . 
Ty Vp , že VB 28 . NN . 
Když VB , Vi mi na NN QQQ . 
To VB NN mého NN . 
Pak ja VB do NN a VB spolů na NN . 
VB na AA NN a pak na AA NN . 
Tam VB AA AA NN a tam VB AA AA NN . 
VB se na tvůj NN a VB na tebe . 
NN . 
