Ahoj NN , 
Jak se VB ? 
Za NN VB do NN . 
VB Vf na tebe na AA NN AA NN . 
VB AA NN volno . 
VB NN AA NN ? 
Moje AA NN se VB NN , VB NN , VB výborně NN . 
VB Vf NN na NN a NN ? 
V NN VB moc AA NN , jako NN , NN , NN taky , VB AA . 
VB s NN spolu . 
VB se v NN . 
Mě se AA 
NN 
