AA NN . 
Ahoj NN ! 
VB NN . 
Už VB Vp dlouho . 
VB mi NN . 
VB ? 
Vp VB se nějakou NN . 
VB se NN . 
Ona VB z NN . 
VB taky NN . 
Jako já její AA NN VB NN . 
To VB AA ? 
Ona VB česky dobře . 
Ona VB AA AA NN . 
Pořád VB AA a AA . 
Já VB NN AC ni . 
Když VB si VB , VB moc AA . 
Protože VB AA NN . 
Vs NN zase ! 
NN ! 
8 . 6 . 2011 
S NN , tvoje NN . 
