NN ! 
Jak se VB ? 
VB včera Vp rano a v 8.00 NN hodně Vp . 
Potom v 9.30 VB Vp NN . 
V 11.00 VB Vp do NN a Vp NN pro mě . 
V 12 NN VB Vp NN . 
V 13.30 NN VB Vp na NN do NN . 
V 15.30 Vp NN pro tebe a v 18.00 NN VB se Vp na NN ( NN ) . 
V 21.30 VB Vp Vf . 
VB se na tvůj NN . 
NN 
