Jak se VB ? 
VB Vf o můj NN . 
V NN VB NN od 9 do 13 NN . 
VB NN . 
A potom VB Vf NN v 6 NN . V NN VB NN jako NN ( 9 - 13 ) a VB se Vf na NN v 8 NN . 
Ve NN VB NN jako NN a potom VB Vf AA NN v 7 NN . 
Ve NN taky VB NN . 
AA NN VB NN pd 9 do 13 NN , ale VB NN o NN . 
Po NN , VB do NN s NN v 5.30 . 
V NN , po NN VB na NN od 3 do 6 NN . 
V NN a v NN VB AA NN . 
Proto že v NN VB na NN na NN NN v 1 NN a v NN VB Vf NN v 3 NN . 
NN 
