AA NN . 
NN ! 
Jak se VB ? 
VB se dobře . 
Nahodou VB , že VB Vp NN . 
To VB . 
To Vp AA NN sedmého NN . letos taky VB Vf NN ! 
V NN VB Vp NN . 
S NN a s NN VB Vp na NN . 
Vp VB NN , NN , NN . 
Vp VB moc AA . Vp VB na NN . 
A potom VB Vp NN a NN . 
Vp Vc Vf s tebou ! 
To VB AA ! 
Vi se fajn ! 
Tvoje NN 
