Jak sé VB ? 
VB NN Vf do tebe . protože VB NN na NN . 
AA AA NN VB NN od 9.00 do 13.00 . 
VB NN . 
V NN deli večer VB NN . 
V NN VB na NN v 20:00 NN . 
Ve NN zaimam se o NN a VB AA NN . 
V NN . VB do NN s NN . v 17:30 NN . 
V NN NN do NN v 16.00 NN . 
V NN a NN VB NN , V NN NN na NN na NN NN , a v NN VB NN . 
