Ahoj , NN ! 
VB už Vp do AA NN . 
VB v NN 3+1 s AA NN , se které VB AA NN na NN . 
Co VB AA , NN VB už AA , a proto VB si nic Vf . 
VB AA NN , NN VB zvlašť a NN VB AA a AA , co se mí moc VB . 
VB velmi AA ! 
VB se dáleko od NN . 
VB s tím AC . 
NN do NN se VB jenom deset NN NN . 
A všechno VB blízko : AA NN , NN , NN , NN . 
Co se VB NN , tak to VB moc AA NN a VB mým NN . 
Vp VB , že VB si někam Vf , tak VB tí s tím Vf . 
VB AA NN AA NN , která mí Vp Vf NN . 
VB dobře a VB Vf AA NN . 
VB tí tam Vf . 
VB tě v NN na NN svého NN . 
Vi si AA , 
NN . 
