Ahoj NN . 
Jak se VB ? 
VB se moc dobře , protože VB AA NN . 
VB moc AA a AA . 
Tam VB NN , NN , AA NN . 
Můj AA NN VB v NN 6 . 
A vedle VB AA NN . 
Já často VB tam . 
A taký NN VB blízko můj NN . 
NN ! 
VB , že to VB AA a AA NN , že ? 
A co VB ? 
A jaký VB váš NN ? 
NN NN 
