Ahoj AA NN ! 
Jak se VB ? 
VB se dobře ! 
AA NN VB Vp na NN s AA NN . 
Vp VB NN za Cl NN od NN - do NN . 
Vp VB česky a VB Vp AA NN ve NN . 
Pak VB Vp v NN . 
NN NN VB AA AA a AA . 
Vp VB se NN . 
Od NN do večer VB Vp AA NN . 
Vp VB moc AA . 
Pak VB Vp a Vp VB NN . 
To VB AA a AA NN . 
Na NN VB Vp do NN . 
Co jsi Vp AA NN . 
VB ... ! 
Tvoje NN 
