Ahoj NN ! 
VB AA NN . 
Teď VB v NN . 
Můj NN VB v NN NN . 
To VB vedle NN , se VB " NN 51 " . 
Taky , to VB blízko NN . 
NN VB všechno ! 
AA NN , VB NN v NN . 
Můj NN VB AA . 
V NN , VB Cl AA NN . 
VB Vf je ! 
Čau , moje NN ! 
NN 
