NN - naše NN nebo NN NN ? 
" VB na NN ? " 
" VB to " Vf ! " 
Dnes VB možná NN , že už VB , co AA NN VB . 
VB Vás v NN NN ! 
NN VB " AA NN " na NN , který VB NN Vf se , Vf se , nebo Vf se . 
VB tam Vf NN , NN , NN ... Skoro všechno VB tady AA . 
Předtím se Vp : 
" Když VB AA NN , tak VB . " 
Dnes VB : " když VB na NN , VB ! " 
Ale VB to opravdu tak AA ? 
Já VB se Vp na NN , protože VB Vp v NN a NN , a tam VB Vp AA NN . 
NN Vp jako AA NN pro NN NN . 
Teď , když VB v AA NN VB NN taky AA , protože moji NN VB v NN . 
NN VB kdýž NN VB NN , jako AA NN , nebo na NN AA NN . 
A tady VB NN NN : NN se už Vp na NN nebo v NN , ale VB na " NN " . 
VB , že dnes VB Vf AA , abychom Vp své AA , AA NN , a Vf ještě v AA , a ne jenom v AA NN ! 
