Vp tam AA . 
Vp VB NN , zatím VB Vp NN a NN . 
Můj NN NN Vp AA NN . 
NN Vp moc AA , ale Vp AA . 
NN Vi NN , ale Vp to AA NN . 
VB AC AA NN . 
NN Vp AA . 
Pak už Vp AA . 
NN Vp NN , všchno Vp vpořadku . 
Vp VB 150 NN . 
Vp VB si Vf na NN , který Vi NN . 
A pak VB Vp 150 NN , ale Vp VB mu NN . 
NN , co VB AA ? 
Se AA NN 
