Ahoj NN . 
Jak se VB ? 
VB moc dobře , protože VB Vp AA NN s můj NN . 
Vp VB do NN . 
Aha . 
Tam VB moc AA a AA . 
A NN taky VB AA , jasno a NN . 
Tam VB hodně NN . 
Někdo VB , někdo VB NN . 
VB , Vp VB AA NN , protože VB Vp AA dopoledne . 
A potom Vp do NN na NN . 
To NN VB moc AA . 
A pak , Vp VB do NN a Vp . 
Vp VB AA , ale AA . 
A ty ? 
VB NN ? 
NN 
18 . 1 . 2012 
