AHOJ , NN NN . 
JAK SE VB ? 
JÁ VB NN . 
TEN NN NN NN NN NA NN V NN . 
NN NN NA NN V NN . 
VB AA NN . 
AA NN A NN , NN VB NN , TO VB AA NN AA NN . 
V NN NA AU NN NN AA NN . 
A JEŠTĚ NN NN NN A NN . 
V NN NN NN . 
VB SE VB MI TADY . 
TVOJE NN 
18 . 1 . 2012 
