, která VB AA . 
Cl NN Vp náš NN . 
Vp Vc Vf Vs . 
Za NN VB Vf NN , které se Vp . 
Vp VB se skoro VB všechno AA NN , Vp VB však AA o AA NN . 
A potom VB si Vp NN o tom . 
Tam Vp . 
Já VB si Vp AA NN , protože skoro všechno VB AA . 
Já VB Vp NN , " NN , VB , " Tam VB NN AA než AA NN , ale VB tě Vf . 
Podle mého NN , AA NN VB AA . 
Kdybych Vp s tebou do NN za NN , Vp Vc s tebou AA NN . 
VB se na tebe . 
Hodně NN a na NN . 
Na NN . 
AA NN . 
NN . 
