Ahoj Iano a NN ! 
Ve NN VB Vp na NN . 
Vp VB do AU NN . 
Vp VB NN z NN . 
Vp VB v 5 NN ráno . 
NN Vp za Cl NN . 
Vp VB a pak VB Vp pešky do NN . 
Na NN VB se Vp AA NN . 
Spolů VB se Vp NN , NN , NN a drůhý AA NN . 
Vp VB se do NN a Vp na ho . 
Vp to AA NN , protože VB s ním teď a VB Vf NN ! 
VB se na Vás . 
NN ! 
NN . 
