Čau NN 
Jak se VB . 
Já se VB dobře a VB NN . 
Proto , že VB Vp na NN na NN . Vp VB tam k NN proto , že dlouho VB Vp ho . 
Vp VB tam NN . ale to Vp moc AA . 
Vp VB tam AA NN . 
Vp VB na NN na NN . a pak Vp VB do NN . 
Vp sé VB o NN a pak Vp VB NN . Vp VB v NN NN . 
Vi se fajn . 
NN 
