Ahoj NN ! 
Jak se VB ? 
Co u vás AA ? 
VB se dobře . 
VB v NN AA NN . 
Vi k nam ! 
Na NN se VB , AA v NN . at na NN , VB AU NN . 
A tak dále ... 
VB , tam AA NN . 
AA NN VB moc AA a AA . 
VB se na VB . 
Zatím ahoj . 
Vi se hezky . 
NN 
