Na NN VB AA NN . 
Nalevo VB AA NN , VB AA NN . 
Na NN VB NN . 
Vpředu VB NN . 
Na něm VB NN . 
Na NN VB nějaký NN a VB NN . 
Napravo VB NN . 
Na NN VB NN . 
Vedle NN VB NN . 
Vzadu VB AA NN . 
Na NN VB NN . 
Vzadu VB NN . 
Na NN VB AA NN , VB na NN . 
A take VB NN a NN . 
NN se VB ta NN a NN VB NN . 
NN VB na NN a NN VB na NN . 
V NN VB 2 NN . 
Nahore VB NN a na NN VB NN . 
