Nejdřiv VB Vp do AA NN , tam NN a ta NN Vp AA . 
NN , které Vp Vs na NN , Vp moc AA , moc AA . 
Vp VB Vf VB AA , ale AA NN , třeba NN ( Cl plus Cl ) . 
Moje NN si VB na mi , protože ona Vp AA NN s NN , NN , NN . 
My VB NN , ale , ty to VB , yaka AA VB AA v NN . 
NN , ўa VB už Vp NN na NN , protože VB Vp že VB NN v ten NN . 
To Vp mě . 
Vp VB AA . 
A potom někdo Vp v můj NN ! 
Aha ! 
To VB moja NN . 
Ona mi Vp : 
" VB ! 
To VB můj NN ! 
VB tě ! 
A pak ona Vp mě NN od AA NN ! 
