Když VB Vp v AA NN , Vp VB Vf AA NN . 
Vp VB docela AA NN s NN a NN , VB Cl NN . 
Taky VB Vf blízko od NN . 
Ale NN takového NN VB hrozně AA . 
Takže Vp VB Vf NN , A pak Vp VB NN , který VB 3 + 1 , docela daleko od NN . 
Ale ten NN VB docela AA . 
VB AA , takže VB si Vf AA NN . 
VB si Vf , VB NN . 
VB se Vf za NN . 
Už se VB na AA NN . 
Tak jo , teď VB Vf . 
NN ! 
S NN , 
NN 
