V NN , VB NN NN . 
AA AA NN VB do NN a VB NN od 9:00 do 13:00 . 
Tenhle NN V NN odpoledne Vf volno po NN a večer v 20:00 VB se Vf na NN . 
Ve NN VB Vf AA NN v 19:00 a ve NN VB do NN s NN . 
V NN odpoledne VB na NN . 
VB se na NN v NN . 
VB na NN NN v 13:00 ! 
V NN VB Vf NN v 15:00 . 
To VB AA NN , že ? 
NN 
