Ten NN VB AA a AA . 
To VB NN - NN , jeho NN a jejich NN . 
V NN VB AA NN a venky VB NN . 
V NN VB NN a NN . 
Uprosted VB NN ve NN a se VB na NN . 
NN VB na NN a VB NN . 
Jejích NN VB v NN na NN . 
To VB AA NN . 
