AU NN Vp AU NN , a AU NN , které Vp NN na NN v NN v NN 2006 . 
NN Vp NN , aby Vp NN NN NN , takže Vp do VB VB NN NN ? 
Ona Vp AA NN na NN . 
VB si ? 
To VB ono . 
Já Vc Vp Vp , komu to VB nejdráž . 
Tak , co VB , kolik to VB ? " 
NN VB , " Ale proč to VB ? 
VB to AA ? " 
Jestli VB , Já e ! ! " 
" Tak kolik to VB ? " 
" 400 NN ! " 
" Ale ne , to VB AA . 
Tak Vi domů k NN ! ! 
Ty VB tak AA ! ! 
