V AA NN , VB Vp NN NN a AC VB Vp NN . 
Taky VB Vp NN o NN . 
Protože v té NN , Vp VB že , NN VB moc AA NN . 
Vp se mi takovou NN že , VB Vf v tém NN , když VB Vp NN . 
Ale si ta NN Vp , když VB se Vp NN NN v NN . 
Vp VB AA že , NN VB taky AA a VB AA . 
Od toho NN , VB AC NN . 
A teď NN VB AA AA NN pro mě . 
