na AA NN . 
Vp VB si NN a NN , a můj NN si Vp NN a NN . 
Když NN Vp NN , tak NN Vp AA . ale NN Vp AA . 
Po NN VB dlouho Vp spolu o NN , o NN v NN . 
Pak VB Vp NN a něco AA . 
Ta NN VB NN NN . 
VB , kolik VB si Vp ale kdy NN Vp Vf , Vp VB Vf NN , protože VB Vp NN . 
V NN NN VB AA , ale VB AA NN a NN . 
NN . 
Za NN VB ještě . 
