Moc mi tam Vp . 
NN Vp AA . 
Můj NN Vp něco AA , Vp si AA NN a AA NN . 
Ja VB si Vp AA NN a AA NN . 
Vp VB moc AA . 
A potom Vp u NN Vf . 
Bohužel , Vp VB žadné NN na NN i Vp VB NN . 
A pak Vp na AA NN . 
Vp VB a VB Vp o AA . 
Můj NN jako ja NN , Vp Vf NN " Vf si " . 
To VB můj AA NN . 
VB na Tvůj NN . 
NN 
