To VB NN . 
Uprostřed VB NN . 
NN VB na NN . a VB se na NN . 
Vzadu VB NN . 
NN VB na NN a VB NN . 
Vpředu VB NN . 
NN VB . 
Nalevo VB NN a NN . 
NN VB na NN . 
NN na NN . 
Napravo ( vpředu ) VB NN . 
NN VB na NN . 
Napravo VB NN a NN NN na NN . 
NN VB nahoře . 
