AA NN , NN ! 
VB , že VB do NN ve NN . 
To VB dobře ! 
VB se . 
VB že to VB AA , než na NN tydnu . 
V NN se VB Vf na AU NN . 
VB Vf NN a NN . 
Pak VB do AA NN , VB ti , Vp NN ! 
Tam VB VB AA ! 
Pozděj VB Vf vedle NN . 
VB ti jaky VB NN AA NN . 
Nyni VB AA NN , od NN do NN VB NN , venku hodně NN . 
VB , s někým se VB , aby Vc Vp veselo ! 
Tvůj NN VB vedle AA NN , VB tam Vf . 
VB ti ve NN . 
Zatím se Vi hezky . 
Tvoje NN . 
