Můj AA NN Vp VB se . V NN AA NN VB stejně na NN . 
Tento NN VB 31 . 10 . 
AA NN VB Vp s NN . 
NN Vp AA NN jako já . 
Proto my moc AA . 
Já VB Vp NN a NN na NN k NN . 
Vp VB AA NN . 
Pak Vp VB . Vp VB moc NN . 
Vp VB o svém NN . 
Nakonec VB se Vp NN . 
Pak VB Vp VB NN . 
