Ahoj NN ! 
Jak se VB ? 
Co VB AA ? 
VB , že VB Vf do NN . 
To VB AA NN ! 
VB si , že nejlepe VB jestli VB v NN . 
VB ti NN a všechno VB vyborně . 
Tak že 5 . NN 2010 v 9.00 rano se VB na AA NN vedle NN NN " NN " . 
Už VB AA NN pro nás . 
V NN VB hodně NN které VB Vf . 
Například : 
AU NN , AA NN , NN . 
VB Vf na NN , a v NN , Vf na NN k NN . 
VB tady mnoho NN a VB si že VB se Vf . 
Všechny VB AC tě Vf a s tebou se Vf . 
VB to tva AA AA ! 
Už se na tebe VB ! 
Vi se ! 
Tvá NN . 
