AA NN VB k AA NN . 
Ale před NN 1993 , NN Vp Cl NN s AA AA NN . 
Se NN VB AA NN hodne AA NN . 
Kvuli AA NN , NN se Vp . 
Když se to Vp , Vp Cl nově AA : 
AA NN a NN . 
Hodne se Vp , a NN tichto AA NN Vp NN pro AA NN . 
