Můj AA NN VB moji NN . 
VB NN 16 . NN . 
Ten NN VB moc AA , protože NN a NN VB a VB NN . 
NN ime s NN a potom s NN . 
Vždycky oni Vp na NN a VB NN . 
Vf NN se VB na NN . 
Už dlouho VB . 
V AA NN Vp od NN NN , to VB AA NN . 
VB , že na AA VB to co ješte VB Vf . 
A potom VB Vf s NN . 
