Jak se VB ? 
Jak se VB NN NN . 
V NN , NN , NN a NN ja šehno VB AA NN v 9:00 - 13:00 . 
Ale , v NN 20:00 ja VB se na NN . 
Ve NN 19:00 VB AA NN a ve NN 17:30 NN do NN s NN . 
V NN VB v 15:00 až 18:00 . 
V NN VB NN a VB na NN na NN NN v 13:00 . 
V NN a taky VB NN , VB NN v 15:00 . 
NN 
