Líbílise mi NN . 
Vp VB v 10.00 . 
NN Vp moc AA a proto VB Vp ven . 
V 11:30 VB Vp NN a v 12:30 VB Vp . 
V 13:00 VB Vp a pak VB se Vp s NN . 
V 17:00 VB Vp NN do NN a Vp VB NN NN NN . 
V 23:00 VB Vp do NN a Vp VB Cl NN . 
Potom VB Vp NN NN a Vp VB s AA NN . 
Vp to AA . 
Vi se AA 
NN 
