Jak se VB ? 
To VB moje NN v NN . 
V NN dopoledne VB NN VB v 9:00 VB v 13:00 . 
Odpoledne VB NN v 18:00 . 
V NN jako v NN dopoledne . 
Odpoledne se VB na NN v 20:00 . 
V NN jako v NN dopoledne . 
Odpoledne VB AA NN v 19 : 00 . 
V NN dopoledne jako NN . VB NN NN . 
Ale Odpoledne VB do NN s NN v 17:30 NN . 
V NN VB NN VB 9:00 VB v 13:00 NN . 
Odpoledne VB v 15:00 - 18:00 NN . 
O NN odpoledne VB NN . 
NN odpoledne VB na NN na NN NN . 
Ale v NN VB NN . 
NN 
