Jak se VB ? 
O NN VB Vp na NN . 
Ja Vp v AA NN . 
Ten NN Vp moc AA . 
Vp VB v 10:00 NN rano . 
Potom v 11:30 VB Vp NN . 
V 12:30 VB Vp . 
Pak v 13:00 VB Vp . 
NN Vp moc hezky . 
V 14:00 VB Vp na NN moje NN . 
V 17:00 VB Vp do NN . 
Potom v 23:00 NN VB Vp Vf na NN a potom v 1:00 VB NN v NN . 
Vp to AA NN . 
Tvoje NN 
