Vzadu VB NN . NN VB AA . 
Nalevo VB NN a VB NN . 
Na NN VB NN . 
Ten NN VB . 
Naplavo VB NN . 
Na NN VB NN . 
Uprostř VB ta NN . 
Ta NN se VB NN . 
Vpredu VB NN . 
Ten NN VB . 
Na NN VB NN . NN VB AA . 
