AA NN : 
Ahoj . 
Jak se VB ? 
VB se dobře . 
VB Vf na NN na NN . 
VB NN do NN . 
VB Vf za Cl NN . 
VB Vf v NN NN . 
VB Vf v AA NN . 
VB se Vf AA NN a AA NN . 
Taky VB Vf AA NN NN a NN . 
VB AC AA NN v NN a VB Vf hodně NN . 
VB , že VB AA NN . 
Nakonec VB se Vf domů . 
Z NN do NN VB zase NN . 
Vi se moc hezky , VB se na Tvoje NN . 
Tvůj NN 
