s NN , že NN Vp moc AA a Vp NN . 
A proto VB si Vp , a pak VB Vp Vf se . 
Vp VB do AA NN a Vp AA NN , který VB 3+1 . 
Ten NN VB daleko od NN , ale to VB . 
Protože VB NN . 
VB AC AA NN , protože VB AA . 
AA NN VB Vf k nám , že ? 
VB se na tvou NN , a tak zatím ahoj . 
Srdečně Ti NN , 
NN . 
