Jak se VB . VB dobře . 
VB v 10.00 . 
V 11.30 VB AA NN . 
V 12.30 VB . 
Na NN ve 13.00 . 
Ve 14.00 VB NN . 
V 17.00 co VB , co Vp VB na NN . 
Vp VB v deset NN . 
V jedenáct NN třicet NN Vp AA NN . 
Vp VB ve dvanáct NN třicet . 
Vp ve třináct NN . 
Vp VB NN ve čtrnáct NN . 
Vp se NN v sedmnáct NN . 
Vp VB ve dvacet Cl NN . 
NN Cl NN Vp v 
Vi se AA . 
