Ahoj , 
Jak se VB ? 
VB se dobře . 
VB se za Cl NN na AA NN . 
Tvůj NN z NN Vp v osm NN ráno . 
VB Vf dřive , protože VB AA . 
Pak VB na AA NN , když VB ten NN . 
VB taky AU NN . 
Ten NN VB AA a AA . 
Co VB Vf ? 
VB mi AA v NN . 
VB se na tvůj NN . 
Vi se AA ! 
NN 
