Jak se VB ? 
VB se dobře . v NN Vp na NN . 
Vp VB v 10:00 . 
Vp VB NN v 11:30 . 
Vp VB ve 12:30 . 
Vp VB ve 13:00 . 
Vp VB dobře NN . 
Vp VB NN a Vp a VB NN . 
Vp VB s NN . 
Ve 14:00 VB se Vp Vp VB do NN v 17:00 . 
Vp VB na NN . ve 23:00 . Vp VB NN . 
VB na tvůj NN . 
VB na tebe ! 
NN 
