Na NN VB NN a AA NN . 
To VB NN , NN a jejich NN . 
Uprostřed VB NN . 
Tam VB NN a VB se na NN . 
Vedle NN vpravo VB NN . 
Na NN VB NN . 
VB VB AA NN . 
Vlevo VB NN . 
Tam VB jejich NN . 
Na NN VB AA NN . 
NN VB a VB NN . 
V NN VB NN . 
NN VB AC NN . 
Nahoře VB NN . 
Jejich NN VB AA a AA . 
