Ahoj , I VB Vp v 10 NN . potom VB Vp NN v 11:30 . 
Potom VB Vp v NN . 
V 13:00 VB Vp moc NN . 
NN Vp moc NN . 
Potom VB sí Vp NN v 14.00 . 
V 17.00 VB se Vp na NN . 
Ten NN Vp moc AA . 
Potom VB Vp na NN . 
Potom VB Vp NN v NN . 
