Ahoj NN , Jak se VB ? VB se dobře . 
Já VB v AA NN . 
NN VB AA a AA . 
To VB můj NN . 
AA NN VB NN NN . 
Záčím v 9:00 ráno a VB 13:00 odpoledne . AA VB AA ale AA . 
V 18:00 NN VB NN a v 20:00 VB se na NN . 
V 19:00 NN VB AA NN , o NN VB na NN na NN NN . 
Čau 
