Jak se VB ? 
Co VB za NN ? 
VB NN dobře NN . 
Od Vp do NN dopoledne VB Vf NN v 9:00 - 13:00 . 
To VB AA . 
V NN večer , VB Vf NN v 18:00 . 
A v XXX večer se VB du večer VB AA NN . 
A NN večer VB hezky . VB do NN s NN . 
V NN 15:00 - 18:00 . VB NN pro NN a NN . 
V NN a v NN dopoledne VB volno to VB AA . 
Já VB Vf . 
Ale v NN odpoledne VB na NN na NN NN . a v NN odpoledne VB NN . 
AC VB NN . 
NN 
