Ahoj NN , 
jak se VB ? VB se mi AA . 
Teď VB Vf moje NN z NN pre tibě . 
V NN od 9:00 do 13:00 VB NN a pak VB domu v 18:00 NN VB NN . 
V NN od 9:00 do 13:00 já taky VB NN . všechno AA NN VB NN ( NN - NN ) od 9:00 do 13:00 NN . 
V NN v 20 : 00 NN v VB se na NN . 
V NN v 19:00 NN VB AA NN a NN v 17:30 NN VB do NN s NN . 
V NN od 15:00 do 18:00 NN na NN . 
V NN VB volno od 9:00 : 13:00 a v 13:00 VB na NN na NN NN . 
V NN VB taky volno 9:00 : 13:00 a 15:00 NN VB NN . 
A to VB všechno moje v NN . 
Tvoje NN . 
NN 
