NN AA . 
Jak se VB . 
Já VB dobře . 
AA NN VB Vp do NN . 
NN NN Vp na NN . 
To Vp AA . 
Vp VB 10 NN a potom se Vp . 
To Vp AA NN . 
Dopoledne VB Vp NN NN . 
A pak VB Vp v NN Vp AA NN . 
Odpoledne VB Vp do NN na NN . 
Vp VB AA NN . 
A potom VB Vp mého NN . 
Večer VB Vp do NN na NN . 
A pak VB Vp na NN do NN . 
A potom VB Vp . 
V NN VB Vp do NN a VB NN . 
A pak VB Vp do NN . 
Vp AA NN 
Vi se AA 
NN . 
Vp Vf Vp NN NN NN - NN - NN 
