Ahoj jak se VB ? VB se dobře . 
Dneska v 11:30 NN ja VB na NN . 
A potom já Vp 12:30h . 
Ale ted VB . 
MMM to VB moc AA ! 
NN VB s NN . 
VB do NN . 
A s VB NN my VB ! ! v 23 : 00 NN . 
A už veče 1:00 NN VB Vf NN ! 
To VB skvěle . 
Vi se AA . 
Zatím ahoj . 
NN . 
