To VB AA NN . 
VB si nějaké NN . 
VB si NN . 
Takže , VB si AA NN . 
Ale VB Vf . 
Protože . 
VB AA NN . 
VB si , co VB to . 
A ona si VB AA NN . 
VB AA . 
A VB si něco AA NN . 
VB to AA NN . 
VB že , VB spolu . 
Kdy VB . 
VB za tvoje NN . 
AA NN . 
Čau . 
