vlevo VB NN a NN AA NN . NN VB NN . v NN VB NN . 
NN NN na NN . 
Na NN NN a NN vzadu VB AA NN . 
VB Vf NN . 
Nahoře VB NN . uprostřed VB NN . 
Na NN VB NN . 
Napravo v NN VB NN . 
Na NN VB vá VB NN . 
Napravo VB AA NN . 
Na NN VB AA , AA NN . vpředu VB NN a NN . 
Na NN VB NN a NN . a NN VB na NN a VB NN . 
