Ahoj NN , 
Jak se VB ? 
VB se dobře . 
VB ti za NN . 
VB AC , že AA NN VB volno a Vp Vc Vf do NN . 
Vp jsi , že v NN VB na NN v 10.00 ráno . 
VB se na NN a potom VB NN do NN . 
VB Vf v mé AA NN a potom VB na NN . 
Odpoledne VB na NN . 
VB Vf doma a pak VB NN na NN . 
VB , že AC VB V NN VB AU NN , AA NN a AA NN . 
Naposled VB Vf v NN . 
VB Vf v NN a Vf AA AA NN . 
VB , že VB NN , ale VB v AA NN , VB v NN 
Vi se AA ! 
NN 
