Ahoj NN ! 
To VB muj NN v NN . NN VB 8 NN . Vf AA VB NN . 
9 NN VB v NN . 
13 NN NN muj NN odpoledne NN ja VB NN . a NN 13 NN . večer se VB na NN . VB 8 NN a potom VB v NN . NN 13 NN . včera VB AA NN . v NN VB 8 NN . a 13 NN NN dom . 
A včer VB do NN s NN . v NN VB 8 NN . a VB v NN 9 NN . odpoledne VB . ja VB pozdie . a potom VB na NN . NN VB NN taky . 
JA NN pozdie . NN VB NN . 
NN ! 
