Moje NN . 
Moje NN velmí AA a AA . 
Ona AA , přátelsky , AA , AA , NN AA a AA . 
NN VB AA NN 
NN NN velmí AA , AA , AA , zdvořil AA , AA , AA a AA . 
NN NN AA , AA , AA , NN prátelsky ale AA , AA a AA . 
Ya VB v NN Cl cloveka . 
Moje NN velm AA a AA 
