a ) Ráno v 8 hodin , Jakub sportva .
b ) Ráno v 9.30 , čte noviny .
c ) V 11 hodin , chodí do supermarketu .
d ) V 12 hodin , vaří .
e ) V 13.30 , chodí do park na procházku .
f ) V 15.30 , píše dopis .
g ) vecer v 18.00 hodin , dívá se na televízí .
h ) Vecer 21.30 , jde do postele .
