vastala jsem v 10:00 . potom v 11:30 . jsem hravala .
V 12:30 jsem plavala .
V 13:00 jsem obědevala .
V 14:00 jsem diskotekala s kamáladovi .
V 17:00 jsem divala na filmů .
V noči 23:00 i s kamalada .
V 1:00 pila vino .
můj hrezky den !
těšim se hrezky .
Eva
