Acc.	F-score	Cont.	Kernel	C	Deg.
53.56	40.27	0	0	0.001	
53.56	40.27	0	0	0.01	
53.56	40.27	0	0	0.1	
53.56	40.27	0	0	1.0	
53.56	40.27	0	0	10.0	
53.56	40.27	0	0	100.0	
53.56	40.27	0	0	1000.0	
53.56	40.27	0	0	10000.0	
53.56	40.27	0	1	0.001	1
48.33	44.27	0	1	0.001	2
62.02	34.26	0	1	0.001	3
53.56	40.27	0	1	0.01	1
48.33	44.27	0	1	0.01	2
37.98	36.5	0	1	0.01	3
53.56	40.27	0	1	0.1	1
37.98	36.5	0	1	0.1	2
40.41	35.72	0	1	0.1	3
53.56	40.27	0	1	10000.0	1
62.02	34.26	0	1	10000.0	2
40.41	35.72	0	1	10000.0	3
53.56	40.27	0	1	1000.0	1
37.98	36.5	0	1	1000.0	2
40.41	35.72	0	1	1000.0	3
46.44	31.05	0	1	100.0	1
37.98	36.5	0	1	100.0	2
40.41	35.72	0	1	100.0	3
53.56	40.27	0	1	10.0	1
62.02	34.26	0	1	10.0	2
40.41	35.72	0	1	10.0	3
53.56	40.27	0	1	1.0	1
62.02	34.26	0	1	1.0	2
40.41	35.72	0	1	1.0	3
